Buildfile: /home/lpxz/eclipse/workspacePA_icse/leap/transformer/build.xml

TransformMain:
     [java] loading the general arguments from leap.transformer.arg:
     [java] /home/lpxz/eclipse/workspacePA_icse/jstamp-AJ/bin
     [java] -f c -cp /home/lpxz/pool/jdk1.6.0_26/jre/lib/resources.jar:/home/lpxz/pool/jdk1.6.0_26/jre/lib/rt.jar:/home/lpxz/pool/jdk1.6.0_26/jre/lib/sunrsasign.jar:/home/lpxz/pool/jdk1.6.0_26/jre/lib/jsse.jar:/home/lpxz/pool/jdk1.6.0_26/jre/lib/jce.jar:/home/lpxz/pool/jdk1.6.0_26/jre/lib/charsets.jar:/home/lpxz/pool/jdk1.6.0_26/jre/lib/modules/jdk.boot.jar:/home/lpxz/pool/jdk1.6.0_26/jre/classes:/home/lpxz/eclipse/workspacePA_icse/leap/transformer/bin:/home/lpxz/eclipse/workspacePA_icse/leap/transformer/lib/xpp3_min-1.1.3.4.O.jar:/home/lpxz/eclipse/workspacePA_icse/leap/transformer/lib/xstream-1.3.1.jar:/home/lpxz/eclipse/workspacePA_icse/leap/transformer/lib/jasmin-2.3.0.jar:/home/lpxz/eclipse/workspacePA_icse/leap/transformer/lib/polyglot.jar:/home/lpxz/eclipse/workspacePA_icse/leap/transformer/lib/java_cup.jar:/home/lpxz/eclipse/workspacePA_icse/soot-One/classes:/home/lpxz/eclipse/workspacePA_icse/soot-One/lib/jasminclasses-2.5.0.jar:/home/lpxz/eclipse/workspacePA_icse/soot-One/lib/polyglotclasses-1.3.5.jar:/home/lpxz/eclipse/workspacePA_icse/jstamp-AJ/bin -main-class Bayes.Bayes Bayes.Bayes -d /home/lpxz/eclipse/workspacePA_icse/leap/transformer/tmp/record/
     [java] output record version to: /home/lpxz/eclipse/workspacePA_icse/leap/transformer/tmp/record/
     [java] [Call Graph] For information on where the call graph may be incomplete, use the verbose option to the cg phase.
     [java] [Spark] Pointer Assignment Graph in 0.7 seconds.
     [java] [Spark] Type masks in 1.9 seconds.
     [java] [Spark] Pointer Graph simplified in 0.0 seconds.
     [java] [Spark] Propagation in 22.7 seconds.
     [java] [Spark] Solution found in 22.7 seconds.
     [java] [local-objects] Analyzing local objects for Bayes.Bayes
     [java] [local-objects]   preparing class             Sat Nov 01 16:33:31 EDT 2014
     [java] [local-objects]   analyzing class             Sat Nov 01 16:33:31 EDT 2014
     [java] [local-objects]   propagating over call graph Sat Nov 01 16:33:32 EDT 2014
     [java] [local-objects]   finished at                 Sat Nov 01 16:33:32 EDT 2014
     [java] [local-objects]   (#analyzed/#encountered): 322/429
     [java] Transforming Bayes.Bayes... 
     [java] Transforming Bayes.Learner... 
     [java] exception in loadstore optimization for:  Bayes.Learner.createTaskList
     [java] exception in loadstore optimization for:  Bayes.Learner.populateParentQueryVector
     [java] exception in loadstore optimization for:  Bayes.Learner.TMpopulateParentQueryVector
     [java] exception in loadstore optimization for:  Bayes.Learner.TMfindBestInsertTask
     [java] Transforming Bayes.Net... 
     [java] exception in loadstore optimization for:  Bayes.Learner.learnStructure
     [java] exception in loadstore optimization for:  Bayes.Net.net_hasEdge
     [java] exception in loadstore optimization for:  Bayes.Net.net_isPath
     [java] exception in loadstore optimization for:  Bayes.Net.isCycle
     [java] Transforming Bayes.Adtree... 
     [java] Transforming Bayes.Data... 
     [java] Transforming Bayes.Random... 
     [java] Transforming Yada.java.Barrier... 
     [java] Transforming Bayes.Sort... 
     [java] Transforming common.BitMap... 
     [java] exception in loadstore optimization for:  common.BitMap.bitmap_clearAll
     [java] exception in loadstore optimization for:  common.BitMap.bitmap_findClear
     [java] exception in loadstore optimization for:  Bayes.IntList.findPrevious
     [java] exception in loadstore optimization for:  Bayes.Queue.queue_push
     [java] Transforming Bayes.IntList... 
     [java] Transforming Bayes.IntVector... 
     [java] Transforming Bayes.IntListNode... 
     [java] Transforming Bayes.Queue... 
     [java] Transforming Bayes.AdtreeNode... 
     [java] Transforming Bayes.AdtreeVary... 
     [java] Transforming Bayes.Vector_t... 
     [java] exception in loadstore optimization for:  Bayes.Vector_t.vector_clear
     [java] exception in loadstore optimization for:  Bayes.List.findPrevious
     [java] exception in loadstore optimization for:  Bayes.QuickSort.qsort
     [java] Transforming Bayes.Query... 
     [java] Transforming Bayes.NetNode... 
     [java] Transforming Bayes.LearnerTask... 
     [java] Transforming Bayes.List... 
     [java] Transforming common.LocalStartStop... 
     [java] Transforming Bayes.FindBestTaskArg... 
     [java] Transforming common.G... 
     [java] Transforming Bayes.ListNode... 
     [java] Transforming Bayes.IntListIter... 
     [java] Transforming Bayes.QuickSort... 
     [java] Transforming Bayes.ListIter... 
     [java] Writing to /home/lpxz/eclipse/workspacePA_icse/leap/transformer/tmp/record/Bayes/Random.class
     [java] Writing to /home/lpxz/eclipse/workspacePA_icse/leap/transformer/tmp/record/Bayes/ListIter.class
     [java] Writing to /home/lpxz/eclipse/workspacePA_icse/leap/transformer/tmp/record/Bayes/IntVector.class
     [java] Writing to /home/lpxz/eclipse/workspacePA_icse/leap/transformer/tmp/record/common/BitMap.class
     [java] Writing to /home/lpxz/eclipse/workspacePA_icse/leap/transformer/tmp/record/Bayes/List.class
     [java] Writing to /home/lpxz/eclipse/workspacePA_icse/leap/transformer/tmp/record/Bayes/Query.class
     [java] Writing to /home/lpxz/eclipse/workspacePA_icse/leap/transformer/tmp/record/Bayes/FindBestTaskArg.class
     [java] Writing to /home/lpxz/eclipse/workspacePA_icse/leap/transformer/tmp/record/Bayes/Learner.class
     [java] Writing to /home/lpxz/eclipse/workspacePA_icse/leap/transformer/tmp/record/Bayes/Queue.class
     [java] Writing to /home/lpxz/eclipse/workspacePA_icse/leap/transformer/tmp/record/common/G.class
     [java] Writing to /home/lpxz/eclipse/workspacePA_icse/leap/transformer/tmp/record/Bayes/AdtreeVary.class
     [java] Writing to /home/lpxz/eclipse/workspacePA_icse/leap/transformer/tmp/record/Bayes/LearnerTask.class
     [java] Writing to /home/lpxz/eclipse/workspacePA_icse/leap/transformer/tmp/record/Bayes/IntList.class
     [java] Writing to /home/lpxz/eclipse/workspacePA_icse/leap/transformer/tmp/record/Bayes/AdtreeNode.class
     [java] Writing to /home/lpxz/eclipse/workspacePA_icse/leap/transformer/tmp/record/Bayes/Sort.class
     [java] Writing to /home/lpxz/eclipse/workspacePA_icse/leap/transformer/tmp/record/Bayes/Adtree.class
     [java] Writing to /home/lpxz/eclipse/workspacePA_icse/leap/transformer/tmp/record/Bayes/IntListIter.class
     [java] Writing to /home/lpxz/eclipse/workspacePA_icse/leap/transformer/tmp/record/Bayes/Data.class
     [java] Writing to /home/lpxz/eclipse/workspacePA_icse/leap/transformer/tmp/record/Bayes/NetNode.class
     [java] Writing to /home/lpxz/eclipse/workspacePA_icse/leap/transformer/tmp/record/common/LocalStartStop.class
     [java] Writing to /home/lpxz/eclipse/workspacePA_icse/leap/transformer/tmp/record/Yada/java/Barrier.class
     [java] Writing to /home/lpxz/eclipse/workspacePA_icse/leap/transformer/tmp/record/Bayes/Bayes.class
     [java] Writing to /home/lpxz/eclipse/workspacePA_icse/leap/transformer/tmp/record/Bayes/QuickSort.class
     [java] ***** Runtime version generated *****
     [java] Writing to /home/lpxz/eclipse/workspacePA_icse/leap/transformer/tmp/record/Bayes/Net.class
     [java] Writing to /home/lpxz/eclipse/workspacePA_icse/leap/transformer/tmp/record/Bayes/Vector_t.class
     [java] Writing to /home/lpxz/eclipse/workspacePA_icse/leap/transformer/tmp/record/Bayes/IntListNode.class
     [java] Writing to /home/lpxz/eclipse/workspacePA_icse/leap/transformer/tmp/record/Bayes/ListNode.class
     [java] *** *** *** *** *** *** *** *** *** *** 
     [java] 
     [java] *** Total access number: 969
     [java] *** SPE access number: 437
     [java] *** Instrumented SPE access number: 437
     [java] *** SPE size: 57
     [java]  
     [java] *** *** *** *** *** *** *** *** *** *** 
     [java] *** SPE name: 
     [java] *** "Bayes.AdtreeVary.mostCommonValue" index: 38 does not survive chord
     [java] *** "Bayes.ListNode.nextPtr" index: 16
     [java] *** "Bayes.FindBestTaskArg.numTotalParent" index: 27 does not survive chord
     [java] *** "Bayes.NetNode.childIdListPtr" index: 36 does not survive chord
     [java] *** "int[].ARRAYINDEX" index: 0 does not survive chord
     [java] *** "Bayes.Bayes.global_maxNumEdgeLearned" index: 3 does not survive chord
     [java] *** "Bayes.Learner.netPtr" index: 1 does not survive chord
     [java] *** "Bayes.Vector_t.size" index: 54
     [java] *** "Bayes.FindBestTaskArg.bitmapPtr" index: 30 does not survive chord
     [java] *** "Bayes.Query.value" index: 7
     [java] *** "Bayes.Queue.pop" index: 49 does not survive chord
     [java] *** "Bayes.FindBestTaskArg.queryVectorPtr" index: 25 does not survive chord
     [java] *** "Bayes.FindBestTaskArg.bQueryVectorPtr" index: 33 does not survive chord
     [java] *** "common.BitMap.numWord" index: 45 does not survive chord
     [java] *** "Bayes.FindBestTaskArg.toId" index: 22 does not survive chord
     [java] *** "Bayes.Query[].ARRAYINDEX" index: 21
     [java] *** "Bayes.LearnerTask.fromId" index: 12
     [java] *** "java.lang.Object[].ARRAYINDEX" index: 53
     [java] *** "Bayes.NetNode.parentIdListPtr" index: 35 does not survive chord
     [java] *** "Bayes.AdtreeNode.count" index: 41 does not survive chord
     [java] *** "Bayes.List.size" index: 56
     [java] *** "Bayes.FindBestTaskArg.learnerPtr" index: 23 does not survive chord
     [java] *** "Bayes.FindBestTaskArg.aQueryVectorPtr" index: 32 does not survive chord
     [java] *** "Bayes.Queue.push" index: 50 does not survive chord
     [java] *** "Bayes.LearnerTask[].ARRAYINDEX" index: 10
     [java] *** "common.LocalStartStop.i_start" index: 4 does not survive chord
     [java] *** "Bayes.IntList.head" index: 18 does not survive chord
     [java] *** "Bayes.FindBestTaskArg.baseLogLikelihood" index: 29 does not survive chord
     [java] *** "Bayes.Learner.baseLogLikelihood" index: 9 does not survive chord
     [java] *** "Bayes.Queue.capacity" index: 51 does not survive chord
     [java] *** "Bayes.AdtreeVary.zeroNodePtr" index: 39 does not survive chord
     [java] *** "Bayes.FindBestTaskArg.workQueuePtr" index: 31 does not survive chord
     [java] *** "Bayes.AdtreeVary.oneNodePtr" index: 40 does not survive chord
     [java] *** "Yada.java.Barrier.cyclicBarrier" index: 42 does not survive chord
     [java] *** "Bayes.Queue.elements" index: 48 does not survive chord
     [java] *** "common.LocalStartStop.i_stop" index: 5 does not survive chord
     [java] *** "Bayes.FindBestTaskArg.basePenalty" index: 28 does not survive chord
     [java] *** "byte[].ARRAYINDEX" index: 43 does not survive chord
     [java] *** "Bayes.LearnerTask.score" index: 14
     [java] *** "Bayes.Vector_t.capacity" index: 55
     [java] *** "common.BitMap.numBit" index: 44 does not survive chord
     [java] *** "Bayes.IntListNode.nextPtr" index: 19
     [java] *** "Bayes.Learner.numTotalParent" index: 34 does not survive chord
     [java] *** "Bayes.Vector_t.elements" index: 52
     [java] *** "Bayes.LearnerTask.toId" index: 13
     [java] *** "Bayes.Query.index" index: 6
     [java] *** "Bayes.IntList.size" index: 47
     [java] *** "Bayes.ListNode.dataPtr" index: 17
     [java] *** "Bayes.FindBestTaskArg.queries" index: 24 does not survive chord
     [java] *** "common.BitMap.bits" index: 46 does not survive chord
     [java] *** "Bayes.FindBestTaskArg.parentQueryVectorPtr" index: 26 does not survive chord
     [java] *** "Bayes.Bayes.global_insertPenalty" index: 2 does not survive chord
     [java] *** "Bayes.IntListNode.dataPtr" index: 20
     [java] *** "Bayes.List.head" index: 15 does not survive chord
     [java] *** "float[].ARRAYINDEX" index: 8
     [java] *** "Bayes.LearnerTask.op" index: 11
     [java] *** "Bayes.NetNode.mark" index: 37 does not survive chord

BUILD SUCCESSFUL
Total time: 34 seconds
