Buildfile: /home/lpxz/eclipse/workspacePA_icse/leap/transformer/build.xml

TransformMain:
     [java] loading the general arguments from leap.transformer.arg:
     [java] /home/lpxz/eclipse/workspacePA_icse/specjbb2005/bin
     [java] -f c -cp /home/lpxz/pool/jdk1.6.0_26/jre/lib/resources.jar:/home/lpxz/pool/jdk1.6.0_26/jre/lib/rt.jar:/home/lpxz/pool/jdk1.6.0_26/jre/lib/sunrsasign.jar:/home/lpxz/pool/jdk1.6.0_26/jre/lib/jsse.jar:/home/lpxz/pool/jdk1.6.0_26/jre/lib/jce.jar:/home/lpxz/pool/jdk1.6.0_26/jre/lib/charsets.jar:/home/lpxz/pool/jdk1.6.0_26/jre/lib/modules/jdk.boot.jar:/home/lpxz/pool/jdk1.6.0_26/jre/classes:/home/lpxz/eclipse/workspacePA_icse/leap/transformer/bin:/home/lpxz/eclipse/workspacePA_icse/leap/transformer/lib/xpp3_min-1.1.3.4.O.jar:/home/lpxz/eclipse/workspacePA_icse/leap/transformer/lib/xstream-1.3.1.jar:/home/lpxz/eclipse/workspacePA_icse/leap/transformer/lib/jasmin-2.3.0.jar:/home/lpxz/eclipse/workspacePA_icse/leap/transformer/lib/polyglot.jar:/home/lpxz/eclipse/workspacePA_icse/leap/transformer/lib/java_cup.jar:/home/lpxz/eclipse/workspacePA_icse/soot-One/classes:/home/lpxz/eclipse/workspacePA_icse/soot-One/lib/jasminclasses-2.5.0.jar:/home/lpxz/eclipse/workspacePA_icse/soot-One/lib/polyglotclasses-1.3.5.jar:/home/lpxz/eclipse/workspacePA_icse/specjbb2005/bin -main-class spec.jbb.JBBmain spec.jbb.JBBmain -d /home/lpxz/eclipse/workspacePA_icse/leap/transformer/tmp/record/
     [java] output record version to: /home/lpxz/eclipse/workspacePA_icse/leap/transformer/tmp/record/
     [java] found type: Ljava/util/Enumeration<Ljava/lang/String;>;
     [java] found type: Ljava/util/Enumeration<Ljava/lang/String;>;
     [java] found type: Ljava/util/Enumeration<Ljava/lang/String;>;
     [java] found type: Ljava/util/Vector<Ljava/lang/String;>;
     [java] found type: Ljava/util/Vector<Ljava/lang/String;>;
     [java] found type: Ljava/util/Vector<Ljava/lang/String;>;
     [java] found type: Ljava/util/Vector<Ljava/lang/String;>;
     [java] found type: Ljava/util/Vector<Lspec/reporter/Run;>;
     [java] found type: Ljava/util/Vector<Lspec/reporter/Run;>;
     [java] found type: Ljava/util/Vector<Lspec/reporter/Run;>;
     [java] found type: Ljava/util/Vector<Lspec/reporter/Run;>;
     [java] [Call Graph] For information on where the call graph may be incomplete, use the verbose option to the cg phase.
     [java] [Spark] Pointer Assignment Graph in 0.6 seconds.
     [java] [Spark] Type masks in 0.4 seconds.
     [java] [Spark] Pointer Graph simplified in 0.0 seconds.
     [java] [Spark] Propagation in 77.2 seconds.
     [java] [Spark] Solution found in 77.2 seconds.
     [java] [local-objects] Analyzing local objects for spec.jbb.JBBmain
     [java] [local-objects]   preparing class             Sat Nov 01 16:42:00 EDT 2014
     [java] [local-objects]   analyzing class             Sat Nov 01 16:42:00 EDT 2014
     [java] [local-objects]   propagating over call graph Sat Nov 01 16:42:15 EDT 2014
     [java] [local-objects]   finished at                 Sat Nov 01 16:42:16 EDT 2014
     [java] [local-objects]   (#analyzed/#encountered): 1221/1978
     [java] Transforming spec.jbb.JBBmain... 
     [java] exception in loadstore optimization for:  spec.jbb.JBBmain.doIt
     [java] exception in loadstore optimization for:  spec.jbb.JBBmain.increaseNumWarehouses
     [java] Transforming spec.jbb.Company... 
     [java] exception in loadstore optimization for:  spec.jbb.JBBmain.main
     [java] exception in loadstore optimization for:  spec.jbb.Company.trimOrdersForSteadyState
     [java] Transforming spec.jbb.JBBProperties... 
     [java] exception in loadstore optimization for:  spec.jbb.Company.displayResultTotals
     [java] exception in loadstore optimization for:  spec.jbb.Company.loadWarehouseTable
     [java] exception in loadstore optimization for:  spec.jbb.Company.loadCustomerTable
     [java] exception in loadstore optimization for:  spec.jbb.Company.loadItemTable
     [java] exception in loadstore optimization for:  spec.jbb.Company.loadWarehouseHistoryTable
     [java] exception in loadstore optimization for:  spec.jbb.Company.loadInitialOrders
     [java] Transforming spec.reporter.TextiReport... 
     [java] Transforming spec.jbb.validity.digest... 
     [java] Transforming spec.jbb.RunSequencer... 
     [java] Transforming spec.jbb.TransactionManager... 
     [java] exception in loadstore optimization for:  spec.jbb.RunSequencer.getSeq
     [java] Transforming spec.jbb.SaveOutput... 
     [java] Transforming spec.jbb.TimerData... 
     [java] exception in loadstore optimization for:  spec.jbb.TimerData.calculateResponseTimeStats
     [java] Transforming spec.jbb.Transaction... 
     [java] Transforming spec.reporter.Report... 
     [java] Transforming spec.jbb.JBButil... 
     [java] Transforming spec.jbb.JBBLogFormatter... 
     [java] Transforming spec.reporter.TextColumn... 
     [java] Transforming spec.reporter.TextMetrics... 
     [java] exception in loadstore optimization for:  spec.jbb.JBButil.create_random_a_string
     [java] exception in loadstore optimization for:  spec.jbb.JBButil.create_random_a_string
     [java] exception in loadstore optimization for:  spec.jbb.JBButil.create_random_a_string
     [java] Transforming spec.reporter.ReportProps... 
     [java] Transforming spec.reporter.TextBlock... 
     [java] Transforming spec.jbb.validity.digestExpected... 
     [java] Transforming spec.jbb.ResFilter... 
     [java] Transforming spec.jbb.Company$runModes... 
     [java] Transforming spec.jbb.NewOrderTransaction... 
     [java] Transforming spec.jbb.Warehouse... 
     [java] Transforming spec.jbb.infra.Util.TransactionLogBuffer... 
     [java] exception in loadstore optimization for:  spec.jbb.Warehouse.trimOrdersForSteadyState
     [java] Transforming spec.jbb.JBBDataStorage... 
     [java] Transforming spec.jbb.JBBSortedStorage... 
     [java] Transforming spec.jbb.Customer... 
     [java] Transforming spec.jbb.Item... 
     [java] Transforming spec.jbb.Infrastructure... 
     [java] Transforming spec.reporter.Metrics... 
     [java] Transforming spec.reporter.Template... 
     [java] Transforming spec.reporter.TableGroupCompare... 
     [java] Transforming spec.reporter.Title... 
     [java] Transforming spec.reporter.TemplateCompare... 
     [java] Transforming spec.reporter.Result... 
     [java] Transforming spec.reporter.Run... 
     [java] Transforming spec.jbb.District... 
     [java] Transforming spec.jbb.Order... 
     [java] Transforming spec.jbb.infra.Util.XMLTransactionLog... 
     [java] Transforming spec.jbb.Orderline... 
     [java] Transforming spec.jbb.NewOrder... 
     [java] Transforming spec.jbb.Address... 
     [java] Transforming spec.jbb.Stock... 
     [java] Transforming spec.jbb.History... 
     [java] exception in loadstore optimization for:  spec.jbb.Order.processLines
     [java] exception in loadstore optimization for:  spec.jbb.Stock.initStock
     [java] Transforming spec.jbb.infra.Util.ScreenException... 
     [java] Transforming spec.jbb.TreeMapDataStorage... 
     [java] Transforming spec.jbb.Infrastructure$SynchronizedJBBDataStorage... 
     [java] Transforming spec.jbb.MapDataStorage... 
     [java] Transforming spec.jbb.Infrastructure$SynchronizedJBBSortedStorage... 
     [java] Transforming spec.reporter.Table... 
     [java] Transforming spec.reporter.GraphImage... 
     [java] Writing to /home/lpxz/eclipse/workspacePA_icse/leap/transformer/tmp/record/spec/reporter/TextBlock.class
     [java] exception in loadstore optimization for:  spec.reporter.Table.insertBreakAfterColons
     [java] Writing to /home/lpxz/eclipse/workspacePA_icse/leap/transformer/tmp/record/spec/jbb/validity/digest.class
     [java] Writing to /home/lpxz/eclipse/workspacePA_icse/leap/transformer/tmp/record/spec/jbb/Customer.class
     [java] Writing to /home/lpxz/eclipse/workspacePA_icse/leap/transformer/tmp/record/spec/jbb/Company.class
     [java] Writing to /home/lpxz/eclipse/workspacePA_icse/leap/transformer/tmp/record/spec/jbb/History.class
     [java] Writing to /home/lpxz/eclipse/workspacePA_icse/leap/transformer/tmp/record/spec/reporter/Title.class
     [java] Writing to /home/lpxz/eclipse/workspacePA_icse/leap/transformer/tmp/record/spec/jbb/infra/Util/XMLTransactionLog.class
     [java] Writing to /home/lpxz/eclipse/workspacePA_icse/leap/transformer/tmp/record/spec/reporter/TextMetrics.class
     [java] Writing to /home/lpxz/eclipse/workspacePA_icse/leap/transformer/tmp/record/spec/jbb/JBBLogFormatter.class
     [java] Writing to /home/lpxz/eclipse/workspacePA_icse/leap/transformer/tmp/record/spec/jbb/NewOrder.class
     [java] Writing to /home/lpxz/eclipse/workspacePA_icse/leap/transformer/tmp/record/spec/reporter/Run.class
     [java] Writing to /home/lpxz/eclipse/workspacePA_icse/leap/transformer/tmp/record/spec/reporter/TextiReport.class
     [java] Writing to /home/lpxz/eclipse/workspacePA_icse/leap/transformer/tmp/record/spec/jbb/validity/digestExpected.class
     [java] Writing to /home/lpxz/eclipse/workspacePA_icse/leap/transformer/tmp/record/spec/jbb/TreeMapDataStorage.class
     [java] Writing to /home/lpxz/eclipse/workspacePA_icse/leap/transformer/tmp/record/spec/jbb/Infrastructure$SynchronizedJBBSortedStorage.class
     [java] Writing to /home/lpxz/eclipse/workspacePA_icse/leap/transformer/tmp/record/spec/reporter/Metrics.class
     [java] Writing to /home/lpxz/eclipse/workspacePA_icse/leap/transformer/tmp/record/spec/reporter/TemplateCompare.class
     [java] Writing to /home/lpxz/eclipse/workspacePA_icse/leap/transformer/tmp/record/spec/jbb/ResFilter.class
     [java] Writing to /home/lpxz/eclipse/workspacePA_icse/leap/transformer/tmp/record/spec/jbb/Item.class
     [java] Writing to /home/lpxz/eclipse/workspacePA_icse/leap/transformer/tmp/record/spec/jbb/JBBDataStorage.class
     [java] Writing to /home/lpxz/eclipse/workspacePA_icse/leap/transformer/tmp/record/spec/reporter/Result.class
     [java] Writing to /home/lpxz/eclipse/workspacePA_icse/leap/transformer/tmp/record/spec/jbb/MapDataStorage.class
     [java] Writing to /home/lpxz/eclipse/workspacePA_icse/leap/transformer/tmp/record/spec/reporter/Template.class
     [java] Writing to /home/lpxz/eclipse/workspacePA_icse/leap/transformer/tmp/record/spec/reporter/TableGroupCompare.class
     [java] Writing to /home/lpxz/eclipse/workspacePA_icse/leap/transformer/tmp/record/spec/reporter/TextColumn.class
     [java] Writing to /home/lpxz/eclipse/workspacePA_icse/leap/transformer/tmp/record/spec/jbb/infra/Util/ScreenException.class
     [java] Writing to /home/lpxz/eclipse/workspacePA_icse/leap/transformer/tmp/record/spec/jbb/Order.class
     [java] Writing to /home/lpxz/eclipse/workspacePA_icse/leap/transformer/tmp/record/spec/jbb/SaveOutput.class
     [java] Writing to /home/lpxz/eclipse/workspacePA_icse/leap/transformer/tmp/record/spec/jbb/TransactionManager.class
     [java] Writing to /home/lpxz/eclipse/workspacePA_icse/leap/transformer/tmp/record/spec/jbb/Orderline.class
     [java] Writing to /home/lpxz/eclipse/workspacePA_icse/leap/transformer/tmp/record/spec/jbb/JBButil.class
     [java] Writing to /home/lpxz/eclipse/workspacePA_icse/leap/transformer/tmp/record/spec/jbb/Transaction.class
     [java] Writing to /home/lpxz/eclipse/workspacePA_icse/leap/transformer/tmp/record/spec/jbb/JBBProperties.class
     [java] Writing to /home/lpxz/eclipse/workspacePA_icse/leap/transformer/tmp/record/spec/jbb/Warehouse.class
     [java] Writing to /home/lpxz/eclipse/workspacePA_icse/leap/transformer/tmp/record/spec/jbb/TimerData.class
     [java] Writing to /home/lpxz/eclipse/workspacePA_icse/leap/transformer/tmp/record/spec/jbb/Address.class
     [java] Writing to /home/lpxz/eclipse/workspacePA_icse/leap/transformer/tmp/record/spec/jbb/JBBSortedStorage.class
     [java] Writing to /home/lpxz/eclipse/workspacePA_icse/leap/transformer/tmp/record/spec/jbb/District.class
     [java] Writing to /home/lpxz/eclipse/workspacePA_icse/leap/transformer/tmp/record/spec/jbb/Infrastructure$SynchronizedJBBDataStorage.class
     [java] Writing to /home/lpxz/eclipse/workspacePA_icse/leap/transformer/tmp/record/spec/jbb/JBBmain.class
     [java] Writing to /home/lpxz/eclipse/workspacePA_icse/leap/transformer/tmp/record/spec/jbb/RunSequencer.class
     [java] Writing to /home/lpxz/eclipse/workspacePA_icse/leap/transformer/tmp/record/spec/reporter/Report.class
     [java] Writing to /home/lpxz/eclipse/workspacePA_icse/leap/transformer/tmp/record/spec/reporter/Table.class
     [java] Writing to /home/lpxz/eclipse/workspacePA_icse/leap/transformer/tmp/record/spec/jbb/Stock.class
     [java] Writing to /home/lpxz/eclipse/workspacePA_icse/leap/transformer/tmp/record/spec/jbb/NewOrderTransaction.class
     [java] Writing to /home/lpxz/eclipse/workspacePA_icse/leap/transformer/tmp/record/spec/reporter/ReportProps.class
     [java] Writing to /home/lpxz/eclipse/workspacePA_icse/leap/transformer/tmp/record/spec/reporter/GraphImage.class
     [java] ***** Runtime version generated *****
     [java] Writing to /home/lpxz/eclipse/workspacePA_icse/leap/transformer/tmp/record/spec/jbb/Company$runModes.class
     [java] Writing to /home/lpxz/eclipse/workspacePA_icse/leap/transformer/tmp/record/spec/jbb/Infrastructure.class
     [java] Writing to /home/lpxz/eclipse/workspacePA_icse/leap/transformer/tmp/record/spec/jbb/infra/Util/TransactionLogBuffer.class
     [java] *** *** *** *** *** *** *** *** *** *** 
     [java] 
     [java] *** Total access number: 2883
     [java] *** SPE access number: 895
     [java] *** Instrumented SPE access number: 895
     [java] *** SPE size: 151
     [java]  
     [java] *** *** *** *** *** *** *** *** *** *** 
     [java] *** SPE name: 
     [java] *** "spec.jbb.Company.stopThreadsCount" index: 42
     [java] *** "spec.jbb.Customer.firstName" index: 94 does not survive chord
     [java] *** "spec.jbb.Company.InitialNewOrders" index: 36 does not survive chord
     [java] *** "spec.jbb.JBBProperties.steadyStateFlag" index: 10 does not survive chord
     [java] *** "spec.jbb.JBBProperties.startingNumberWarehouses" index: 12 does not survive chord
     [java] *** "long[].ARRAYINDEX" index: 65
     [java] *** "spec.jbb.Order.orderlineList" index: 116
     [java] *** "spec.jbb.Company.per_jvm_warehouse_rampup" index: 46 does not survive chord
     [java] *** "java.util.Map.DSINDEX" index: 139 does not survive chord
     [java] *** "spec.jbb.Company.per_jvm_warehouse_rampdown" index: 47 does not survive chord
     [java] *** "spec.jbb.Company.initThreadsCount" index: 40
     [java] *** "spec.jbb.SaveOutput.oldStdout" index: 60 does not survive chord
     [java] *** "spec.jbb.JBBProperties.per_jvm_warehouse_rampdown" index: 6 does not survive chord
     [java] *** "spec.jbb.JBBProperties.printPropertiesAndArgs" index: 28 does not survive chord
     [java] *** "spec.jbb.JBBProperties.warehousePopulationBase" index: 7 does not survive chord
     [java] *** "spec.jbb.JBBmain.myCompany" index: 0 does not survive chord
     [java] *** "spec.jbb.Order.entryDateTime" index: 117
     [java] *** "spec.jbb.Order.customerDiscountRate" index: 122
     [java] *** "java.lang.Object[].ARRAYINDEX" index: 44
     [java] *** "spec.jbb.TimerData.rampup_time" index: 71
     [java] *** "spec.jbb.Stock.remoteCount" index: 133
     [java] *** "spec.jbb.Transaction.validationFlag" index: 79 does not survive chord
     [java] *** "spec.jbb.Order.orderId" index: 110
     [java] *** "spec.jbb.JBBProperties.showWarehouseDetail" index: 58 does not survive chord
     [java] *** "spec.jbb.Order.customerId" index: 113
     [java] *** "spec.jbb.Customer.middleName" index: 95 does not survive chord
     [java] *** "spec.jbb.Order.customerPtr" index: 114
     [java] *** "spec.jbb.Order.allLocal" index: 119
     [java] *** "spec.jbb.JBBProperties.sequenceOfWarehouses" index: 11 does not survive chord
     [java] *** "spec.jbb.JBBProperties.orderlinesPerOrder" index: 2 does not survive chord
     [java] *** "spec.jbb.Company.rampup_time" index: 38 does not survive chord
     [java] *** "spec.jbb.Company.MaxStock" index: 48 does not survive chord
     [java] *** "spec.jbb.Customer.lastName" index: 88
     [java] *** "spec.jbb.JBBProperties.applicationLoggingLevel" index: 54 does not survive chord
     [java] *** "spec.jbb.Address.state" index: 128 does not survive chord
     [java] *** "spec.jbb.Customer.phone" index: 96 does not survive chord
     [java] *** "spec.reporter.GraphImage.connectPointsEnabled" index: 147 does not survive chord
     [java] *** "spec.reporter.GraphImage.graphics" index: 140 does not survive chord
     [java] *** "byte[].ARRAYINDEX" index: 86
     [java] *** "spec.jbb.Company.measurement_time" index: 39 does not survive chord
     [java] *** "spec.jbb.Customer.credit2" index: 97 does not survive chord
     [java] *** "spec.jbb.Company.jvm_instances" index: 45 does not survive chord
     [java] *** "spec.jbb.Stock.company" index: 135 does not survive chord
     [java] *** "spec.jbb.JBBProperties.endingNumberWarehouses" index: 14 does not survive chord
     [java] *** "spec.jbb.JBBmain.multiJVMMode" index: 20 does not survive chord
     [java] *** "spec.jbb.TimerData.max_transaction_count" index: 69
     [java] *** "spec.jbb.Customer.districtId" index: 92 does not survive chord
     [java] *** "spec.reporter.GraphImage.pixeltype" index: 143 does not survive chord
     [java] *** "spec.jbb.JBBProperties.jvm_instances" index: 4 does not survive chord
     [java] *** "spec.reporter.GraphImage.pixelcolor" index: 144 does not survive chord
     [java] *** "spec.jbb.Orderline[].ARRAYINDEX" index: 123
     [java] *** "spec.jbb.JBButil.appLog" index: 84 does not survive chord
     [java] *** "spec.jbb.JBButil.r" index: 80 does not survive chord
     [java] *** "spec.jbb.JBBProperties.minBTPSRatio" index: 55 does not survive chord
     [java] *** "spec.jbb.JBBmain.instanceId" index: 17 does not survive chord
     [java] *** "spec.jbb.SaveOutput.logfile" index: 62 does not survive chord
     [java] *** "char[].ARRAYINDEX" index: 83
     [java] *** "spec.jbb.Customer.creditLimit" index: 98 does not survive chord
     [java] *** "spec.reporter.GraphImage.prevy" index: 150 does not survive chord
     [java] *** "java.lang.String[].ARRAYINDEX" index: 23
     [java] *** "spec.jbb.TimerData.min_transaction_count" index: 68
     [java] *** "spec.reporter.GraphImage.prevx" index: 149 does not survive chord
     [java] *** "spec.jbb.Customer.paymentCount" index: 101 does not survive chord
     [java] *** "spec.jbb.Company.threadsDoneCount" index: 41
     [java] *** "spec.jbb.Customer.lastOrder" index: 87
     [java] *** "float[].ARRAYINDEX" index: 66
     [java] *** "spec.jbb.Customer.deliveryCount" index: 102 does not survive chord
     [java] *** "spec.jbb.Transaction.maxOrderlines" index: 77 does not survive chord
     [java] *** "spec.jbb.Stock.data" index: 134
     [java] *** "spec.jbb.Stock.orderCount" index: 132
     [java] *** "spec.jbb.Address.city" index: 127 does not survive chord
     [java] *** "spec.jbb.Item.name" index: 105
     [java] *** "spec.jbb.Transaction.aveOrderlines" index: 75 does not survive chord
     [java] *** "spec.jbb.Company.elapsed_time" index: 50
     [java] *** "spec.jbb.TimerData.timerLog" index: 73
     [java] *** "spec.jbb.JBBmain.socOut" index: 27 does not survive chord
     [java] *** "spec.jbb.Transaction.validRun" index: 74 does not survive chord
     [java] *** "spec.jbb.TimerData.tpmc" index: 63
     [java] *** "spec.jbb.Order.company" index: 109
     [java] *** "int[].ARRAYINDEX" index: 25
     [java] *** "spec.jbb.TimerData.btps" index: 64
     [java] *** "spec.jbb.TimerData.measurement_time" index: 72
     [java] *** "spec.jbb.TransactionManager.mode" index: 59 does not survive chord
     [java] *** "spec.jbb.Customer.customerId" index: 93 does not survive chord
     [java] *** "spec.jbb.Company.MaxWarehouses" index: 31
     [java] *** "spec.jbb.JBBmain.outRawFile" index: 21 does not survive chord
     [java] *** "spec.jbb.Order.districtTax" index: 120
     [java] *** "spec.jbb.JBBProperties.uniformRandomItems" index: 57 does not survive chord
     [java] *** "spec.jbb.Customer.credit1" index: 90
     [java] *** "spec.jbb.Order.carrierId" index: 118
     [java] *** "spec.jbb.Transaction.enableLogWrite" index: 78 does not survive chord
     [java] *** "spec.jbb.Order.orderLineCount" index: 115
     [java] *** "spec.jbb.Order.warehouseId" index: 112
     [java] *** "spec.jbb.Customer.discount" index: 89
     [java] *** "spec.jbb.Stock.warehouseId" index: 137 does not survive chord
     [java] *** "spec.jbb.JBBProperties.overrideItemTableSize" index: 8 does not survive chord
     [java] *** "java.util.Random[].ARRAYINDEX" index: 82
     [java] *** "spec.reporter.GraphImage.pixelsize" index: 142 does not survive chord
     [java] *** "spec.jbb.Customer.data" index: 103 does not survive chord
     [java] *** "spec.jbb.Company.InitialHistories" index: 49 does not survive chord
     [java] *** "spec.jbb.JBBProperties.expectedPeakWarehouse" index: 56 does not survive chord
     [java] *** "spec.jbb.Item.price" index: 107
     [java] *** "spec.jbb.Transaction.steadyStateMem" index: 52 does not survive chord
     [java] *** "spec.jbb.Company.mode" index: 43 does not survive chord
     [java] *** "double[].ARRAYINDEX" index: 67
     [java] *** "spec.reporter.GraphImage.quality" index: 141 does not survive chord
     [java] *** "spec.jbb.JBBProperties.per_jvm_warehouse_rampup" index: 5 does not survive chord
     [java] *** "spec.jbb.Stock.id" index: 136 does not survive chord
     [java] *** "spec.jbb.JBBProperties.screenWriteFlag" index: 9 does not survive chord
     [java] *** "spec.reporter.GraphImage.prevSet" index: 148 does not survive chord
     [java] *** "spec.jbb.Item.brandInformation" index: 106
     [java] *** "spec.jbb.Transaction.minOrderlines" index: 76 does not survive chord
     [java] *** "spec.jbb.JBBProperties.rampupSeconds" index: 15 does not survive chord
     [java] *** "spec.jbb.Company.propPrefix" index: 51 does not survive chord
     [java] *** "spec.jbb.Item.id" index: 104 does not survive chord
     [java] *** "spec.jbb.Company.outPropFile" index: 29 does not survive chord
     [java] *** "spec.jbb.Stock.district_text" index: 138
     [java] *** "spec.jbb.Company.MaxCustomersPerDistrict" index: 33 does not survive chord
     [java] *** "spec.jbb.Company.MaxDistrictsPerWarehouse" index: 32 does not survive chord
     [java] *** "spec.jbb.JBBmain.maxWh" index: 24 does not survive chord
     [java] *** "spec.jbb.TimerData.useWaits" index: 70 does not survive chord
     [java] *** "spec.jbb.JBButil.warehouse_random_stream" index: 81 does not survive chord
     [java] *** "spec.jbb.Address.street1" index: 125 does not survive chord
     [java] *** "spec.jbb.Address.street2" index: 126 does not survive chord
     [java] *** "spec.jbb.JBBmain.socIn" index: 26 does not survive chord
     [java] *** "spec.jbb.JBBProperties.deterministicRandomSeed" index: 3 does not survive chord
     [java] *** "spec.jbb.JBBmain.uniformRandomItems" index: 18 does not survive chord
     [java] *** "spec.jbb.Customer.ytd" index: 100 does not survive chord
     [java] *** "spec.reporter.GraphImage.alphax" index: 145 does not survive chord
     [java] *** "spec.reporter.GraphImage.alphay" index: 146 does not survive chord
     [java] *** "spec.jbb.District.oldestOrder" index: 108 does not survive chord
     [java] *** "spec.jbb.JBBProperties.incrementNumberWarehouses" index: 13 does not survive chord
     [java] *** "spec.jbb.Warehouse.historyCount" index: 85 does not survive chord
     [java] *** "spec.jbb.Order.warehouseTax" index: 121
     [java] *** "spec.jbb.JBBProperties.measurementSeconds" index: 16 does not survive chord
     [java] *** "spec.jbb.Company.InitialOrders" index: 35 does not survive chord
     [java] *** "spec.jbb.Order.totalAmount" index: 124
     [java] *** "spec.jbb.Address.zip" index: 129 does not survive chord
     [java] *** "spec.jbb.Customer.warehouseId" index: 91 does not survive chord
     [java] *** "spec.jbb.Stock.quantity" index: 130
     [java] *** "spec.jbb.Order.districtId" index: 111
     [java] *** "spec.jbb.Company.MaxItems" index: 34 does not survive chord
     [java] *** "spec.jbb.Customer.balance" index: 99 does not survive chord
     [java] *** "spec.jbb.Company.outDeliveriesFile" index: 30 does not survive chord
     [java] *** "spec.jbb.JBBmain.prop" index: 19 does not survive chord
     [java] *** "spec.jbb.SaveOutput.oldStderr" index: 61 does not survive chord
     [java] *** "spec.jbb.JBBProperties.waitTimePercent" index: 1 does not survive chord
     [java] *** "spec.jbb.Company.PreviousMaxWarehouses" index: 37 does not survive chord
     [java] *** "spec.jbb.JBBProperties.checkThroughput" index: 53 does not survive chord
     [java] *** "spec.jbb.JBBmain.outDeliveriesFile" index: 22 does not survive chord
     [java] *** "spec.jbb.Stock.ytd" index: 131

BUILD SUCCESSFUL
Total time: 1 minute 48 seconds
