loading the general arguments from leap.transformer.arg:
loading chord..................
/home/lpxz/work/dacapo/out/luindex-small
-keep-line-number -app -w -p cg.spark enabled -f c -p cg reflection-log:/home/lpxz/work/dacapo/out/luindex-small/refl.log -cp /home/lpxz/pool/jdk1.6.0_26/jre/lib/resources.jar:/home/lpxz/pool/jdk1.6.0_26/jre/lib/rt.jar:/home/lpxz/pool/jdk1.6.0_26/jre/lib/sunrsasign.jar:/home/lpxz/pool/jdk1.6.0_26/jre/lib/jsse.jar:/home/lpxz/pool/jdk1.6.0_26/jre/lib/jce.jar:/home/lpxz/pool/jdk1.6.0_26/jre/lib/charsets.jar:/home/lpxz/pool/jdk1.6.0_26/jre/lib/modules/jdk.boot.jar:/home/lpxz/pool/jdk1.6.0_26/jre/classes:/home/lpxz/eclipse/workspacePA_icse/leap/transformer/bin:/home/lpxz/eclipse/workspacePA_icse/leap/transformer/lib/xpp3_min-1.1.3.4.O.jar:/home/lpxz/eclipse/workspacePA_icse/leap/transformer/lib/xstream-1.3.1.jar:/home/lpxz/eclipse/workspacePA_icse/leap/transformer/lib/jasmin-2.3.0.jar:/home/lpxz/eclipse/workspacePA_icse/leap/transformer/lib/polyglot.jar:/home/lpxz/eclipse/workspacePA_icse/leap/transformer/lib/java_cup.jar:/home/lpxz/eclipse/workspacePA_icse/leap/transformer/lib/jeff:/home/lpxz/eclipse/workspacePA_icse/soot-One/classes:/home/lpxz/eclipse/workspacePA_icse/soot-One/lib/jasminclasses-2.5.0.jar:/home/lpxz/eclipse/workspacePA_icse/soot-One/lib/polyglotclasses-1.3.5.jar:/home/lpxz/work/dacapo/out/luindex-small -process-dir /home/lpxz/work/dacapo/out/luindex-small -i org.apache -i org.w3c -d /home/lpxz/eclipse/workspacePA_icse/leap/transformer/tmp/record/
output record version to: /home/lpxz/eclipse/workspacePA_icse/leap/transformer/tmp/record/
Warning: org.apache.lucene.index.DocumentsWriter$1 is a phantom class!
Warning: org.apache.lucene.index.Term is a phantom class!
Warning: org.apache.lucene.search.Query is a phantom class!
Warning: org.apache.lucene.index.TermDocs is a phantom class!
Warning: org.apache.lucene.index.MergePolicy$OneMerge is a phantom class!
Warning: org.apache.lucene.index.MergeDocIDRemapper is a phantom class!
Warning: org.apache.lucene.search.Weight is a phantom class!
Warning: org.apache.lucene.index.BufferedDeletes$Num is a phantom class!
Warning: org.apache.lucene.search.Scorer is a phantom class!
Warning: org.apache.lucene.document.Document$1 is a phantom class!
Warning: org.apache.lucene.util.BitVector is a phantom class!
Warning: org.apache.lucene.index.MergePolicy$MergeSpecification is a phantom class!
Warning: org.apache.lucene.index.LogDocMergePolicy is a phantom class!
Warning: org.apache.lucene.index.CompoundFileWriter$1 is a phantom class!
Warning: org.apache.lucene.index.SegmentMerger$CheckAbort is a phantom class!
Warning: org.apache.lucene.index.TermVectorsWriter is a phantom class!
Warning: org.apache.lucene.index.SegmentInfos$2 is a phantom class!
Warning: org.apache.lucene.search.Explanation is a phantom class!
Warning: org.apache.lucene.search.Sort is a phantom class!
Warning: org.apache.lucene.search.HitCollector is a phantom class!
Warning: org.apache.lucene.search.Filter is a phantom class!
Warning: org.apache.lucene.search.TopFieldDocs is a phantom class!
Warning: org.apache.lucene.search.TopFieldDocCollector is a phantom class!
Warning: org.apache.lucene.search.DocIdSetIterator is a phantom class!
Warning: org.apache.lucene.search.DocIdSet is a phantom class!
Warning: org.apache.lucene.search.TopDocCollector is a phantom class!
Warning: org.apache.lucene.search.TopDocs is a phantom class!
Warning: org.apache.lucene.search.Hits is a phantom class!
Warning: org.apache.lucene.index.IndexReader$FieldOption is a phantom class!
Warning: org.apache.lucene.index.TermVectorMapper is a phantom class!
Warning: org.apache.lucene.index.TermFreqVector is a phantom class!
Warning: org.apache.lucene.index.StaleReaderException is a phantom class!
Warning: org.apache.lucene.index.CompoundFileReader is a phantom class!
Warning: org.apache.lucene.index.TermEnum is a phantom class!
Warning: org.apache.lucene.index.IndexReader$1 is a phantom class!
Warning: org.apache.lucene.index.IndexReader$2 is a phantom class!
Warning: org.apache.lucene.index.TermPositions is a phantom class!
Warning: org.apache.lucene.index.ReadOnlyMultiSegmentReader is a phantom class!
Warning: org.apache.lucene.index.SegmentReader$Norm is a phantom class!
Warning: org.apache.lucene.index.TermInfosReader is a phantom class!
Warning: org.apache.lucene.index.SegmentTermPositions is a phantom class!
Warning: org.apache.lucene.index.ReadOnlySegmentReader is a phantom class!
Warning: org.apache.lucene.index.FieldsReader is a phantom class!
Warning: org.apache.lucene.index.TermVectorsReader is a phantom class!
Warning: org.apache.lucene.index.MultiSegmentReader is a phantom class!
Warning: org.apache.lucene.index.SegmentTermEnum is a phantom class!
Warning: org.apache.lucene.index.SegmentTermDocs is a phantom class!
Warning: org.apache.lucene.index.Payload is a phantom class!
Warning: org.apache.lucene.index.IndexFileDeleter$1 is a phantom class!
Warning: org.apache.lucene.store.NativeFSLockFactory is a phantom class!
Warning: org.apache.lucene.store.Lock$With is a phantom class!
Warning: org.apache.lucene.index.SegmentMergeQueue is a phantom class!
Warning: org.apache.lucene.index.SegmentMergeInfo is a phantom class!
Warning: org.apache.lucene.index.SegmentMerger$1 is a phantom class!
Warning: org.apache.lucene.index.ConcurrentMergeScheduler$MergeThread is a phantom class!
Warning: org.apache.lucene.document.FieldSelectorResult is a phantom class!
Warning: org.apache.lucene.index.DirectoryIndexReader$2 is a phantom class!
Warning: org.apache.lucene.index.DirectoryIndexReader$1 is a phantom class!
Warning: org.apache.lucene.index.DirectoryIndexReader$ReaderCommit is a phantom class!
Warning: org.apache.lucene.util.UnicodeUtil$UTF16Result is a phantom class!
Warning: org.apache.lucene.store.NoLock is a phantom class!
Warning: org.apache.lucene.store.RAMDirectory is a phantom class!
Warning: org.dacapo.harness.Benchmark$1 is a phantom class!
Warning: org.apache.lucene.analysis.WordlistLoader is a phantom class!
Warning: org.apache.lucene.analysis.standard.StandardAnalyzer$1 is a phantom class!
Warning: org.apache.lucene.analysis.StopAnalyzer$SavedStreams is a phantom class!
Warning: org.apache.lucene.analysis.StopAnalyzer$1 is a phantom class!
Warning: org.apache.lucene.analysis.CharArraySet$CharArraySetIterator is a phantom class!
No main class given. Inferred 'org.apache.lucene.index.IndexReader' as main class.
[Call Graph] For information on where the call graph may be incomplete, use the verbose option to the cg phase.
[Spark] Pointer Assignment Graph in 1.4 seconds.
[Spark] Type masks in 0.0 seconds.
[Spark] Pointer Graph simplified in 0.0 seconds.
found type: Ljava/lang/Class<*>;
found type: Ljava/lang/Class<*>;
found type: Ljava/lang/Class<*>;
found type: Ljava/lang/Class<*>;
found type: Ljava/lang/Class<*>;
found type: Ljava/lang/Class<*>;
[Spark] Propagation in 26.5 seconds.
[Spark] Solution found in 26.5 seconds.
Transforming org.w3c.dom.Document... 
Transforming org.w3c.dom.Element... 
Transforming org.w3c.dom.Node... 
Transforming org.w3c.dom.NodeList... 
Transforming org.w3c.dom.Text... 
Transforming org.w3c.dom.DOMException... 
Transforming org.w3c.dom.Attr... 
Transforming org.w3c.dom.TypeInfo... 
Transforming org.w3c.dom.DocumentType... 
Transforming org.w3c.dom.DOMImplementation... 
Transforming org.w3c.dom.DocumentFragment... 
Transforming org.w3c.dom.Comment... 
Transforming org.w3c.dom.CDATASection... 
Transforming org.w3c.dom.ProcessingInstruction... 
Transforming org.w3c.dom.EntityReference... 
Transforming org.w3c.dom.DOMConfiguration... 
Transforming org.w3c.dom.NamedNodeMap... 
Transforming org.w3c.dom.UserDataHandler... 
Transforming org.w3c.dom.CharacterData... 
Transforming org.w3c.dom.DOMStringList... 
Transforming org.w3c.dom.ls.LSResourceResolver... 
Transforming org.w3c.dom.ls.LSInput... 
Transforming org.apache.lucene.index.DocFieldConsumersPerThread... 
Transforming org.apache.lucene.index.DocFieldConsumerPerThread... 
Transforming org.apache.lucene.index.DocFieldConsumers... 
Transforming org.apache.lucene.index.DocumentsWriter$DocState... 
Transforming org.apache.lucene.index.DocFieldProcessorPerThread... 
exception in loadstore optimization for:  org.apache.lucene.index.DocFieldProcessorPerThread.abort
exception in loadstore optimization for:  org.apache.lucene.index.DocFieldProcessorPerThread.fields
exception in loadstore optimization for:  org.apache.lucene.index.DocFieldProcessorPerThread.trimFields
exception in loadstore optimization for:  org.apache.lucene.index.DocFieldProcessorPerThread.rehash
exception in loadstore optimization for:  org.apache.lucene.index.DocFieldProcessorPerThread.processDocument
Transforming org.apache.lucene.index.DocumentsWriter$DocWriter... 
Transforming org.apache.lucene.index.DocFieldConsumerPerField... 
Transforming org.apache.lucene.index.FieldInfo... 
Transforming org.apache.lucene.index.DocFieldConsumers$PerDoc... 
Transforming org.apache.lucene.index.DocFieldConsumersPerField... 
Transforming org.apache.lucene.index.DocumentsWriter... 
exception in loadstore optimization for:  org.apache.lucene.index.DocumentsWriter.recycleIntBlocks
exception in loadstore optimization for:  org.apache.lucene.index.DocumentsWriter.recycleCharBlocks
Transforming org.apache.lucene.document.Fieldable... 
Transforming org.apache.lucene.analysis.Analyzer... 
Transforming org.apache.lucene.search.Similarity... 
Transforming org.apache.lucene.document.Document... 
Transforming org.apache.lucene.index.IndexWriter... 
exception in loadstore optimization for:  org.apache.lucene.index.IndexWriter.hasExternalSegments
exception in loadstore optimization for:  org.apache.lucene.index.IndexWriter.decrefMergeSegments
exception in loadstore optimization for:  org.apache.lucene.index.IndexWriter.registerMerge
exception in loadstore optimization for:  org.apache.lucene.index.IndexWriter._mergeInit
exception in loadstore optimization for:  org.apache.lucene.index.IndexWriter.doCommitBeforeMergeCFS
exception in loadstore optimization for:  org.apache.lucene.index.IndexWriter.mergeMiddle
exception in loadstore optimization for:  org.apache.lucene.index.IndexWriter.applyDeletes
exception in loadstore optimization for:  org.apache.lucene.index.IndexWriter.segString
Transforming org.apache.lucene.index.CorruptIndexException... 
Transforming org.apache.lucene.store.Directory... 
Transforming org.apache.lucene.index.DocumentsWriterThreadState... 
Transforming org.apache.lucene.index.DocFieldProcessor... 
Transforming org.apache.lucene.index.DocConsumer... 
Transforming org.apache.lucene.index.BufferedDeletes... 
Transforming org.apache.lucene.index.DocumentsWriter$FlushState... 
Transforming org.apache.lucene.index.DocumentsWriter$SkipDocWriter... 
Transforming org.apache.lucene.index.DocumentsWriter$ByteBlockAllocator... 
exception in loadstore optimization for:  org.apache.lucene.index.DocumentsWriter$ByteBlockAllocator.recycleByteBlocks
Transforming org.apache.lucene.index.DocumentsWriter$WaitQueue... 
Transforming org.apache.lucene.index.SegmentInfos... 
Transforming org.apache.lucene.index.IndexReader... 
Transforming org.apache.lucene.index.CompoundFileWriter... 
exception in loadstore optimization for:  org.apache.lucene.index.CompoundFileWriter.close
Transforming org.apache.lucene.index.TermVectorsTermsWriter... 
Transforming org.apache.lucene.index.TermsHash... 
Transforming org.apache.lucene.search.IndexSearcher... 
Transforming org.apache.lucene.search.Searcher... 
Transforming org.apache.lucene.index.InvertedDocEndConsumer... 
Transforming org.apache.lucene.index.MergePolicy... 
Transforming org.apache.lucene.index.InvertedDocConsumer... 
Transforming org.apache.lucene.index.SegmentReader... 
exception in loadstore optimization for:  org.apache.lucene.index.SegmentReader.reopenSegment
Transforming org.apache.lucene.index.FieldInfos... 
exception in loadstore optimization for:  org.apache.lucene.index.FieldInfos.hasProx
exception in loadstore optimization for:  org.apache.lucene.index.FieldInfos.hasVectors
Transforming org.apache.lucene.index.TermsHashConsumer... 
Transforming org.apache.lucene.index.StoredFieldsWriter... 
Transforming org.apache.lucene.index.DocFieldConsumer... 
Transforming org.apache.lucene.index.DocConsumerPerThread... 
Transforming org.apache.lucene.index.SegmentInfo... 
exception in loadstore optimization for:  org.apache.lucene.index.SegmentInfo.sizeInBytes
exception in loadstore optimization for:  org.apache.lucene.index.SegmentInfo.files
Transforming org.apache.lucene.index.FreqProxTermsWriter... 
exception in loadstore optimization for:  org.apache.lucene.index.FreqProxTermsWriter.flush
exception in loadstore optimization for:  org.apache.lucene.index.FreqProxTermsWriter.appendPostings
Transforming org.apache.lucene.index.DocInverter... 
Transforming org.apache.lucene.index.NormsWriter... 
exception in loadstore optimization for:  org.apache.lucene.index.NormsWriter.flush
Transforming org.apache.lucene.store.AlreadyClosedException... 
Transforming org.apache.lucene.index.DocFieldProcessorPerField... 
Transforming org.apache.lucene.util.ArrayUtil... 
Transforming org.apache.lucene.analysis.TokenStream... 
Transforming org.apache.lucene.util.CloseableThreadLocal... 
Transforming org.apache.lucene.util.SmallFloat... 
Transforming org.apache.lucene.search.DefaultSimilarity... 
Transforming org.apache.lucene.document.Field... 
Transforming org.apache.lucene.store.LockObtainFailedException... 
Transforming org.apache.lucene.index.MergePolicy$MergeAbortedException... 
Transforming org.apache.lucene.index.IndexFileDeleter... 
exception in loadstore optimization for:  org.apache.lucene.index.IndexFileDeleter.deleteCommits
exception in loadstore optimization for:  org.apache.lucene.index.IndexFileDeleter.incRef
Transforming org.apache.lucene.store.Lock... 
Transforming org.apache.lucene.index.MergeScheduler... 
Transforming org.apache.lucene.index.LogMergePolicy... 
Transforming org.apache.lucene.index.IndexWriter$MaxFieldLength... 
Transforming org.apache.lucene.index.IndexDeletionPolicy... 
Transforming org.apache.lucene.index.SegmentMerger... 
Transforming org.apache.lucene.index.MergePolicy$MergeException... 
Transforming org.apache.lucene.index.LogByteSizeMergePolicy... 
Transforming org.apache.lucene.store.FSDirectory... 
Transforming org.apache.lucene.index.KeepOnlyLastCommitDeletionPolicy... 
Transforming org.apache.lucene.index.ConcurrentMergeScheduler... 
exception in loadstore optimization for:  org.apache.lucene.index.ConcurrentMergeScheduler.merge
Transforming org.apache.lucene.util.Constants... 
Transforming org.apache.lucene.index.CompoundFileWriter$FileEntry... 
Transforming org.apache.lucene.store.IndexOutput... 
Transforming org.apache.lucene.store.IndexInput... 
Transforming org.apache.lucene.index.TermVectorsTermsWriter$PerDoc... 
Transforming org.apache.lucene.index.TermsHashConsumerPerThread... 
Transforming org.apache.lucene.index.TermsHashPerThread... 
Transforming org.apache.lucene.index.RawPostingList... 
Transforming org.apache.lucene.index.TermsHashPerField... 
exception in loadstore optimization for:  org.apache.lucene.index.TermsHashPerField.compactPostings
exception in loadstore optimization for:  org.apache.lucene.index.TermsHashPerField.postingEquals
exception in loadstore optimization for:  org.apache.lucene.index.TermsHashPerField.rehashPostings
Transforming org.apache.lucene.index.TermVectorsTermsWriterPerField... 
exception in loadstore optimization for:  org.apache.lucene.index.TermVectorsTermsWriterPerField.finish
Transforming org.apache.lucene.index.TermVectorsTermsWriterPerThread... 
Transforming org.apache.lucene.store.RAMOutputStream... 
exception in loadstore optimization for:  org.apache.lucene.store.RAMOutputStream.writeBytes
Transforming org.apache.lucene.index.TermVectorsTermsWriter$PostingList... 
Transforming org.apache.lucene.store.ChecksumIndexOutput... 
Transforming org.apache.lucene.store.ChecksumIndexInput... 
Transforming org.apache.lucene.index.SegmentInfos$FindSegmentsFile... 
Transforming org.apache.lucene.index.SegmentInfos$1... 
Transforming org.apache.lucene.index.IndexFileNames... 
Transforming org.apache.lucene.index.InvertedDocConsumerPerThread... 
Transforming org.apache.lucene.index.DocInverterPerThread... 
Transforming org.apache.lucene.index.TermsHashConsumerPerField... 
Transforming org.apache.lucene.store.LockFactory... 
Transforming org.apache.lucene.document.FieldSelector... 
Transforming org.apache.lucene.search.Searchable... 
Transforming org.apache.lucene.index.InvertedDocEndConsumerPerThread... 
Transforming org.apache.lucene.index.IndexCommit... 
Transforming org.apache.lucene.index.DirectoryIndexReader... 
Transforming org.apache.lucene.index.TermInfo... 
Transforming org.apache.lucene.index.ByteBlockPool$Allocator... 
Transforming org.apache.lucene.index.ByteBlockPool... 
Transforming org.apache.lucene.index.FieldsWriter... 
Transforming org.apache.lucene.index.StoredFieldsWriter$PerDoc... 
Transforming org.apache.lucene.index.StoredFieldsWriterPerThread... 
Transforming org.apache.lucene.util.UnicodeUtil$UTF8Result... 
Transforming org.apache.lucene.index.FreqProxTermsWriterPerField... 
Transforming org.apache.lucene.index.TermInfosWriter... 
exception in loadstore optimization for:  org.apache.lucene.index.TermInfosWriter.writeTerm
Transforming org.apache.lucene.index.DefaultSkipListWriter... 
Transforming org.apache.lucene.index.FreqProxFieldMergeState... 
Transforming org.apache.lucene.index.FreqProxTermsWriter$PostingList... 
Transforming org.apache.lucene.index.ByteSliceReader... 
Transforming org.apache.lucene.util.UnicodeUtil... 
exception in loadstore optimization for:  org.apache.lucene.util.UnicodeUtil.UTF16toUTF8
exception in loadstore optimization for:  org.apache.lucene.util.UnicodeUtil.UTF16toUTF8
Transforming org.apache.lucene.index.FreqProxTermsWriterPerThread... 
Transforming org.apache.lucene.index.InvertedDocConsumerPerField... 
Transforming org.apache.lucene.index.DocInverter$FieldInvertState... 
Transforming org.apache.lucene.index.InvertedDocEndConsumerPerField... 
Transforming org.apache.lucene.index.DocInverterPerField... 
Transforming org.apache.lucene.index.NormsWriterPerThread... 
Transforming org.apache.lucene.index.NormsWriterPerField... 
Transforming org.apache.lucene.analysis.Token... 
Transforming org.apache.lucene.document.AbstractField... 
Transforming org.apache.lucene.document.Field$Store... 
Transforming org.apache.lucene.document.Field$Index... 
Transforming org.apache.lucene.document.Field$TermVector... 
Transforming org.apache.lucene.index.IndexFileDeleter$RefCount... 
Transforming org.apache.lucene.index.IndexFileDeleter$CommitPoint... 
Transforming org.apache.lucene.index.IndexFileNameFilter... 
Transforming org.apache.lucene.store.FSDirectory$FSIndexInput... 
Transforming org.apache.lucene.store.NoLockFactory... 
Transforming org.apache.lucene.store.FSDirectory$FSIndexOutput... 
Transforming org.apache.lucene.store.SimpleFSLockFactory... 
Transforming org.apache.lucene.index.CharBlockPool... 
Transforming org.apache.lucene.index.IntBlockPool... 
Transforming org.apache.lucene.store.RAMFile... 
Transforming org.apache.lucene.index.ReusableStringReader... 
Transforming org.apache.lucene.index.IndexCommitPoint... 
Transforming org.apache.lucene.index.StoredFieldsWriterPerField... 
Transforming org.apache.lucene.index.FieldsReader$FieldForMerge... 
Transforming org.apache.lucene.index.MultiLevelSkipListWriter... 
Transforming org.apache.lucene.util.Parameter... 
Transforming org.apache.lucene.store.BufferedIndexInput... 
Transforming org.apache.lucene.store.FSDirectory$FSIndexInput$Descriptor... 
Transforming org.apache.lucene.store.BufferedIndexOutput... 
Transforming org.apache.lucene.store.SimpleFSLock... 
Transforming org.apache.lucene.store.LockReleaseFailedException... 
Transforming org.apache.lucene.analysis.standard.StandardTokenizer... 
Transforming org.apache.lucene.analysis.Tokenizer... 
Transforming org.apache.lucene.analysis.standard.StandardTokenizerImpl... 
exception in loadstore optimization for:  org.apache.lucene.analysis.standard.StandardTokenizerImpl.getNextToken
Transforming org.apache.lucene.analysis.LowerCaseFilter... 
Transforming org.apache.lucene.analysis.TokenFilter... 
Transforming org.apache.commons.cli.Option... 
Transforming org.apache.commons.cli.CommandLineParser... 
Transforming org.apache.commons.cli.Options... 
Transforming org.apache.commons.cli.CommandLine... 
Transforming org.apache.commons.cli.PosixParser... 
Transforming org.apache.commons.cli.HelpFormatter... 
Transforming org.apache.commons.cli.ParseException... 
Transforming org.apache.commons.cli.OptionGroup... 
Transforming org.apache.commons.cli.Util... 
Transforming org.apache.commons.cli.Parser... 
Transforming org.apache.commons.cli.HelpFormatter$1... 
Transforming org.apache.commons.cli.HelpFormatter$OptionComparator... 
Transforming org.apache.commons.cli.OptionValidator... 
Transforming org.apache.commons.cli.TypeHandler... 
Transforming org.apache.commons.cli.AlreadySelectedException... 
Transforming org.apache.commons.cli.MissingOptionException... 
Transforming org.apache.commons.cli.MissingArgumentException... 
Transforming org.apache.commons.cli.UnrecognizedOptionException... 
Transforming org.apache.commons.cli.PatternOptionBuilder... 
Transforming org.apache.commons.cli.OptionBuilder... 
Transforming org.apache.lucene.analysis.standard.StandardFilter... 
Transforming org.dacapo.luindex.Index... 
Transforming org.apache.lucene.analysis.standard.StandardAnalyzer... 
Transforming org.apache.lucene.demo.FileDocument... 
Transforming org.apache.lucene.analysis.StopAnalyzer... 
Transforming org.apache.lucene.analysis.standard.StandardAnalyzer$SavedStreams... 
Transforming org.apache.lucene.analysis.StopFilter... 
Transforming org.apache.lucene.document.DateTools$Resolution... 
Transforming org.apache.lucene.document.DateTools... 
Transforming org.apache.lucene.analysis.LowerCaseTokenizer... 
Transforming org.apache.lucene.analysis.CharArraySet... 
exception in loadstore optimization for:  org.apache.lucene.analysis.CharArraySet.equals
exception in loadstore optimization for:  org.apache.lucene.analysis.CharArraySet.equals
exception in loadstore optimization for:  org.apache.lucene.analysis.CharArraySet.getHashCode
Transforming org.apache.lucene.analysis.LetterTokenizer... 
Transforming org.apache.lucene.analysis.CharTokenizer... 
Transforming Harness... 
Writing to /home/lpxz/eclipse/workspacePA_icse/leap/transformer/tmp/record/org/w3c/dom/Document.class
Writing to /home/lpxz/eclipse/workspacePA_icse/leap/transformer/tmp/record/org/w3c/dom/Element.class
Writing to /home/lpxz/eclipse/workspacePA_icse/leap/transformer/tmp/record/org/w3c/dom/Node.class
Writing to /home/lpxz/eclipse/workspacePA_icse/leap/transformer/tmp/record/org/w3c/dom/NodeList.class
Writing to /home/lpxz/eclipse/workspacePA_icse/leap/transformer/tmp/record/org/w3c/dom/Text.class
Writing to /home/lpxz/eclipse/workspacePA_icse/leap/transformer/tmp/record/org/w3c/dom/DOMException.class
Writing to /home/lpxz/eclipse/workspacePA_icse/leap/transformer/tmp/record/org/w3c/dom/Attr.class
Writing to /home/lpxz/eclipse/workspacePA_icse/leap/transformer/tmp/record/org/w3c/dom/TypeInfo.class
Writing to /home/lpxz/eclipse/workspacePA_icse/leap/transformer/tmp/record/org/w3c/dom/DocumentType.class
Writing to /home/lpxz/eclipse/workspacePA_icse/leap/transformer/tmp/record/org/w3c/dom/DOMImplementation.class
Writing to /home/lpxz/eclipse/workspacePA_icse/leap/transformer/tmp/record/org/w3c/dom/DocumentFragment.class
Writing to /home/lpxz/eclipse/workspacePA_icse/leap/transformer/tmp/record/org/w3c/dom/Comment.class
Writing to /home/lpxz/eclipse/workspacePA_icse/leap/transformer/tmp/record/org/w3c/dom/CDATASection.class
Writing to /home/lpxz/eclipse/workspacePA_icse/leap/transformer/tmp/record/org/w3c/dom/ProcessingInstruction.class
Writing to /home/lpxz/eclipse/workspacePA_icse/leap/transformer/tmp/record/org/w3c/dom/EntityReference.class
Writing to /home/lpxz/eclipse/workspacePA_icse/leap/transformer/tmp/record/org/w3c/dom/DOMConfiguration.class
Writing to /home/lpxz/eclipse/workspacePA_icse/leap/transformer/tmp/record/org/w3c/dom/NamedNodeMap.class
Writing to /home/lpxz/eclipse/workspacePA_icse/leap/transformer/tmp/record/org/w3c/dom/UserDataHandler.class
Writing to /home/lpxz/eclipse/workspacePA_icse/leap/transformer/tmp/record/org/w3c/dom/CharacterData.class
Writing to /home/lpxz/eclipse/workspacePA_icse/leap/transformer/tmp/record/org/w3c/dom/DOMStringList.class
Writing to /home/lpxz/eclipse/workspacePA_icse/leap/transformer/tmp/record/org/w3c/dom/ls/LSResourceResolver.class
Writing to /home/lpxz/eclipse/workspacePA_icse/leap/transformer/tmp/record/org/w3c/dom/ls/LSInput.class
Writing to /home/lpxz/eclipse/workspacePA_icse/leap/transformer/tmp/record/org/apache/lucene/index/DocFieldConsumersPerThread.class
Writing to /home/lpxz/eclipse/workspacePA_icse/leap/transformer/tmp/record/org/apache/lucene/index/DocFieldConsumerPerThread.class
Writing to /home/lpxz/eclipse/workspacePA_icse/leap/transformer/tmp/record/org/apache/lucene/index/DocFieldConsumers.class
Writing to /home/lpxz/eclipse/workspacePA_icse/leap/transformer/tmp/record/org/apache/lucene/index/DocumentsWriter$DocState.class
Writing to /home/lpxz/eclipse/workspacePA_icse/leap/transformer/tmp/record/org/apache/lucene/index/DocFieldProcessorPerThread.class
Writing to /home/lpxz/eclipse/workspacePA_icse/leap/transformer/tmp/record/org/apache/lucene/index/DocumentsWriter$DocWriter.class
Writing to /home/lpxz/eclipse/workspacePA_icse/leap/transformer/tmp/record/org/apache/lucene/index/DocFieldConsumerPerField.class
Writing to /home/lpxz/eclipse/workspacePA_icse/leap/transformer/tmp/record/org/apache/lucene/index/FieldInfo.class
Writing to /home/lpxz/eclipse/workspacePA_icse/leap/transformer/tmp/record/org/apache/lucene/index/DocFieldConsumers$PerDoc.class
Writing to /home/lpxz/eclipse/workspacePA_icse/leap/transformer/tmp/record/org/apache/lucene/index/DocFieldConsumersPerField.class
Writing to /home/lpxz/eclipse/workspacePA_icse/leap/transformer/tmp/record/org/apache/lucene/index/DocumentsWriter.class
Writing to /home/lpxz/eclipse/workspacePA_icse/leap/transformer/tmp/record/org/apache/lucene/document/Fieldable.class
Writing to /home/lpxz/eclipse/workspacePA_icse/leap/transformer/tmp/record/org/apache/lucene/analysis/Analyzer.class
Writing to /home/lpxz/eclipse/workspacePA_icse/leap/transformer/tmp/record/org/apache/lucene/search/Similarity.class
Writing to /home/lpxz/eclipse/workspacePA_icse/leap/transformer/tmp/record/org/apache/lucene/document/Document.class
Writing to /home/lpxz/eclipse/workspacePA_icse/leap/transformer/tmp/record/org/apache/lucene/index/IndexWriter.class
Writing to /home/lpxz/eclipse/workspacePA_icse/leap/transformer/tmp/record/org/apache/lucene/index/CorruptIndexException.class
Writing to /home/lpxz/eclipse/workspacePA_icse/leap/transformer/tmp/record/org/apache/lucene/store/Directory.class
Writing to /home/lpxz/eclipse/workspacePA_icse/leap/transformer/tmp/record/org/apache/lucene/index/DocumentsWriterThreadState.class
Writing to /home/lpxz/eclipse/workspacePA_icse/leap/transformer/tmp/record/org/apache/lucene/index/DocFieldProcessor.class
Writing to /home/lpxz/eclipse/workspacePA_icse/leap/transformer/tmp/record/org/apache/lucene/index/DocConsumer.class
Writing to /home/lpxz/eclipse/workspacePA_icse/leap/transformer/tmp/record/org/apache/lucene/index/BufferedDeletes.class
Writing to /home/lpxz/eclipse/workspacePA_icse/leap/transformer/tmp/record/org/apache/lucene/index/DocumentsWriter$FlushState.class
Writing to /home/lpxz/eclipse/workspacePA_icse/leap/transformer/tmp/record/org/apache/lucene/index/DocumentsWriter$SkipDocWriter.class
Writing to /home/lpxz/eclipse/workspacePA_icse/leap/transformer/tmp/record/org/apache/lucene/index/DocumentsWriter$ByteBlockAllocator.class
Writing to /home/lpxz/eclipse/workspacePA_icse/leap/transformer/tmp/record/org/apache/lucene/index/DocumentsWriter$WaitQueue.class
Writing to /home/lpxz/eclipse/workspacePA_icse/leap/transformer/tmp/record/org/apache/lucene/index/SegmentInfos.class
Writing to /home/lpxz/eclipse/workspacePA_icse/leap/transformer/tmp/record/org/apache/lucene/index/IndexReader.class
Writing to /home/lpxz/eclipse/workspacePA_icse/leap/transformer/tmp/record/org/apache/lucene/index/CompoundFileWriter.class
Writing to /home/lpxz/eclipse/workspacePA_icse/leap/transformer/tmp/record/org/apache/lucene/index/TermVectorsTermsWriter.class
Writing to /home/lpxz/eclipse/workspacePA_icse/leap/transformer/tmp/record/org/apache/lucene/index/TermsHash.class
Writing to /home/lpxz/eclipse/workspacePA_icse/leap/transformer/tmp/record/org/apache/lucene/search/IndexSearcher.class
Writing to /home/lpxz/eclipse/workspacePA_icse/leap/transformer/tmp/record/org/apache/lucene/search/Searcher.class
Writing to /home/lpxz/eclipse/workspacePA_icse/leap/transformer/tmp/record/org/apache/lucene/index/InvertedDocEndConsumer.class
Writing to /home/lpxz/eclipse/workspacePA_icse/leap/transformer/tmp/record/org/apache/lucene/index/MergePolicy.class
Writing to /home/lpxz/eclipse/workspacePA_icse/leap/transformer/tmp/record/org/apache/lucene/index/InvertedDocConsumer.class
Writing to /home/lpxz/eclipse/workspacePA_icse/leap/transformer/tmp/record/org/apache/lucene/index/SegmentReader.class
Writing to /home/lpxz/eclipse/workspacePA_icse/leap/transformer/tmp/record/org/apache/lucene/index/FieldInfos.class
Writing to /home/lpxz/eclipse/workspacePA_icse/leap/transformer/tmp/record/org/apache/lucene/index/TermsHashConsumer.class
Writing to /home/lpxz/eclipse/workspacePA_icse/leap/transformer/tmp/record/org/apache/lucene/index/StoredFieldsWriter.class
Writing to /home/lpxz/eclipse/workspacePA_icse/leap/transformer/tmp/record/org/apache/lucene/index/DocFieldConsumer.class
Writing to /home/lpxz/eclipse/workspacePA_icse/leap/transformer/tmp/record/org/apache/lucene/index/DocConsumerPerThread.class
Writing to /home/lpxz/eclipse/workspacePA_icse/leap/transformer/tmp/record/org/apache/lucene/index/SegmentInfo.class
Writing to /home/lpxz/eclipse/workspacePA_icse/leap/transformer/tmp/record/org/apache/lucene/index/FreqProxTermsWriter.class
Writing to /home/lpxz/eclipse/workspacePA_icse/leap/transformer/tmp/record/org/apache/lucene/index/DocInverter.class
Writing to /home/lpxz/eclipse/workspacePA_icse/leap/transformer/tmp/record/org/apache/lucene/index/NormsWriter.class
Writing to /home/lpxz/eclipse/workspacePA_icse/leap/transformer/tmp/record/org/apache/lucene/store/AlreadyClosedException.class
Writing to /home/lpxz/eclipse/workspacePA_icse/leap/transformer/tmp/record/org/apache/lucene/index/DocFieldProcessorPerField.class
Writing to /home/lpxz/eclipse/workspacePA_icse/leap/transformer/tmp/record/org/apache/lucene/util/ArrayUtil.class
Writing to /home/lpxz/eclipse/workspacePA_icse/leap/transformer/tmp/record/org/apache/lucene/analysis/TokenStream.class
Writing to /home/lpxz/eclipse/workspacePA_icse/leap/transformer/tmp/record/org/apache/lucene/util/CloseableThreadLocal.class
Writing to /home/lpxz/eclipse/workspacePA_icse/leap/transformer/tmp/record/org/apache/lucene/util/SmallFloat.class
Writing to /home/lpxz/eclipse/workspacePA_icse/leap/transformer/tmp/record/org/apache/lucene/search/DefaultSimilarity.class
Writing to /home/lpxz/eclipse/workspacePA_icse/leap/transformer/tmp/record/org/apache/lucene/document/Field.class
Writing to /home/lpxz/eclipse/workspacePA_icse/leap/transformer/tmp/record/org/apache/lucene/store/LockObtainFailedException.class
Writing to /home/lpxz/eclipse/workspacePA_icse/leap/transformer/tmp/record/org/apache/lucene/index/MergePolicy$MergeAbortedException.class
Writing to /home/lpxz/eclipse/workspacePA_icse/leap/transformer/tmp/record/org/apache/lucene/index/IndexFileDeleter.class
Writing to /home/lpxz/eclipse/workspacePA_icse/leap/transformer/tmp/record/org/apache/lucene/store/Lock.class
Writing to /home/lpxz/eclipse/workspacePA_icse/leap/transformer/tmp/record/org/apache/lucene/index/MergeScheduler.class
Writing to /home/lpxz/eclipse/workspacePA_icse/leap/transformer/tmp/record/org/apache/lucene/index/LogMergePolicy.class
Writing to /home/lpxz/eclipse/workspacePA_icse/leap/transformer/tmp/record/org/apache/lucene/index/IndexWriter$MaxFieldLength.class
Writing to /home/lpxz/eclipse/workspacePA_icse/leap/transformer/tmp/record/org/apache/lucene/index/IndexDeletionPolicy.class
Writing to /home/lpxz/eclipse/workspacePA_icse/leap/transformer/tmp/record/org/apache/lucene/index/SegmentMerger.class
Writing to /home/lpxz/eclipse/workspacePA_icse/leap/transformer/tmp/record/org/apache/lucene/index/MergePolicy$MergeException.class
Writing to /home/lpxz/eclipse/workspacePA_icse/leap/transformer/tmp/record/org/apache/lucene/index/LogByteSizeMergePolicy.class
Writing to /home/lpxz/eclipse/workspacePA_icse/leap/transformer/tmp/record/org/apache/lucene/store/FSDirectory.class
Writing to /home/lpxz/eclipse/workspacePA_icse/leap/transformer/tmp/record/org/apache/lucene/index/KeepOnlyLastCommitDeletionPolicy.class
Writing to /home/lpxz/eclipse/workspacePA_icse/leap/transformer/tmp/record/org/apache/lucene/index/ConcurrentMergeScheduler.class
Writing to /home/lpxz/eclipse/workspacePA_icse/leap/transformer/tmp/record/org/apache/lucene/util/Constants.class
Writing to /home/lpxz/eclipse/workspacePA_icse/leap/transformer/tmp/record/org/apache/lucene/index/CompoundFileWriter$FileEntry.class
Writing to /home/lpxz/eclipse/workspacePA_icse/leap/transformer/tmp/record/org/apache/lucene/store/IndexOutput.class
Writing to /home/lpxz/eclipse/workspacePA_icse/leap/transformer/tmp/record/org/apache/lucene/store/IndexInput.class
Writing to /home/lpxz/eclipse/workspacePA_icse/leap/transformer/tmp/record/org/apache/lucene/index/TermVectorsTermsWriter$PerDoc.class
Writing to /home/lpxz/eclipse/workspacePA_icse/leap/transformer/tmp/record/org/apache/lucene/index/TermsHashConsumerPerThread.class
Writing to /home/lpxz/eclipse/workspacePA_icse/leap/transformer/tmp/record/org/apache/lucene/index/TermsHashPerThread.class
Writing to /home/lpxz/eclipse/workspacePA_icse/leap/transformer/tmp/record/org/apache/lucene/index/RawPostingList.class
Writing to /home/lpxz/eclipse/workspacePA_icse/leap/transformer/tmp/record/org/apache/lucene/index/TermsHashPerField.class
Writing to /home/lpxz/eclipse/workspacePA_icse/leap/transformer/tmp/record/org/apache/lucene/index/TermVectorsTermsWriterPerField.class
Writing to /home/lpxz/eclipse/workspacePA_icse/leap/transformer/tmp/record/org/apache/lucene/index/TermVectorsTermsWriterPerThread.class
Writing to /home/lpxz/eclipse/workspacePA_icse/leap/transformer/tmp/record/org/apache/lucene/store/RAMOutputStream.class
Writing to /home/lpxz/eclipse/workspacePA_icse/leap/transformer/tmp/record/org/apache/lucene/index/TermVectorsTermsWriter$PostingList.class
Writing to /home/lpxz/eclipse/workspacePA_icse/leap/transformer/tmp/record/org/apache/lucene/store/ChecksumIndexOutput.class
Writing to /home/lpxz/eclipse/workspacePA_icse/leap/transformer/tmp/record/org/apache/lucene/store/ChecksumIndexInput.class
Writing to /home/lpxz/eclipse/workspacePA_icse/leap/transformer/tmp/record/org/apache/lucene/index/SegmentInfos$FindSegmentsFile.class
Writing to /home/lpxz/eclipse/workspacePA_icse/leap/transformer/tmp/record/org/apache/lucene/index/SegmentInfos$1.class
Writing to /home/lpxz/eclipse/workspacePA_icse/leap/transformer/tmp/record/org/apache/lucene/index/IndexFileNames.class
Writing to /home/lpxz/eclipse/workspacePA_icse/leap/transformer/tmp/record/org/apache/lucene/index/InvertedDocConsumerPerThread.class
Writing to /home/lpxz/eclipse/workspacePA_icse/leap/transformer/tmp/record/org/apache/lucene/index/DocInverterPerThread.class
Writing to /home/lpxz/eclipse/workspacePA_icse/leap/transformer/tmp/record/org/apache/lucene/index/TermsHashConsumerPerField.class
Writing to /home/lpxz/eclipse/workspacePA_icse/leap/transformer/tmp/record/org/apache/lucene/store/LockFactory.class
Writing to /home/lpxz/eclipse/workspacePA_icse/leap/transformer/tmp/record/org/apache/lucene/document/FieldSelector.class
Writing to /home/lpxz/eclipse/workspacePA_icse/leap/transformer/tmp/record/org/apache/lucene/search/Searchable.class
Writing to /home/lpxz/eclipse/workspacePA_icse/leap/transformer/tmp/record/org/apache/lucene/index/InvertedDocEndConsumerPerThread.class
Writing to /home/lpxz/eclipse/workspacePA_icse/leap/transformer/tmp/record/org/apache/lucene/index/IndexCommit.class
Writing to /home/lpxz/eclipse/workspacePA_icse/leap/transformer/tmp/record/org/apache/lucene/index/DirectoryIndexReader.class
Writing to /home/lpxz/eclipse/workspacePA_icse/leap/transformer/tmp/record/org/apache/lucene/index/TermInfo.class
Writing to /home/lpxz/eclipse/workspacePA_icse/leap/transformer/tmp/record/org/apache/lucene/index/ByteBlockPool$Allocator.class
Writing to /home/lpxz/eclipse/workspacePA_icse/leap/transformer/tmp/record/org/apache/lucene/index/ByteBlockPool.class
Writing to /home/lpxz/eclipse/workspacePA_icse/leap/transformer/tmp/record/org/apache/lucene/index/FieldsWriter.class
Writing to /home/lpxz/eclipse/workspacePA_icse/leap/transformer/tmp/record/org/apache/lucene/index/StoredFieldsWriter$PerDoc.class
Writing to /home/lpxz/eclipse/workspacePA_icse/leap/transformer/tmp/record/org/apache/lucene/index/StoredFieldsWriterPerThread.class
Writing to /home/lpxz/eclipse/workspacePA_icse/leap/transformer/tmp/record/org/apache/lucene/util/UnicodeUtil$UTF8Result.class
Writing to /home/lpxz/eclipse/workspacePA_icse/leap/transformer/tmp/record/org/apache/lucene/index/FreqProxTermsWriterPerField.class
Writing to /home/lpxz/eclipse/workspacePA_icse/leap/transformer/tmp/record/org/apache/lucene/index/TermInfosWriter.class
Writing to /home/lpxz/eclipse/workspacePA_icse/leap/transformer/tmp/record/org/apache/lucene/index/DefaultSkipListWriter.class
Writing to /home/lpxz/eclipse/workspacePA_icse/leap/transformer/tmp/record/org/apache/lucene/index/FreqProxFieldMergeState.class
Writing to /home/lpxz/eclipse/workspacePA_icse/leap/transformer/tmp/record/org/apache/lucene/index/FreqProxTermsWriter$PostingList.class
Writing to /home/lpxz/eclipse/workspacePA_icse/leap/transformer/tmp/record/org/apache/lucene/index/ByteSliceReader.class
Writing to /home/lpxz/eclipse/workspacePA_icse/leap/transformer/tmp/record/org/apache/lucene/util/UnicodeUtil.class
Writing to /home/lpxz/eclipse/workspacePA_icse/leap/transformer/tmp/record/org/apache/lucene/index/FreqProxTermsWriterPerThread.class
Writing to /home/lpxz/eclipse/workspacePA_icse/leap/transformer/tmp/record/org/apache/lucene/index/InvertedDocConsumerPerField.class
Writing to /home/lpxz/eclipse/workspacePA_icse/leap/transformer/tmp/record/org/apache/lucene/index/DocInverter$FieldInvertState.class
Writing to /home/lpxz/eclipse/workspacePA_icse/leap/transformer/tmp/record/org/apache/lucene/index/InvertedDocEndConsumerPerField.class
Writing to /home/lpxz/eclipse/workspacePA_icse/leap/transformer/tmp/record/org/apache/lucene/index/DocInverterPerField.class
Writing to /home/lpxz/eclipse/workspacePA_icse/leap/transformer/tmp/record/org/apache/lucene/index/NormsWriterPerThread.class
Writing to /home/lpxz/eclipse/workspacePA_icse/leap/transformer/tmp/record/org/apache/lucene/index/NormsWriterPerField.class
Writing to /home/lpxz/eclipse/workspacePA_icse/leap/transformer/tmp/record/org/apache/lucene/analysis/Token.class
Writing to /home/lpxz/eclipse/workspacePA_icse/leap/transformer/tmp/record/org/apache/lucene/document/AbstractField.class
Writing to /home/lpxz/eclipse/workspacePA_icse/leap/transformer/tmp/record/org/apache/lucene/document/Field$Store.class
Writing to /home/lpxz/eclipse/workspacePA_icse/leap/transformer/tmp/record/org/apache/lucene/document/Field$Index.class
Writing to /home/lpxz/eclipse/workspacePA_icse/leap/transformer/tmp/record/org/apache/lucene/document/Field$TermVector.class
Writing to /home/lpxz/eclipse/workspacePA_icse/leap/transformer/tmp/record/org/apache/lucene/index/IndexFileDeleter$RefCount.class
Writing to /home/lpxz/eclipse/workspacePA_icse/leap/transformer/tmp/record/org/apache/lucene/index/IndexFileDeleter$CommitPoint.class
Writing to /home/lpxz/eclipse/workspacePA_icse/leap/transformer/tmp/record/org/apache/lucene/index/IndexFileNameFilter.class
Writing to /home/lpxz/eclipse/workspacePA_icse/leap/transformer/tmp/record/org/apache/lucene/store/FSDirectory$FSIndexInput.class
Writing to /home/lpxz/eclipse/workspacePA_icse/leap/transformer/tmp/record/org/apache/lucene/store/NoLockFactory.class
Writing to /home/lpxz/eclipse/workspacePA_icse/leap/transformer/tmp/record/org/apache/lucene/store/FSDirectory$FSIndexOutput.class
Writing to /home/lpxz/eclipse/workspacePA_icse/leap/transformer/tmp/record/org/apache/lucene/store/SimpleFSLockFactory.class
Writing to /home/lpxz/eclipse/workspacePA_icse/leap/transformer/tmp/record/org/apache/lucene/index/CharBlockPool.class
Writing to /home/lpxz/eclipse/workspacePA_icse/leap/transformer/tmp/record/org/apache/lucene/index/IntBlockPool.class
Writing to /home/lpxz/eclipse/workspacePA_icse/leap/transformer/tmp/record/org/apache/lucene/store/RAMFile.class
Writing to /home/lpxz/eclipse/workspacePA_icse/leap/transformer/tmp/record/org/apache/lucene/index/ReusableStringReader.class
Writing to /home/lpxz/eclipse/workspacePA_icse/leap/transformer/tmp/record/org/apache/lucene/index/IndexCommitPoint.class
Writing to /home/lpxz/eclipse/workspacePA_icse/leap/transformer/tmp/record/org/apache/lucene/index/StoredFieldsWriterPerField.class
Writing to /home/lpxz/eclipse/workspacePA_icse/leap/transformer/tmp/record/org/apache/lucene/index/FieldsReader$FieldForMerge.class
Writing to /home/lpxz/eclipse/workspacePA_icse/leap/transformer/tmp/record/org/apache/lucene/index/MultiLevelSkipListWriter.class
Writing to /home/lpxz/eclipse/workspacePA_icse/leap/transformer/tmp/record/org/apache/lucene/util/Parameter.class
Writing to /home/lpxz/eclipse/workspacePA_icse/leap/transformer/tmp/record/org/apache/lucene/store/BufferedIndexInput.class
Writing to /home/lpxz/eclipse/workspacePA_icse/leap/transformer/tmp/record/org/apache/lucene/store/FSDirectory$FSIndexInput$Descriptor.class
Writing to /home/lpxz/eclipse/workspacePA_icse/leap/transformer/tmp/record/org/apache/lucene/store/BufferedIndexOutput.class
Writing to /home/lpxz/eclipse/workspacePA_icse/leap/transformer/tmp/record/org/apache/lucene/store/SimpleFSLock.class
Writing to /home/lpxz/eclipse/workspacePA_icse/leap/transformer/tmp/record/org/apache/lucene/store/LockReleaseFailedException.class
Writing to /home/lpxz/eclipse/workspacePA_icse/leap/transformer/tmp/record/org/apache/lucene/analysis/standard/StandardTokenizer.class
Writing to /home/lpxz/eclipse/workspacePA_icse/leap/transformer/tmp/record/org/apache/lucene/analysis/Tokenizer.class
Writing to /home/lpxz/eclipse/workspacePA_icse/leap/transformer/tmp/record/org/apache/lucene/analysis/standard/StandardTokenizerImpl.class
Writing to /home/lpxz/eclipse/workspacePA_icse/leap/transformer/tmp/record/org/apache/lucene/analysis/LowerCaseFilter.class
Writing to /home/lpxz/eclipse/workspacePA_icse/leap/transformer/tmp/record/org/apache/lucene/analysis/TokenFilter.class
Writing to /home/lpxz/eclipse/workspacePA_icse/leap/transformer/tmp/record/org/apache/commons/cli/Option.class
Writing to /home/lpxz/eclipse/workspacePA_icse/leap/transformer/tmp/record/org/apache/commons/cli/CommandLineParser.class
Writing to /home/lpxz/eclipse/workspacePA_icse/leap/transformer/tmp/record/org/apache/commons/cli/Options.class
Writing to /home/lpxz/eclipse/workspacePA_icse/leap/transformer/tmp/record/org/apache/commons/cli/CommandLine.class
Writing to /home/lpxz/eclipse/workspacePA_icse/leap/transformer/tmp/record/org/apache/commons/cli/PosixParser.class
Writing to /home/lpxz/eclipse/workspacePA_icse/leap/transformer/tmp/record/org/apache/commons/cli/HelpFormatter.class
Writing to /home/lpxz/eclipse/workspacePA_icse/leap/transformer/tmp/record/org/apache/commons/cli/ParseException.class
Writing to /home/lpxz/eclipse/workspacePA_icse/leap/transformer/tmp/record/org/apache/commons/cli/OptionGroup.class
Writing to /home/lpxz/eclipse/workspacePA_icse/leap/transformer/tmp/record/org/apache/commons/cli/Util.class
Writing to /home/lpxz/eclipse/workspacePA_icse/leap/transformer/tmp/record/org/apache/commons/cli/Parser.class
Writing to /home/lpxz/eclipse/workspacePA_icse/leap/transformer/tmp/record/org/apache/commons/cli/HelpFormatter$1.class
Writing to /home/lpxz/eclipse/workspacePA_icse/leap/transformer/tmp/record/org/apache/commons/cli/HelpFormatter$OptionComparator.class
Writing to /home/lpxz/eclipse/workspacePA_icse/leap/transformer/tmp/record/org/apache/commons/cli/OptionValidator.class
Writing to /home/lpxz/eclipse/workspacePA_icse/leap/transformer/tmp/record/org/apache/commons/cli/TypeHandler.class
Writing to /home/lpxz/eclipse/workspacePA_icse/leap/transformer/tmp/record/org/apache/commons/cli/AlreadySelectedException.class
Writing to /home/lpxz/eclipse/workspacePA_icse/leap/transformer/tmp/record/org/apache/commons/cli/MissingOptionException.class
Writing to /home/lpxz/eclipse/workspacePA_icse/leap/transformer/tmp/record/org/apache/commons/cli/MissingArgumentException.class
Writing to /home/lpxz/eclipse/workspacePA_icse/leap/transformer/tmp/record/org/apache/commons/cli/UnrecognizedOptionException.class
Writing to /home/lpxz/eclipse/workspacePA_icse/leap/transformer/tmp/record/org/apache/commons/cli/PatternOptionBuilder.class
Writing to /home/lpxz/eclipse/workspacePA_icse/leap/transformer/tmp/record/org/apache/commons/cli/OptionBuilder.class
Writing to /home/lpxz/eclipse/workspacePA_icse/leap/transformer/tmp/record/org/apache/lucene/analysis/standard/StandardFilter.class
Writing to /home/lpxz/eclipse/workspacePA_icse/leap/transformer/tmp/record/org/dacapo/luindex/Index.class
Writing to /home/lpxz/eclipse/workspacePA_icse/leap/transformer/tmp/record/org/apache/lucene/analysis/standard/StandardAnalyzer.class
Writing to /home/lpxz/eclipse/workspacePA_icse/leap/transformer/tmp/record/org/apache/lucene/demo/FileDocument.class
Writing to /home/lpxz/eclipse/workspacePA_icse/leap/transformer/tmp/record/org/apache/lucene/analysis/StopAnalyzer.class
Writing to /home/lpxz/eclipse/workspacePA_icse/leap/transformer/tmp/record/org/apache/lucene/analysis/standard/StandardAnalyzer$SavedStreams.class
Writing to /home/lpxz/eclipse/workspacePA_icse/leap/transformer/tmp/record/org/apache/lucene/analysis/StopFilter.class
Writing to /home/lpxz/eclipse/workspacePA_icse/leap/transformer/tmp/record/org/apache/lucene/document/DateTools$Resolution.class
Writing to /home/lpxz/eclipse/workspacePA_icse/leap/transformer/tmp/record/org/apache/lucene/document/DateTools.class
Writing to /home/lpxz/eclipse/workspacePA_icse/leap/transformer/tmp/record/org/apache/lucene/analysis/LowerCaseTokenizer.class
Writing to /home/lpxz/eclipse/workspacePA_icse/leap/transformer/tmp/record/org/apache/lucene/analysis/CharArraySet.class
Writing to /home/lpxz/eclipse/workspacePA_icse/leap/transformer/tmp/record/org/apache/lucene/analysis/LetterTokenizer.class
Writing to /home/lpxz/eclipse/workspacePA_icse/leap/transformer/tmp/record/org/apache/lucene/analysis/CharTokenizer.class
Writing to /home/lpxz/eclipse/workspacePA_icse/leap/transformer/tmp/record/Harness.class
***** Runtime version generated *****
*** *** *** *** *** *** *** *** *** *** 

*** Total access number: 7073
*** SPE access number: 2185
*** Instrumented SPE access number: 2185
*** SPE size: 137
 
*** *** *** *** *** *** *** *** *** *** 
*** SPE name: 
*** "org.apache.lucene.index.IntBlockPool.bufferUpto" index: 134
*** "org.apache.lucene.index.DocFieldProcessorPerField[].ARRAYINDEX" index: 4
*** "long[].ARRAYINDEX" index: 79
*** "org.apache.lucene.index.DocumentsWriter.docStoreOffset" index: 18
*** "org.apache.lucene.index.NormsWriter.fieldInfos" index: 66
*** "org.apache.lucene.index.IndexFileDeleter$CommitPoint.deleted" index: 73
*** "java.util.Map.DSINDEX" index: 46
*** "org.apache.lucene.document.Fieldable[].ARRAYINDEX" index: 8
*** "org.apache.lucene.index.NormsWriterPerField[].ARRAYINDEX" index: 68
*** "org.apache.lucene.index.IndexFileDeleter.deletable" index: 74
*** "org.apache.lucene.index.ByteSliceReader.buffer" index: 127
*** "org.apache.lucene.index.FieldInfo.isIndexed" index: 9
*** "org.apache.lucene.index.CompoundFileWriter$FileEntry.directoryOffset" index: 44
*** "org.apache.lucene.index.SegmentInfo.normGen" index: 56
*** "org.apache.lucene.index.FieldInfo.storePayloads" index: 15
*** "java.util.HashMap.DSINDEX" index: 2
*** "org.apache.lucene.index.NormsWriterPerField.upto" index: 67
*** "org.apache.lucene.store.RAMOutputStream.currentBufferIndex" index: 106
*** "org.apache.lucene.index.SegmentInfo.files" index: 60
*** "org.apache.lucene.index.FieldsWriter.indexStream" index: 116
*** "org.apache.lucene.index.IndexWriter.lastCommitChangeCount" index: 34
*** "org.apache.lucene.index.CharBlockPool.charOffset" index: 98
*** "org.apache.lucene.index.DocFieldConsumer.fieldInfos" index: 48
*** "org.apache.lucene.index.StoredFieldsWriter$PerDoc.numStoredFields" index: 49
*** "org.apache.lucene.index.SegmentInfo.hasSingleNormFile" index: 55
*** "org.apache.lucene.index.SegmentInfo.docStoreSegment" index: 57
*** "org.apache.lucene.index.SegmentInfo.hasProx" index: 59
*** "org.apache.lucene.index.ByteBlockPool.byteOffset" index: 96
*** "org.apache.lucene.index.TermsHashConsumer.fieldInfos" index: 47
*** "org.apache.lucene.index.SegmentInfo.docStoreIsCompoundFile" index: 58
*** "org.apache.lucene.index.CharBlockPool.buffers" index: 90
*** "org.apache.lucene.index.IndexWriter.messageID" index: 25
*** "org.apache.lucene.index.FieldsWriter.fieldsStream" index: 115
*** "org.apache.lucene.store.RAMOutputStream.bufferPosition" index: 107
*** "org.apache.lucene.index.StoredFieldsWriterPerThread.doc" index: 117
*** "org.apache.lucene.index.TermsHashPerThread.freePostingsCount" index: 80
*** "org.apache.lucene.index.IntBlockPool.intOffset" index: 95
*** "org.apache.lucene.index.TermInfo.skipOffset" index: 112
*** "org.apache.lucene.store.RAMFile.length" index: 103
*** "org.apache.lucene.index.FieldInfo.storeTermVector" index: 10
*** "org.apache.lucene.index.IndexFileDeleter$RefCount.count" index: 75
*** "org.apache.lucene.index.FreqProxTermsWriterPerField.hasPayloads" index: 63
*** "byte[].ARRAYINDEX" index: 72
*** "org.apache.lucene.index.SegmentInfo.delGen" index: 51
*** "org.apache.lucene.index.CharBlockPool.charUpto" index: 97
*** "org.apache.lucene.util.UnicodeUtil$UTF8Result.result" index: 64
*** "org.apache.lucene.index.ByteSliceReader.limit" index: 129
*** "org.apache.lucene.index.ConcurrentMergeScheduler.dir" index: 77
*** "org.apache.lucene.index.DocumentsWriter.segment" index: 16
*** "org.apache.lucene.index.TermsHashPerField.numPostings" index: 62
*** "org.apache.lucene.index.TermVectorsTermsWriter$PerDoc.numVectorFields" index: 78
*** "org.apache.lucene.index.FreqProxTermsWriter$PostingList.lastDocCode" index: 120
*** "org.apache.lucene.index.SegmentInfo.preLockless" index: 54
*** "org.apache.lucene.index.IndexWriter.autoCommit" index: 27
*** "org.apache.lucene.index.ByteSliceReader.upto" index: 128
*** "org.apache.lucene.index.DocFieldProcessorPerField.next" index: 5
*** "org.apache.lucene.document.AbstractField.storeOffsetWithTermVector" index: 132
*** "org.apache.lucene.index.ByteBlockPool.buffers" index: 114
*** "int[][].ARRAYINDEX" index: 22
*** "char[].ARRAYINDEX" index: 61
*** "org.apache.lucene.index.IndexWriter.deleter" index: 29
*** "org.apache.lucene.index.ByteSliceReader.endIndex" index: 123
*** "org.apache.lucene.index.TermInfo.freqPointer" index: 110
*** "org.apache.lucene.analysis.CharArraySet.entries" index: 135
*** "org.apache.lucene.index.FreqProxTermsWriterPerField.omitTf" index: 118
*** "org.apache.lucene.index.TermsHashPerField.postingsCompacted" index: 81
*** "org.apache.lucene.index.FieldInfo.omitNorms" index: 13
*** "org.apache.lucene.index.ByteBlockPool.byteUpto" index: 93
*** "org.apache.lucene.index.DocFieldProcessorPerThread.totalFieldCount" index: 6
*** "org.apache.lucene.index.TermVectorsTermsWriterPerField.maxNumPostings" index: 101
*** "org.apache.lucene.index.RawPostingList.textStart" index: 91
*** "org.apache.lucene.index.IntBlockPool.buffers" index: 86
*** "org.apache.lucene.index.ByteSliceReader.bufferOffset" index: 126
*** "org.apache.lucene.index.FieldInfo.omitTf" index: 14
*** "int[].ARRAYINDEX" index: 69
*** "org.apache.lucene.index.ByteBlockPool.bufferUpto" index: 113
*** "org.apache.lucene.index.IndexWriter.infoStream" index: 24
*** "org.apache.lucene.index.TermsHashPerField.postingsHashMask" index: 85
*** "org.apache.lucene.index.SegmentInfos.version" index: 41
*** "org.apache.lucene.index.NormsWriterPerField.docIDs" index: 70
*** "org.apache.lucene.index.ByteSliceReader.pool" index: 122
*** "org.apache.lucene.index.TermInfo.docFreq" index: 109
*** "org.apache.lucene.util.UnicodeUtil$UTF8Result[].ARRAYINDEX" index: 102
*** "org.apache.lucene.index.SegmentInfo.docCount" index: 30
*** "org.apache.lucene.index.CompoundFileWriter$FileEntry.file" index: 43
*** "char[][].ARRAYINDEX" index: 23
*** "org.apache.lucene.index.FreqProxTermsWriter$PostingList.docFreq" index: 121
*** "org.apache.lucene.index.MergePolicy$OneMerge.mergeDocStores" index: 37
*** "org.apache.lucene.index.CharBlockPool.bufferUpto" index: 133
*** "org.apache.lucene.util.UnicodeUtil$UTF8Result.length" index: 65
*** "org.apache.lucene.index.IndexWriter.changeCount" index: 31
*** "org.apache.lucene.index.ByteSliceReader.level" index: 124
*** "org.apache.lucene.index.IntBlockPool.buffer" index: 94
*** "org.apache.lucene.index.SegmentInfo.delCount" index: 53
*** "org.apache.lucene.store.RAMOutputStream.currentBuffer" index: 108
*** "org.apache.lucene.index.TermsHashPerField.postingsHash" index: 82
*** "org.apache.lucene.index.DocFieldConsumers$PerDoc.two" index: 1
*** "org.apache.lucene.index.FieldInfo.storeOffsetWithTermVector" index: 12
*** "org.apache.lucene.index.SegmentInfos.lastGeneration" index: 39
*** "org.apache.lucene.index.MergePolicy$OneMerge.optimize" index: 33
*** "org.apache.lucene.index.MergePolicy$OneMerge.segmentsClone" index: 36
*** "org.apache.lucene.index.TermsHashPerField.postingsHashHalfSize" index: 84
*** "org.apache.lucene.index.SegmentInfo.docStoreOffset" index: 50
*** "org.apache.lucene.index.DocumentsWriter.numDocsInRAM" index: 17
*** "org.apache.lucene.analysis.CharArraySet.count" index: 136
*** "org.apache.lucene.index.DocFieldConsumers$PerDoc.one" index: 0
*** "org.apache.lucene.index.FreqProxTermsWriter$PostingList.lastDocID" index: 119
*** "org.apache.lucene.index.IndexWriter.docWriter" index: 28
*** "org.apache.lucene.index.FieldInfo.storePositionWithTermVector" index: 11
*** "org.apache.lucene.index.SegmentInfo.isCompoundFile" index: 52
*** "org.apache.lucene.index.MergePolicy$OneMerge.info" index: 35
*** "org.apache.lucene.index.DocFieldProcessorPerField.lastGen" index: 7
*** "org.apache.lucene.store.RAMOutputStream.bufferStart" index: 104
*** "org.apache.lucene.index.TermVectorsTermsWriterPerThread.doc" index: 100
*** "org.apache.lucene.index.IntBlockPool.intUpto" index: 92
*** "org.apache.lucene.document.AbstractField.storeTermVector" index: 130
*** "org.apache.lucene.index.NormsWriterPerField.norms" index: 71
*** "org.apache.lucene.index.ByteSliceReader.bufferUpto" index: 125
*** "org.apache.lucene.index.IndexWriter.directory" index: 26
*** "org.apache.lucene.index.ConcurrentMergeScheduler.writer" index: 76
*** "org.apache.lucene.index.SegmentInfos.generation" index: 40
*** "org.apache.lucene.index.SegmentInfos.pendingOutput" index: 42
*** "org.apache.lucene.index.CompoundFileWriter$FileEntry.dataOffset" index: 45
*** "org.apache.lucene.index.TermInfo.proxPointer" index: 111
*** "org.apache.lucene.document.AbstractField.storePositionWithTermVector" index: 131
*** "org.apache.lucene.index.RawPostingList[].ARRAYINDEX" index: 89
*** "org.apache.lucene.index.ByteBlockPool.buffer" index: 99
*** "org.apache.lucene.index.RawPostingList.byteStart" index: 88
*** "org.apache.lucene.index.DocFieldProcessorPerThread.fieldHash" index: 3
*** "byte[][].ARRAYINDEX" index: 38
*** "org.apache.lucene.index.SegmentInfos.counter" index: 32
*** "org.apache.lucene.store.RAMOutputStream.bufferLength" index: 105
*** "org.apache.lucene.index.RawPostingList.intStart" index: 87
*** "org.apache.lucene.index.TermsHashPerField.postingsHashSize" index: 83
*** "org.apache.lucene.index.DocumentsWriter.abortedFiles" index: 19
*** "org.apache.lucene.index.DocumentsWriter.numBytesUsed" index: 20
*** "org.apache.lucene.index.DocumentsWriterThreadState.doFlushAfter" index: 21
