Buildfile: /home/lpxz/eclipse/workspacePA_icse/leap/transformer/build.xml

TransformMain:
     [java] loading the general arguments from leap.transformer.arg:
     [java] /home/lpxz/eclipse/workspacePA_icse/benchmarks/bin
     [java] -f c -cp /home/lpxz/pool/jdk1.6.0_26/jre/lib/resources.jar:/home/lpxz/pool/jdk1.6.0_26/jre/lib/rt.jar:/home/lpxz/pool/jdk1.6.0_26/jre/lib/sunrsasign.jar:/home/lpxz/pool/jdk1.6.0_26/jre/lib/jsse.jar:/home/lpxz/pool/jdk1.6.0_26/jre/lib/jce.jar:/home/lpxz/pool/jdk1.6.0_26/jre/lib/charsets.jar:/home/lpxz/pool/jdk1.6.0_26/jre/lib/modules/jdk.boot.jar:/home/lpxz/pool/jdk1.6.0_26/jre/classes:/home/lpxz/eclipse/workspacePA_icse/leap/transformer/bin:/home/lpxz/eclipse/workspacePA_icse/leap/transformer/lib/xpp3_min-1.1.3.4.O.jar:/home/lpxz/eclipse/workspacePA_icse/leap/transformer/lib/xstream-1.3.1.jar:/home/lpxz/eclipse/workspacePA_icse/leap/transformer/lib/jasmin-2.3.0.jar:/home/lpxz/eclipse/workspacePA_icse/leap/transformer/lib/polyglot.jar:/home/lpxz/eclipse/workspacePA_icse/leap/transformer/lib/java_cup.jar:/home/lpxz/eclipse/workspacePA_icse/soot-One/classes:/home/lpxz/eclipse/workspacePA_icse/soot-One/lib/jasminclasses-2.5.0.jar:/home/lpxz/eclipse/workspacePA_icse/soot-One/lib/polyglotclasses-1.3.5.jar:/home/lpxz/eclipse/workspacePA_icse/benchmarks/bin -main-class benchmarks.JGFRayTracerBenchSizeA benchmarks.JGFRayTracerBenchSizeA -d /home/lpxz/eclipse/workspacePA_icse/leap/transformer/tmp/record/
     [java] output record version to: /home/lpxz/eclipse/workspacePA_icse/leap/transformer/tmp/record/
     [java] [Call Graph] For information on where the call graph may be incomplete, use the verbose option to the cg phase.
     [java] [Spark] Pointer Assignment Graph in 1.1 seconds.
     [java] [Spark] Type masks in 1.8 seconds.
     [java] [Spark] Pointer Graph simplified in 0.0 seconds.
     [java] [Spark] Propagation in 24.4 seconds.
     [java] [Spark] Solution found in 24.4 seconds.
     [java] [local-objects] Analyzing local objects for benchmarks.raytracer.RayTracerRunner
     [java] [local-objects]   preparing class             Sat Nov 01 16:31:44 EDT 2014
     [java] [local-objects]   analyzing class             Sat Nov 01 16:31:44 EDT 2014
     [java] [local-objects]   propagating over call graph Sat Nov 01 16:31:45 EDT 2014
     [java] [local-objects]   finished at                 Sat Nov 01 16:31:45 EDT 2014
     [java] [local-objects]   (#analyzed/#encountered): 117/165
     [java] [local-objects] Analyzing local objects for benchmarks.JGFRayTracerBenchSizeA
     [java] [local-objects]   preparing class             Sat Nov 01 16:31:45 EDT 2014
     [java] [local-objects]   analyzing class             Sat Nov 01 16:31:45 EDT 2014
     [java] [local-objects]   propagating over call graph Sat Nov 01 16:31:45 EDT 2014
     [java] [local-objects]   finished at                 Sat Nov 01 16:31:45 EDT 2014
     [java] [local-objects]   (#analyzed/#encountered): 206/296
     [java] Transforming benchmarks.JGFRayTracerBenchSizeA... 
     [java] Transforming benchmarks.raytracer.JGFRayTracerBench... 
     [java] Transforming benchmarks.jgfutil.JGFInstrumentor... 
     [java] Transforming benchmarks.raytracer.RayTracer... 
     [java] exception in loadstore optimization for:  benchmarks.raytracer.RayTracer.intersect
     [java] Transforming benchmarks.jgfutil.JGFSection3... 
     [java] Transforming benchmarks.raytracer.TournamentBarrier... 
     [java] Transforming benchmarks.raytracer.RayTracerRunner... 
     [java] exception in loadstore optimization for:  benchmarks.raytracer.RayTracerRunner.run
     [java] Transforming benchmarks.raytracer.Scene... 
     [java] Transforming benchmarks.raytracer.Light... 
     [java] Transforming benchmarks.raytracer.Ray... 
     [java] Transforming benchmarks.raytracer.Isect... 
     [java] Transforming benchmarks.raytracer.Primitive... 
     [java] Transforming benchmarks.raytracer.Barrier... 
     [java] Transforming benchmarks.jgfutil.JGFTimer... 
     [java] Transforming benchmarks.raytracer.View... 
     [java] Transforming benchmarks.raytracer.Vec... 
     [java] Transforming benchmarks.raytracer.Interval... 
     [java] Transforming benchmarks.raytracer.Surface... 
     [java] Transforming benchmarks.raytracer.Sphere... 
     [java] Writing to /home/lpxz/eclipse/workspacePA_icse/leap/transformer/tmp/record/benchmarks/raytracer/Scene.class
     [java] Writing to /home/lpxz/eclipse/workspacePA_icse/leap/transformer/tmp/record/benchmarks/raytracer/JGFRayTracerBench.class
     [java] Writing to /home/lpxz/eclipse/workspacePA_icse/leap/transformer/tmp/record/benchmarks/raytracer/Surface.class
     [java] Writing to /home/lpxz/eclipse/workspacePA_icse/leap/transformer/tmp/record/benchmarks/raytracer/Vec.class
     [java] Writing to /home/lpxz/eclipse/workspacePA_icse/leap/transformer/tmp/record/benchmarks/raytracer/TournamentBarrier.class
     [java] Writing to /home/lpxz/eclipse/workspacePA_icse/leap/transformer/tmp/record/benchmarks/raytracer/RayTracerRunner.class
     [java] Writing to /home/lpxz/eclipse/workspacePA_icse/leap/transformer/tmp/record/benchmarks/raytracer/Barrier.class
     [java] Writing to /home/lpxz/eclipse/workspacePA_icse/leap/transformer/tmp/record/benchmarks/jgfutil/JGFInstrumentor.class
     [java] Writing to /home/lpxz/eclipse/workspacePA_icse/leap/transformer/tmp/record/benchmarks/raytracer/Primitive.class
     [java] Writing to /home/lpxz/eclipse/workspacePA_icse/leap/transformer/tmp/record/benchmarks/jgfutil/JGFTimer.class
     [java] Writing to /home/lpxz/eclipse/workspacePA_icse/leap/transformer/tmp/record/benchmarks/raytracer/Light.class
     [java] Writing to /home/lpxz/eclipse/workspacePA_icse/leap/transformer/tmp/record/benchmarks/JGFRayTracerBenchSizeA.class
     [java] Writing to /home/lpxz/eclipse/workspacePA_icse/leap/transformer/tmp/record/benchmarks/jgfutil/JGFSection3.class
     [java] Writing to /home/lpxz/eclipse/workspacePA_icse/leap/transformer/tmp/record/benchmarks/raytracer/Ray.class
     [java] Writing to /home/lpxz/eclipse/workspacePA_icse/leap/transformer/tmp/record/benchmarks/raytracer/Isect.class
     [java] Writing to /home/lpxz/eclipse/workspacePA_icse/leap/transformer/tmp/record/benchmarks/raytracer/Interval.class
     [java] Writing to /home/lpxz/eclipse/workspacePA_icse/leap/transformer/tmp/record/benchmarks/raytracer/Sphere.class
     [java] Writing to /home/lpxz/eclipse/workspacePA_icse/leap/transformer/tmp/record/benchmarks/raytracer/View.class
     [java] Writing to /home/lpxz/eclipse/workspacePA_icse/leap/transformer/tmp/record/benchmarks/raytracer/RayTracer.class
     [java] ***** Runtime version generated *****
     [java] *** *** *** *** *** *** *** *** *** *** 
     [java] 
     [java] *** Total access number: 526
     [java] *** SPE access number: 234
     [java] *** Instrumented SPE access number: 234
     [java] *** SPE size: 21
     [java]  
     [java] *** *** *** *** *** *** *** *** *** *** 
     [java] *** SPE name: 
     [java] *** "benchmarks.raytracer.JGFRayTracerBench.checksum1" index: 1
     [java] *** "benchmarks.jgfutil.JGFTimer.time" index: 18
     [java] *** "benchmarks.raytracer.Vec.x" index: 6
     [java] *** "benchmarks.raytracer.Ray.P" index: 14
     [java] *** "benchmarks.raytracer.Surface.kt" index: 4
     [java] *** "benchmarks.raytracer.Surface.ks" index: 3
     [java] *** "benchmarks.raytracer.Ray.D" index: 5
     [java] *** "benchmarks.jgfutil.JGFTimer.start_time" index: 17
     [java] *** "benchmarks.raytracer.Isect.t" index: 10
     [java] *** "benchmarks.jgfutil.JGFTimer.on" index: 16
     [java] *** "benchmarks.jgfutil.JGFTimer.opcount" index: 20 does not survive chord
     [java] *** "benchmarks.raytracer.RayTracer.checksum" index: 9
     [java] *** "benchmarks.raytracer.Surface.shine" index: 2
     [java] *** "benchmarks.raytracer.Isect.prim" index: 11
     [java] *** "benchmarks.jgfutil.JGFTimer.calls" index: 19
     [java] *** "benchmarks.JGFRayTracerBenchSizeA.nthreads" index: 0 does not survive chord
     [java] *** "benchmarks.raytracer.Isect.surf" index: 12
     [java] *** "benchmarks.raytracer.Vec.y" index: 7
     [java] *** "benchmarks.raytracer.Vec.z" index: 8
     [java] *** "boolean[].ARRAYINDEX" index: 15
     [java] *** "benchmarks.raytracer.Isect.enter" index: 13

BUILD SUCCESSFUL
Total time: 34 seconds
