Buildfile: /home/lpxz/eclipse/workspacePA_icse/leap/transformer/build.xml

TransformMain:
     [java] loading the general arguments from leap.transformer.arg:
     [java] /home/lpxz/eclipse/workspacePA_icse/jstamp-AJ/bin
     [java] -f c -cp /home/lpxz/pool/jdk1.6.0_26/jre/lib/resources.jar:/home/lpxz/pool/jdk1.6.0_26/jre/lib/rt.jar:/home/lpxz/pool/jdk1.6.0_26/jre/lib/sunrsasign.jar:/home/lpxz/pool/jdk1.6.0_26/jre/lib/jsse.jar:/home/lpxz/pool/jdk1.6.0_26/jre/lib/jce.jar:/home/lpxz/pool/jdk1.6.0_26/jre/lib/charsets.jar:/home/lpxz/pool/jdk1.6.0_26/jre/lib/modules/jdk.boot.jar:/home/lpxz/pool/jdk1.6.0_26/jre/classes:/home/lpxz/eclipse/workspacePA_icse/leap/transformer/bin:/home/lpxz/eclipse/workspacePA_icse/leap/transformer/lib/xpp3_min-1.1.3.4.O.jar:/home/lpxz/eclipse/workspacePA_icse/leap/transformer/lib/xstream-1.3.1.jar:/home/lpxz/eclipse/workspacePA_icse/leap/transformer/lib/jasmin-2.3.0.jar:/home/lpxz/eclipse/workspacePA_icse/leap/transformer/lib/polyglot.jar:/home/lpxz/eclipse/workspacePA_icse/leap/transformer/lib/java_cup.jar:/home/lpxz/eclipse/workspacePA_icse/soot-One/classes:/home/lpxz/eclipse/workspacePA_icse/soot-One/lib/jasminclasses-2.5.0.jar:/home/lpxz/eclipse/workspacePA_icse/soot-One/lib/polyglotclasses-1.3.5.jar:/home/lpxz/eclipse/workspacePA_icse/jstamp-AJ/bin -main-class Vacation.Vacation Vacation.Vacation -d /home/lpxz/eclipse/workspacePA_icse/leap/transformer/tmp/record/
     [java] output record version to: /home/lpxz/eclipse/workspacePA_icse/leap/transformer/tmp/record/
     [java] [Call Graph] For information on where the call graph may be incomplete, use the verbose option to the cg phase.
     [java] [Spark] Pointer Assignment Graph in 0.7 seconds.
     [java] [Spark] Type masks in 1.7 seconds.
     [java] [Spark] Pointer Graph simplified in 0.0 seconds.
     [java] [Spark] Propagation in 22.2 seconds.
     [java] [Spark] Solution found in 22.2 seconds.
     [java] [local-objects] Analyzing local objects for Vacation.Client
     [java] [local-objects]   preparing class             Sat Nov 01 16:36:43 EDT 2014
     [java] [local-objects]   analyzing class             Sat Nov 01 16:36:43 EDT 2014
     [java] [local-objects]   propagating over call graph Sat Nov 01 16:36:43 EDT 2014
     [java] [local-objects]   finished at                 Sat Nov 01 16:36:43 EDT 2014
     [java] [local-objects]   (#analyzed/#encountered): 170/223
     [java] [local-objects] Analyzing local objects for Vacation.Vacation
     [java] [local-objects]   preparing class             Sat Nov 01 16:36:43 EDT 2014
     [java] [local-objects]   analyzing class             Sat Nov 01 16:36:43 EDT 2014
     [java] [local-objects]   propagating over call graph Sat Nov 01 16:36:43 EDT 2014
     [java] [local-objects]   finished at                 Sat Nov 01 16:36:43 EDT 2014
     [java] [local-objects]   (#analyzed/#encountered): 220/313
     [java] Transforming Vacation.Vacation... 
     [java] exception in loadstore optimization for:  Vacation.Manager.manager_deleteCustomer
     [java] Transforming Vacation.Manager... 
     [java] Transforming Vacation.Client... 
     [java] Transforming Yada.java.Barrier... 
     [java] Transforming Vacation.RBTree... 
     [java] exception in loadstore optimization for:  Vacation.RBTree.lookup
     [java] exception in loadstore optimization for:  Vacation.RBTree.insert
     [java] exception in loadstore optimization for:  Vacation.RBTree.successor
     [java] Transforming common.Random... 
     [java] exception in loadstore optimization for:  Vacation.Customer.customer_getBill
     [java] Transforming common.G... 
     [java] Transforming Vacation.Node... 
     [java] Transforming Vacation.Reservation_Info... 
     [java] Transforming Vacation.List_t... 
     [java] Transforming Vacation.List_Node... 
     [java] Transforming Vacation.Reservation... 
     [java] Transforming Vacation.Customer... 
     [java] Writing to /home/lpxz/eclipse/workspacePA_icse/leap/transformer/tmp/record/Vacation/Vacation.class
     [java] Writing to /home/lpxz/eclipse/workspacePA_icse/leap/transformer/tmp/record/Vacation/Reservation.class
     [java] Writing to /home/lpxz/eclipse/workspacePA_icse/leap/transformer/tmp/record/Vacation/List_Node.class
     [java] Writing to /home/lpxz/eclipse/workspacePA_icse/leap/transformer/tmp/record/Vacation/Node.class
     [java] Writing to /home/lpxz/eclipse/workspacePA_icse/leap/transformer/tmp/record/Vacation/Client.class
     [java] Writing to /home/lpxz/eclipse/workspacePA_icse/leap/transformer/tmp/record/Yada/java/Barrier.class
     [java] Writing to /home/lpxz/eclipse/workspacePA_icse/leap/transformer/tmp/record/Vacation/Customer.class
     [java] Writing to /home/lpxz/eclipse/workspacePA_icse/leap/transformer/tmp/record/Vacation/Reservation_Info.class
     [java] Writing to /home/lpxz/eclipse/workspacePA_icse/leap/transformer/tmp/record/Vacation/RBTree.class
     [java] Writing to /home/lpxz/eclipse/workspacePA_icse/leap/transformer/tmp/record/Vacation/Manager.class
     [java] ***** Runtime version generated *****
     [java] Writing to /home/lpxz/eclipse/workspacePA_icse/leap/transformer/tmp/record/Vacation/List_t.class
     [java] Writing to /home/lpxz/eclipse/workspacePA_icse/leap/transformer/tmp/record/common/G.class
     [java] Writing to /home/lpxz/eclipse/workspacePA_icse/leap/transformer/tmp/record/common/Random.class
     [java] *** *** *** *** *** *** *** *** *** *** 
     [java] 
     [java] *** Total access number: 511
     [java] *** SPE access number: 161
     [java] *** Instrumented SPE access number: 161
     [java] *** SPE size: 15
     [java]  
     [java] *** *** *** *** *** *** *** *** *** *** 
     [java] *** SPE name: 
     [java] *** "Vacation.RBTree.root" index: 7
     [java] *** "Yada.java.Barrier.cyclicBarrier" index: 6 does not survive chord
     [java] *** "Vacation.Node.k" index: 8
     [java] *** "Vacation.Node.l" index: 9
     [java] *** "Vacation.Node.r" index: 10
     [java] *** "Vacation.Node.p" index: 11
     [java] *** "Vacation.Node.v" index: 13
     [java] *** "Vacation.List_t.size" index: 14 does not survive chord
     [java] *** "Vacation.List_Node.nextPtr" index: 3 does not survive chord
     [java] *** "Vacation.Reservation.numTotal" index: 1
     [java] *** "Vacation.Reservation.numUsed" index: 2
     [java] *** "Vacation.Reservation.price" index: 5
     [java] *** "Vacation.RBTree[].ARRAYINDEX" index: 0 does not survive chord
     [java] *** "Vacation.Reservation.numFree" index: 4
     [java] *** "Vacation.Node.c" index: 12

BUILD SUCCESSFUL
Total time: 31 seconds
