Buildfile: /home/lpxz/eclipse/workspacePA_icse/leap/transformer/build.xml

TransformMain:
     [java] loading the general arguments from leap.transformer.arg:
     [java] /home/lpxz/eclipse/workspacePA_icse/cache4j/bin
     [java] -f c -cp /home/lpxz/pool/jdk1.6.0_26/jre/lib/resources.jar:/home/lpxz/pool/jdk1.6.0_26/jre/lib/rt.jar:/home/lpxz/pool/jdk1.6.0_26/jre/lib/sunrsasign.jar:/home/lpxz/pool/jdk1.6.0_26/jre/lib/jsse.jar:/home/lpxz/pool/jdk1.6.0_26/jre/lib/jce.jar:/home/lpxz/pool/jdk1.6.0_26/jre/lib/charsets.jar:/home/lpxz/pool/jdk1.6.0_26/jre/lib/modules/jdk.boot.jar:/home/lpxz/pool/jdk1.6.0_26/jre/classes:/home/lpxz/eclipse/workspacePA_icse/leap/transformer/bin:/home/lpxz/eclipse/workspacePA_icse/leap/transformer/lib/xpp3_min-1.1.3.4.O.jar:/home/lpxz/eclipse/workspacePA_icse/leap/transformer/lib/xstream-1.3.1.jar:/home/lpxz/eclipse/workspacePA_icse/leap/transformer/lib/jasmin-2.3.0.jar:/home/lpxz/eclipse/workspacePA_icse/leap/transformer/lib/polyglot.jar:/home/lpxz/eclipse/workspacePA_icse/leap/transformer/lib/java_cup.jar:/home/lpxz/eclipse/workspacePA_icse/soot-One/classes:/home/lpxz/eclipse/workspacePA_icse/soot-One/lib/jasminclasses-2.5.0.jar:/home/lpxz/eclipse/workspacePA_icse/soot-One/lib/polyglotclasses-1.3.5.jar:/home/lpxz/eclipse/workspacePA_icse/cache4j/bin -main-class net.sf.cache4j.test.BlockingCacheTest net.sf.cache4j.test.BlockingCacheTest -d /home/lpxz/eclipse/workspacePA_icse/leap/transformer/tmp/record/
     [java] output record version to: /home/lpxz/eclipse/workspacePA_icse/leap/transformer/tmp/record/
     [java] [Call Graph] For information on where the call graph may be incomplete, use the verbose option to the cg phase.
     [java] [Spark] Pointer Assignment Graph in 1.1 seconds.
     [java] [Spark] Type masks in 1.3 seconds.
     [java] [Spark] Pointer Graph simplified in 0.0 seconds.
     [java] [Spark] Propagation in 23.1 seconds.
     [java] [Spark] Solution found in 23.1 seconds.
     [java] [local-objects] Analyzing local objects for net.sf.cache4j.test.BlockingCacheTest$TThread
     [java] [local-objects]   preparing class             Sat Nov 01 16:37:50 EDT 2014
     [java] [local-objects]   analyzing class             Sat Nov 01 16:37:50 EDT 2014
     [java] [local-objects]   propagating over call graph Sat Nov 01 16:37:50 EDT 2014
     [java] [local-objects]   finished at                 Sat Nov 01 16:37:50 EDT 2014
     [java] [local-objects]   (#analyzed/#encountered): 113/247
     [java] [local-objects] Analyzing local objects for net.sf.cache4j.test.BlockingCacheTest
     [java] [local-objects]   preparing class             Sat Nov 01 16:37:50 EDT 2014
     [java] [local-objects]   analyzing class             Sat Nov 01 16:37:50 EDT 2014
     [java] [local-objects]   propagating over call graph Sat Nov 01 16:37:50 EDT 2014
     [java] [local-objects]   finished at                 Sat Nov 01 16:37:50 EDT 2014
     [java] [local-objects]   (#analyzed/#encountered): 167/338
     [java] Transforming net.sf.cache4j.test.BlockingCacheTest... 
     [java] exception in loadstore optimization for:  net.sf.cache4j.test.BlockingCacheTest.test_THREAD1
     [java] Transforming net.sf.cache4j.test.Test... 
     [java] Transforming net.sf.cache4j.CacheInfo... 
     [java] Transforming net.sf.cache4j.CacheFactory... 
     [java] Transforming net.sf.cache4j.impl.BlockingCache... 
     [java] Transforming net.sf.cache4j.CacheException... 
     [java] Transforming net.sf.cache4j.test.BlockingCacheTest$TThread... 
     [java] Transforming net.sf.cache4j.impl.CacheConfigImpl... 
     [java] Transforming net.sf.cache4j.CacheConfig... 
     [java] Transforming net.sf.cache4j.Cache... 
     [java] Transforming net.sf.cache4j.CacheCleaner... 
     [java] Transforming net.sf.cache4j.impl.Configurator... 
     [java] Transforming net.sf.cache4j.ManagedCache... 
     [java] Transforming net.sf.cache4j.impl.BlockingCache$CacheInfoImpl... 
     [java] Transforming net.sf.cache4j.impl.CacheObject... 
     [java] Transforming net.sf.cache4j.impl.Utils... 
     [java] Transforming net.sf.cache4j.impl.LFUComparator... 
     [java] Transforming net.sf.cache4j.impl.SoftCacheObject... 
     [java] Transforming net.sf.cache4j.impl.FIFOComparator... 
     [java] Transforming net.sf.cache4j.impl.LRUComparator... 
     [java] Transforming net.sf.cache4j.impl.EmptyCache... 
     [java] Transforming net.sf.cache4j.impl.SynchronizedCache... 
     [java] Transforming net.sf.cache4j.impl.EmptyCache$CacheInfoImpl... 
     [java] Transforming net.sf.cache4j.impl.SynchronizedCache$CacheInfoImpl... 
     [java] Writing to /home/lpxz/eclipse/workspacePA_icse/leap/transformer/tmp/record/net/sf/cache4j/Cache.class
     [java] Writing to /home/lpxz/eclipse/workspacePA_icse/leap/transformer/tmp/record/net/sf/cache4j/CacheFactory.class
     [java] Writing to /home/lpxz/eclipse/workspacePA_icse/leap/transformer/tmp/record/net/sf/cache4j/CacheConfig.class
     [java] Writing to /home/lpxz/eclipse/workspacePA_icse/leap/transformer/tmp/record/net/sf/cache4j/impl/SynchronizedCache$CacheInfoImpl.class
     [java] Writing to /home/lpxz/eclipse/workspacePA_icse/leap/transformer/tmp/record/net/sf/cache4j/impl/SoftCacheObject.class
     [java] Writing to /home/lpxz/eclipse/workspacePA_icse/leap/transformer/tmp/record/net/sf/cache4j/impl/CacheObject.class
     [java] Writing to /home/lpxz/eclipse/workspacePA_icse/leap/transformer/tmp/record/net/sf/cache4j/impl/BlockingCache$CacheInfoImpl.class
     [java] Writing to /home/lpxz/eclipse/workspacePA_icse/leap/transformer/tmp/record/net/sf/cache4j/impl/BlockingCache.class
     [java] Writing to /home/lpxz/eclipse/workspacePA_icse/leap/transformer/tmp/record/net/sf/cache4j/impl/SynchronizedCache.class
     [java] Writing to /home/lpxz/eclipse/workspacePA_icse/leap/transformer/tmp/record/net/sf/cache4j/test/Test.class
     [java] Writing to /home/lpxz/eclipse/workspacePA_icse/leap/transformer/tmp/record/net/sf/cache4j/impl/CacheConfigImpl.class
     [java] Writing to /home/lpxz/eclipse/workspacePA_icse/leap/transformer/tmp/record/net/sf/cache4j/impl/Utils.class
     [java] Writing to /home/lpxz/eclipse/workspacePA_icse/leap/transformer/tmp/record/net/sf/cache4j/CacheCleaner.class
     [java] Writing to /home/lpxz/eclipse/workspacePA_icse/leap/transformer/tmp/record/net/sf/cache4j/CacheInfo.class
     [java] Writing to /home/lpxz/eclipse/workspacePA_icse/leap/transformer/tmp/record/net/sf/cache4j/test/BlockingCacheTest$TThread.class
     [java] Writing to /home/lpxz/eclipse/workspacePA_icse/leap/transformer/tmp/record/net/sf/cache4j/impl/Configurator.class
     [java] Writing to /home/lpxz/eclipse/workspacePA_icse/leap/transformer/tmp/record/net/sf/cache4j/impl/LRUComparator.class
     [java] Writing to /home/lpxz/eclipse/workspacePA_icse/leap/transformer/tmp/record/net/sf/cache4j/ManagedCache.class
     [java] Writing to /home/lpxz/eclipse/workspacePA_icse/leap/transformer/tmp/record/net/sf/cache4j/impl/LFUComparator.class
     [java] Writing to /home/lpxz/eclipse/workspacePA_icse/leap/transformer/tmp/record/net/sf/cache4j/test/BlockingCacheTest.class
     [java] Writing to /home/lpxz/eclipse/workspacePA_icse/leap/transformer/tmp/record/net/sf/cache4j/impl/FIFOComparator.class
     [java] ***** Runtime version generated *****
     [java] Writing to /home/lpxz/eclipse/workspacePA_icse/leap/transformer/tmp/record/net/sf/cache4j/CacheException.class
     [java] Writing to /home/lpxz/eclipse/workspacePA_icse/leap/transformer/tmp/record/net/sf/cache4j/impl/EmptyCache$CacheInfoImpl.class
     [java] Writing to /home/lpxz/eclipse/workspacePA_icse/leap/transformer/tmp/record/net/sf/cache4j/impl/EmptyCache.class
     [java] *** *** *** *** *** *** *** *** *** *** 
     [java] 
     [java] *** Total access number: 372
     [java] *** SPE access number: 160
     [java] *** Instrumented SPE access number: 160
     [java] *** SPE size: 15
     [java]  
     [java] *** *** *** *** *** *** *** *** *** *** 
     [java] *** SPE name: 
     [java] *** "net.sf.cache4j.impl.CacheObject._obj" index: 8 does not survive chord
     [java] *** "net.sf.cache4j.impl.BlockingCache$CacheInfoImpl._hit" index: 4 does not survive chord
     [java] *** "net.sf.cache4j.impl.CacheObject._lastAccessTime" index: 10 does not survive chord
     [java] *** "net.sf.cache4j.impl.CacheObject._createTime" index: 9 does not survive chord
     [java] *** "net.sf.cache4j.impl.BlockingCache._memorySize" index: 2 does not survive chord
     [java] *** "net.sf.cache4j.test.BlockingCacheTest._threadCount" index: 0 does not survive chord
     [java] *** "net.sf.cache4j.impl.CacheObject._objSize" index: 11 does not survive chord
     [java] *** "net.sf.cache4j.impl.CacheObject._lockThread" index: 7 does not survive chord
     [java] *** "net.sf.cache4j.impl.CacheObject._id" index: 13 does not survive chord
     [java] *** "net.sf.cache4j.impl.BlockingCache$CacheInfoImpl._put" index: 6 does not survive chord
     [java] *** "net.sf.cache4j.test.BlockingCacheTest._id" index: 1 does not survive chord
     [java] *** "java.util.Map.DSINDEX" index: 3 does not survive chord
     [java] *** "net.sf.cache4j.impl.CacheObject._accessCount" index: 12 does not survive chord
     [java] *** "net.sf.cache4j.impl.CacheObject.ID" index: 14 does not survive chord
     [java] *** "net.sf.cache4j.impl.BlockingCache$CacheInfoImpl._miss" index: 5 does not survive chord

BUILD SUCCESSFUL
Total time: 33 seconds
