Buildfile: /home/lpxz/eclipse/workspacePA_icse/leap/transformer/build.xml

TransformMain:
     [java] loading the general arguments from leap.transformer.arg:
     [java] /home/lpxz/eclipse/workspacePA_icse/jgrapht_coarselock/bin:/home/lpxz/eclipse/workspacePA_icse/jgrapht_coarselock/lib/junit.jar:/home/lpxz/eclipse/workspacePA_icse/jgrapht_coarselock/lib/svnant.jar:/home/lpxz/eclipse/workspacePA_icse/jgrapht_coarselock/lib/svnClientAdapter.jar:/home/lpxz/eclipse/workspacePA_icse/jgrapht_coarselock/lib/TGGraphLayout.jar:/home/lpxz/eclipse/workspacePA_icse/jgrapht_coarselock/lib/xmlunit1.0.jar:/home/lpxz/eclipse/workspacePA_icse/jgrapht_coarselock/lib/jgraph.jar
     [java] -f c -cp /home/lpxz/pool/jdk1.6.0_26/jre/lib/resources.jar:/home/lpxz/pool/jdk1.6.0_26/jre/lib/rt.jar:/home/lpxz/pool/jdk1.6.0_26/jre/lib/sunrsasign.jar:/home/lpxz/pool/jdk1.6.0_26/jre/lib/jsse.jar:/home/lpxz/pool/jdk1.6.0_26/jre/lib/jce.jar:/home/lpxz/pool/jdk1.6.0_26/jre/lib/charsets.jar:/home/lpxz/pool/jdk1.6.0_26/jre/lib/modules/jdk.boot.jar:/home/lpxz/pool/jdk1.6.0_26/jre/classes:/home/lpxz/eclipse/workspacePA_icse/leap/transformer/bin:/home/lpxz/eclipse/workspacePA_icse/leap/transformer/lib/xpp3_min-1.1.3.4.O.jar:/home/lpxz/eclipse/workspacePA_icse/leap/transformer/lib/xstream-1.3.1.jar:/home/lpxz/eclipse/workspacePA_icse/leap/transformer/lib/jasmin-2.3.0.jar:/home/lpxz/eclipse/workspacePA_icse/leap/transformer/lib/polyglot.jar:/home/lpxz/eclipse/workspacePA_icse/leap/transformer/lib/java_cup.jar:/home/lpxz/eclipse/workspacePA_icse/soot-One/classes:/home/lpxz/eclipse/workspacePA_icse/soot-One/lib/jasminclasses-2.5.0.jar:/home/lpxz/eclipse/workspacePA_icse/soot-One/lib/polyglotclasses-1.3.5.jar:/home/lpxz/eclipse/workspacePA_icse/jgrapht_coarselock/bin:/home/lpxz/eclipse/workspacePA_icse/jgrapht_coarselock/lib/junit.jar:/home/lpxz/eclipse/workspacePA_icse/jgrapht_coarselock/lib/svnant.jar:/home/lpxz/eclipse/workspacePA_icse/jgrapht_coarselock/lib/svnClientAdapter.jar:/home/lpxz/eclipse/workspacePA_icse/jgrapht_coarselock/lib/TGGraphLayout.jar:/home/lpxz/eclipse/workspacePA_icse/jgrapht_coarselock/lib/xmlunit1.0.jar:/home/lpxz/eclipse/workspacePA_icse/jgrapht_coarselock/lib/jgraph.jar -main-class jgrapht.PerformanceDemo jgrapht.PerformanceDemo -d /home/lpxz/eclipse/workspacePA_icse/leap/transformer/tmp/record/
     [java] output record version to: /home/lpxz/eclipse/workspacePA_icse/leap/transformer/tmp/record/
     [java] found type: Lorg/jgrapht/graph/DirectedPseudograph<TV;TE;>;
     [java] found type: Ljava/lang/Class<+TE;>;
     [java] found type: Lorg/jgrapht/graph/DirectedPseudograph<TV;TE;>;
     [java] found type: Lorg/jgrapht/EdgeFactory<TV;TE;>;
     [java] found type: Lorg/jgrapht/graph/AbstractBaseGraph<TV;TE;>;
     [java] found type: Lorg/jgrapht/graph/AbstractBaseGraph<TV;TE;>;
     [java] found type: Lorg/jgrapht/graph/AbstractBaseGraph<TV;TE;>;
     [java] found type: Lorg/jgrapht/graph/AbstractBaseGraph<TV;TE;>;
     [java] found type: Lorg/jgrapht/EdgeFactory<TV;TE;>;
     [java] found type: Lorg/jgrapht/graph/AbstractBaseGraph<TV;TE;>;
     [java] found type: Lorg/jgrapht/graph/AbstractBaseGraph<TV;TE;>;
     [java] found type: Lorg/jgrapht/EdgeFactory<TV;TE;>;
     [java] found type: Lorg/jgrapht/graph/AbstractBaseGraph<TV;TE;>;
     [java] found type: Lorg/jgrapht/graph/AbstractBaseGraph<TV;TE;>;
     [java] found type: Lorg/jgrapht/graph/AbstractBaseGraph<TV;TE;>;
     [java] found type: Lorg/jgrapht/graph/AbstractBaseGraph<TV;TE;>;
     [java] found type: Lorg/jgrapht/graph/AbstractBaseGraph<TV;TE;>;
     [java] found type: Lorg/jgrapht/graph/AbstractBaseGraph<TV;TE;>;
     [java] found type: TV;
     [java] found type: TV;
     [java] found type: Lorg/jgrapht/graph/AbstractBaseGraph<TV;TE;>;
     [java] found type: Lorg/jgrapht/graph/AbstractBaseGraph<TV;TE;>;
     [java] found type: Lorg/jgrapht/graph/AbstractBaseGraph<TV;TE;>;
     [java] found type: TV;
     [java] found type: TV;
     [java] found type: Lorg/jgrapht/graph/AbstractBaseGraph<TV;TE;>;
     [java] found type: Lorg/jgrapht/graph/AbstractBaseGraph<TV;TE;>;
     [java] found type: Lorg/jgrapht/graph/EdgeSetFactory<TV;TE;>;
     [java] found type: Lorg/jgrapht/graph/AbstractBaseGraph<TV;TE;>;
     [java] found type: TV;
     [java] found type: Lorg/jgrapht/graph/AbstractBaseGraph<TV;TE;>;
     [java] found type: TV;
     [java] found type: Lorg/jgrapht/graph/AbstractBaseGraph<TV;TE;>;
     [java] found type: Lorg/jgrapht/graph/AbstractBaseGraph<TV;TE;>;
     [java] found type: TV;
     [java] found type: TV;
     [java] found type: Lorg/jgrapht/graph/AbstractBaseGraph<TV;TE;>;
     [java] found type: TV;
     [java] found type: TV;
     [java] found type: Lorg/jgrapht/graph/AbstractBaseGraph<TV;TE;>;
     [java] found type: TV;
     [java] found type: TV;
     [java] found type: TE;
     [java] found type: Lorg/jgrapht/graph/AbstractBaseGraph<TV;TE;>;
     [java] found type: TE;
     [java] found type: Lorg/jgrapht/graph/AbstractBaseGraph<TV;TE;>;
     [java] found type: TE;
     [java] found type: TV;
     [java] found type: TV;
     [java] found type: Lorg/jgrapht/graph/AbstractBaseGraph<TV;TE;>;
     [java] found type: TE;
     [java] found type: Lorg/jgrapht/graph/AbstractBaseGraph<TV;TE;>;
     [java] found type: TE;
     [java] found type: TE;
     [java] found type: TE;
     [java] found type: Lorg/jgrapht/graph/AbstractBaseGraph<TV;TE;>;
     [java] found type: TE;
     [java] found type: Lorg/jgrapht/graph/AbstractBaseGraph<TV;TE;>;
     [java] found type: TV;
     [java] found type: Lorg/jgrapht/graph/AbstractBaseGraph<TV;TE;>;
     [java] found type: TV;
     [java] found type: Lorg/jgrapht/graph/AbstractBaseGraph<TV;TE;>;
     [java] found type: Lorg/jgrapht/graph/AbstractBaseGraph<TV;TE;>;
     [java] found type: TV;
     [java] found type: TV;
     [java] found type: Lorg/jgrapht/graph/AbstractBaseGraph<TV;TE;>;
     [java] found type: TV;
     [java] found type: TV;
     [java] found type: Lorg/jgrapht/graph/AbstractBaseGraph<TV;TE;>;
     [java] found type: TE;
     [java] found type: TV;
     [java] found type: TV;
     [java] found type: Lorg/jgrapht/graph/AbstractBaseGraph<TV;TE;>;
     [java] found type: TE;
     [java] found type: Lorg/jgrapht/graph/AbstractBaseGraph<TV;TE;>;
     [java] found type: TE;
     [java] found type: TE;
     [java] found type: TE;
     [java] found type: TV;
     [java] found type: TV;
     [java] found type: TV;
     [java] found type: Lorg/jgrapht/graph/AbstractBaseGraph<TV;TE;>;
     [java] found type: TV;
     [java] found type: Lorg/jgrapht/graph/AbstractBaseGraph<TV;TE;>;
     [java] found type: TV;
     [java] found type: Lorg/jgrapht/graph/AbstractBaseGraph<TV;TE;>;
     [java] found type: TE;
     [java] found type: Lorg/jgrapht/graph/AbstractBaseGraph<TV;TE;>;
     [java] found type: Lorg/jgrapht/graph/AbstractBaseGraph<TV;TE;>;
     [java] found type: TE;
     [java] found type: Lorg/jgrapht/graph/AbstractBaseGraph<TV;TE;>;
     [java] found type: TE;
     [java] found type: TE;
     [java] found type: Lorg/jgrapht/graph/AbstractBaseGraph<TV;TE;>;
     [java] found type: TE;
     [java] found type: Lorg/jgrapht/util/TypeUtil<Lorg/jgrapht/graph/AbstractBaseGraph<TV;TE;>;>;
     [java] found type: Lorg/jgrapht/graph/AbstractBaseGraph<TV;TE;>;
     [java] found type: Lorg/jgrapht/util/TypeUtil<Lorg/jgrapht/graph/AbstractBaseGraph<TV;TE;>;>;
     [java] found type: Lorg/jgrapht/graph/AbstractBaseGraph<TV;TE;>;
     [java] found type: Lorg/jgrapht/graph/AbstractBaseGraph<TV;TE;>;
     [java] found type: Lorg/jgrapht/graph/AbstractBaseGraph<TV;TE;>;
     [java] found type: Lorg/jgrapht/graph/AbstractBaseGraph<TV;TE;>;
     [java] found type: Lorg/jgrapht/graph/AbstractBaseGraph<TV;TE;>;
     [java] found type: Lorg/jgrapht/graph/AbstractBaseGraph<TV;TE;>;
     [java] found type: Lorg/jgrapht/graph/AbstractBaseGraph<TV;TE;>;
     [java] found type: Lorg/jgrapht/graph/AbstractBaseGraph<TV;TE;>;
     [java] found type: Lorg/jgrapht/graph/AbstractBaseGraph<TV;TE;>;
     [java] found type: Lorg/jgrapht/graph/AbstractBaseGraph<TV;TE;>;
     [java] found type: Lorg/jgrapht/graph/AbstractBaseGraph<TV;TE;>;
     [java] found type: Lorg/jgrapht/graph/AbstractBaseGraph<TV;TE;>;
     [java] found type: TE;
     [java] found type: Lorg/jgrapht/graph/AbstractBaseGraph<TV;TE;>;
     [java] found type: TV;
     [java] found type: Lorg/jgrapht/graph/AbstractBaseGraph<TV;TE;>;
     [java] found type: TV;
     [java] found type: Lorg/jgrapht/graph/AbstractBaseGraph<TV;TE;>;
     [java] found type: Lorg/jgrapht/graph/AbstractBaseGraph<TV;TE;>;
     [java] found type: Lorg/jgrapht/graph/AbstractBaseGraph<TV;TE;>;
     [java] found type: Lorg/jgrapht/graph/AbstractBaseGraph<TV;TE;>;
     [java] found type: Lorg/jgrapht/graph/AbstractBaseGraph<TV;TE;>;
     [java] found type: TV;
     [java] found type: Lorg/jgrapht/graph/AbstractBaseGraph<TV;TE;>;
     [java] found type: TV;
     [java] found type: Lorg/jgrapht/graph/AbstractBaseGraph<TV;TE;>;
     [java] found type: TV;
     [java] found type: Lorg/jgrapht/graph/AbstractBaseGraph<TV;TE;>;
     [java] found type: TV;
     [java] found type: Lorg/jgrapht/graph/AbstractBaseGraph<TV;TE;>;
     [java] found type: TV;
     [java] found type: Lorg/jgrapht/graph/AbstractBaseGraph<TV;TE;>;
     [java] found type: TV;
     [java] found type: TV;
     [java] found type: TE;
     [java] found type: TE;
     [java] found type: Lorg/jgrapht/graph/AbstractBaseGraph<TV;TE;>;
     [java] found type: TE;
     [java] found type: Lorg/jgrapht/graph/AbstractBaseGraph<TV;TE;>;
     [java] found type: TE;
     [java] found type: TE;
     [java] found type: Lorg/jgrapht/graph/AbstractBaseGraph<TV;TE;>;
     [java] found type: TE;
     [java] found type: Lorg/jgrapht/graph/AbstractBaseGraph<TV;TE;>;
     [java] found type: TE;
     [java] found type: Lorg/jgrapht/graph/AbstractBaseGraph<TV;TE;>;
     [java] found type: TE;
     [java] found type: Lorg/jgrapht/graph/AbstractBaseGraph<TV;TE;>;
     [java] found type: TV;
     [java] found type: Lorg/jgrapht/graph/AbstractBaseGraph<TV;TE;>;
     [java] found type: TV;
     [java] found type: Ljava/util/Set<TE;>;
     [java] found type: Lorg/jgrapht/graph/AbstractBaseGraph<TV;TE;>;
     [java] found type: Ljava/util/Set<TE;>;
     [java] found type: Lorg/jgrapht/graph/AbstractBaseGraph<TV;TE;>;
     [java] found type: TV;
     [java] found type: Lorg/jgrapht/graph/AbstractBaseGraph<TV;TE;>;
     [java] found type: Lorg/jgrapht/graph/AbstractBaseGraph<TV;TE;>;
     [java] found type: Lorg/jgrapht/graph/AbstractBaseGraph<TV;TE;>;
     [java] found type: Lorg/jgrapht/graph/AbstractBaseGraph<TV;TE;>;
     [java] found type: TE;
     [java] found type: TE;
     [java] found type: TE;
     [java] found type: TE;
     [java] found type: TE;
     [java] found type: Lorg/jgrapht/graph/AbstractBaseGraph<TV;TE;>;
     [java] found type: Lorg/jgrapht/graph/AbstractBaseGraph<TV;TE;>;
     [java] found type: Lorg/jgrapht/graph/AbstractBaseGraph<TV;TE;>;
     [java] found type: Lorg/jgrapht/graph/AbstractBaseGraph<TV;TE;>;
     [java] found type: Lorg/jgrapht/graph/ClassBasedEdgeFactory<TV;TE;>;
     [java] found type: Lorg/jgrapht/graph/ClassBasedEdgeFactory<TV;TE;>;
     [java] found type: Ljava/lang/Class<+TE;>;
     [java] found type: Lorg/jgrapht/graph/ClassBasedEdgeFactory<TV;TE;>;
     [java] found type: Lorg/jgrapht/graph/AbstractGraph<TV;TE;>;
     [java] found type: Lorg/jgrapht/graph/AbstractGraph<TV;TE;>;
     [java] found type: TV;
     [java] found type: TV;
     [java] found type: Ljava/util/Collection<+TE;>;
     [java] found type: TE;
     [java] found type: Lorg/jgrapht/graph/AbstractGraph<TV;TE;>;
     [java] found type: TE;
     [java] found type: Lorg/jgrapht/graph/AbstractGraph<TV;TE;>;
     [java] found type: TV;
     [java] found type: TV;
     [java] found type: Ljava/util/Set<TE;>;
     [java] found type: Lorg/jgrapht/graph/AbstractGraph<TV;TE;>;
     [java] found type: Ljava/util/Set<TE;>;
     [java] found type: Ljava/util/Set<TE;>;
     [java] found type: Ljava/util/Collection<+TV;>;
     [java] found type: TV;
     [java] found type: Lorg/jgrapht/graph/AbstractGraph<TV;TE;>;
     [java] found type: TV;
     [java] found type: Lorg/jgrapht/graph/AbstractGraph<TV;TE;>;
     [java] found type: Lorg/jgrapht/graph/AbstractGraph<TV;TE;>;
     [java] found type: Lorg/jgrapht/graph/AbstractGraph<TV;TE;>;
     [java] found type: Lorg/jgrapht/graph/AbstractGraph<TV;TE;>;
     [java] found type: Lorg/jgrapht/graph/AbstractGraph<TV;TE;>;
     [java] found type: TV;
     [java] found type: TV;
     [java] found type: Lorg/jgrapht/graph/AbstractGraph<TV;TE;>;
     [java] found type: Ljava/util/List<Ljava/lang/String;>;
     [java] found type: Ljava/util/Collection<+TE;>;
     [java] found type: TE;
     [java] found type: TE;
     [java] found type: TE;
     [java] found type: TE;
     [java] found type: Lorg/jgrapht/graph/AbstractGraph<TV;TE;>;
     [java] found type: TE;
     [java] found type: Lorg/jgrapht/graph/AbstractGraph<TV;TE;>;
     [java] found type: TE;
     [java] found type: Ljava/util/List<Ljava/lang/String;>;
     [java] found type: Ljava/util/Collection<+TV;>;
     [java] found type: Ljava/util/List<Ljava/lang/String;>;
     [java] found type: Lorg/jgrapht/util/TypeUtil<TT;>;
     [java] found type: Lorg/jgrapht/graph/AbstractBaseGraph<TV;TE;>.UndirectedEdgeContainer<TVV;TEE;>;
     [java] found type: Lorg/jgrapht/graph/AbstractBaseGraph<TV;TE;>.UndirectedEdgeContainer<TVV;TEE;>;
     [java] found type: Lorg/jgrapht/graph/AbstractBaseGraph<TV;TE;>.UndirectedEdgeContainer<TVV;TEE;>;
     [java] found type: Lorg/jgrapht/graph/EdgeSetFactory<TVV;TEE;>;
     [java] found type: TVV;
     [java] found type: Lorg/jgrapht/graph/AbstractBaseGraph<TV;TE;>.UndirectedEdgeContainer<TVV;TEE;>;
     [java] found type: Lorg/jgrapht/graph/AbstractBaseGraph<TV;TE;>.UndirectedEdgeContainer<TVV;TEE;>;
     [java] found type: Lorg/jgrapht/graph/AbstractBaseGraph<TV;TE;>.UndirectedEdgeContainer<TVV;TEE;>;
     [java] found type: Lorg/jgrapht/graph/AbstractBaseGraph<TV;TE;>.UndirectedEdgeContainer<TVV;TEE;>;
     [java] found type: Lorg/jgrapht/graph/AbstractBaseGraph<TV;TE;>.UndirectedEdgeContainer<TVV;TEE;>;
     [java] found type: TEE;
     [java] found type: Lorg/jgrapht/graph/AbstractBaseGraph<TV;TE;>.UndirectedEdgeContainer<TVV;TEE;>;
     [java] found type: Lorg/jgrapht/graph/AbstractBaseGraph<TV;TE;>.UndirectedEdgeContainer<TVV;TEE;>;
     [java] found type: TEE;
     [java] found type: Lorg/jgrapht/graph/AbstractBaseGraph<TV;TE;>.DirectedEdgeContainer<TVV;TEE;>;
     [java] found type: Lorg/jgrapht/graph/AbstractBaseGraph<TV;TE;>.DirectedEdgeContainer<TVV;TEE;>;
     [java] found type: Lorg/jgrapht/graph/AbstractBaseGraph<TV;TE;>.DirectedEdgeContainer<TVV;TEE;>;
     [java] found type: Lorg/jgrapht/graph/AbstractBaseGraph<TV;TE;>.DirectedEdgeContainer<TVV;TEE;>;
     [java] found type: Lorg/jgrapht/graph/EdgeSetFactory<TVV;TEE;>;
     [java] found type: TVV;
     [java] found type: Lorg/jgrapht/graph/AbstractBaseGraph<TV;TE;>.DirectedEdgeContainer<TVV;TEE;>;
     [java] found type: Lorg/jgrapht/graph/EdgeSetFactory<TVV;TEE;>;
     [java] found type: TVV;
     [java] found type: Lorg/jgrapht/graph/AbstractBaseGraph<TV;TE;>.DirectedEdgeContainer<TVV;TEE;>;
     [java] found type: Lorg/jgrapht/graph/AbstractBaseGraph<TV;TE;>.DirectedEdgeContainer<TVV;TEE;>;
     [java] found type: Lorg/jgrapht/graph/AbstractBaseGraph<TV;TE;>.DirectedEdgeContainer<TVV;TEE;>;
     [java] found type: Lorg/jgrapht/graph/AbstractBaseGraph<TV;TE;>.DirectedEdgeContainer<TVV;TEE;>;
     [java] found type: Lorg/jgrapht/graph/AbstractBaseGraph<TV;TE;>.DirectedEdgeContainer<TVV;TEE;>;
     [java] found type: Lorg/jgrapht/graph/AbstractBaseGraph<TV;TE;>.DirectedEdgeContainer<TVV;TEE;>;
     [java] found type: Lorg/jgrapht/graph/AbstractBaseGraph<TV;TE;>.DirectedEdgeContainer<TVV;TEE;>;
     [java] found type: Lorg/jgrapht/graph/AbstractBaseGraph<TV;TE;>.DirectedEdgeContainer<TVV;TEE;>;
     [java] found type: Lorg/jgrapht/graph/AbstractBaseGraph<TV;TE;>.DirectedEdgeContainer<TVV;TEE;>;
     [java] found type: TEE;
     [java] found type: Lorg/jgrapht/graph/AbstractBaseGraph<TV;TE;>.DirectedEdgeContainer<TVV;TEE;>;
     [java] found type: TEE;
     [java] found type: Lorg/jgrapht/graph/AbstractBaseGraph<TV;TE;>.DirectedEdgeContainer<TVV;TEE;>;
     [java] found type: TEE;
     [java] found type: Lorg/jgrapht/graph/AbstractBaseGraph<TV;TE;>.DirectedEdgeContainer<TVV;TEE;>;
     [java] found type: TEE;
     [java] found type: TV;
     [java] found type: Ljava/util/Set<TE;>;
     [java] found type: TV;
     [java] found type: TV;
     [java] found type: Ljava/util/Set<TE;>;
     [java] found type: TV;
     [java] found type: Lorg/jgrapht/graph/AbstractBaseGraph$DirectedEdgeContainer<TV;TE;>;
     [java] found type: Lorg/jgrapht/graph/AbstractBaseGraph$DirectedEdgeContainer<TV;TE;>;
     [java] found type: Ljava/util/Iterator<TE;>;
     [java] found type: Ljava/util/Iterator<TE;>;
     [java] found type: TE;
     [java] found type: TE;
     [java] found type: TV;
     [java] found type: Ljava/util/Set<TE;>;
     [java] found type: TE;
     [java] found type: Ljava/util/Iterator<TE;>;
     [java] found type: Ljava/util/Set<TE;>;
     [java] found type: TV;
     [java] found type: TV;
     [java] found type: TV;
     [java] found type: Lorg/jgrapht/graph/AbstractBaseGraph$DirectedEdgeContainer<TV;TE;>;
     [java] found type: Lorg/jgrapht/graph/AbstractBaseGraph$DirectedEdgeContainer<TV;TE;>;
     [java] found type: Ljava/util/Iterator<TE;>;
     [java] found type: Ljava/util/Iterator<TE;>;
     [java] found type: TE;
     [java] found type: TE;
     [java] found type: TV;
     [java] found type: TE;
     [java] found type: Ljava/util/Iterator<TE;>;
     [java] found type: TE;
     [java] found type: TV;
     [java] found type: TE;
     [java] found type: TV;
     [java] found type: TV;
     [java] found type: TE;
     [java] found type: TV;
     [java] found type: TE;
     [java] found type: TV;
     [java] found type: Lorg/jgrapht/util/ArrayUnenforcedSet<TE;>;
     [java] found type: Lorg/jgrapht/util/ArrayUnenforcedSet<TE;>;
     [java] found type: TV;
     [java] found type: TV;
     [java] found type: TV;
     [java] found type: Ljava/util/Set<TE;>;
     [java] found type: Lorg/jgrapht/util/ArrayUnenforcedSet<TE;>;
     [java] found type: Ljava/util/Set<TE;>;
     [java] found type: Lorg/jgrapht/util/ArrayUnenforcedSet<TE;>;
     [java] found type: Ljava/util/Set<TE;>;
     [java] found type: Lorg/jgrapht/util/ArrayUnenforcedSet<TE;>;
     [java] found type: Lorg/jgrapht/util/ArrayUnenforcedSet<TE;>;
     [java] found type: TV;
     [java] found type: TV;
     [java] found type: TV;
     [java] found type: TV;
     [java] found type: TE;
     [java] found type: TV;
     [java] found type: TE;
     [java] found type: TV;
     [java] found type: TV;
     [java] found type: TE;
     [java] found type: TV;
     [java] found type: TE;
     [java] found type: TV;
     [java] found type: TV;
     [java] found type: Lorg/jgrapht/graph/AbstractBaseGraph$DirectedEdgeContainer<TV;TE;>;
     [java] found type: Lorg/jgrapht/graph/AbstractBaseGraph$DirectedEdgeContainer<TV;TE;>;
     [java] found type: TV;
     [java] found type: Lorg/jgrapht/graph/AbstractBaseGraph$DirectedEdgeContainer<TV;TE;>;
     [java] found type: TV;
     [java] found type: Lorg/jgrapht/graph/AbstractBaseGraph$DirectedEdgeContainer<TV;TE;>;
     [java] found type: Lorg/jgrapht/graph/AbstractBaseGraph$DirectedEdgeContainer<TV;TE;>;
     [java] found type: TV;
     [java] found type: Ljava/util/Set<TE;>;
     [java] found type: TV;
     [java] found type: TV;
     [java] found type: Ljava/util/Set<TE;>;
     [java] found type: TV;
     [java] found type: Ljava/util/Iterator<TE;>;
     [java] found type: Ljava/util/Iterator<TE;>;
     [java] found type: TE;
     [java] found type: TV;
     [java] found type: TE;
     [java] found type: TV;
     [java] found type: TE;
     [java] found type: TV;
     [java] found type: TE;
     [java] found type: TV;
     [java] found type: TE;
     [java] found type: Ljava/util/Set<TE;>;
     [java] found type: TE;
     [java] found type: Ljava/util/Iterator<TE;>;
     [java] found type: Ljava/util/Set<TE;>;
     [java] found type: TV;
     [java] found type: TV;
     [java] found type: TV;
     [java] found type: Ljava/util/Iterator<TE;>;
     [java] found type: Ljava/util/Iterator<TE;>;
     [java] found type: TE;
     [java] found type: TV;
     [java] found type: TE;
     [java] found type: TV;
     [java] found type: TE;
     [java] found type: TV;
     [java] found type: TE;
     [java] found type: TV;
     [java] found type: TE;
     [java] found type: TE;
     [java] found type: Ljava/util/Iterator<TE;>;
     [java] found type: TE;
     [java] found type: TV;
     [java] found type: TE;
     [java] found type: TV;
     [java] found type: TV;
     [java] found type: TE;
     [java] found type: TV;
     [java] found type: TV;
     [java] found type: TV;
     [java] found type: TE;
     [java] found type: TV;
     [java] found type: Ljava/util/Set<TE;>;
     [java] found type: Ljava/util/Set<TE;>;
     [java] found type: TE;
     [java] found type: TE;
     [java] found type: TE;
     [java] found type: TV;
     [java] found type: TV;
     [java] found type: TE;
     [java] found type: TV;
     [java] found type: TE;
     [java] found type: TV;
     [java] found type: TV;
     [java] found type: TE;
     [java] found type: TV;
     [java] found type: TV;
     [java] found type: TV;
     [java] found type: TE;
     [java] found type: TV;
     [java] found type: TV;
     [java] found type: Lorg/jgrapht/graph/AbstractBaseGraph$UndirectedEdgeContainer<TV;TE;>;
     [java] found type: Lorg/jgrapht/graph/AbstractBaseGraph$UndirectedEdgeContainer<TV;TE;>;
     [java] found type: TV;
     [java] found type: Lorg/jgrapht/graph/AbstractBaseGraph$UndirectedEdgeContainer<TV;TE;>;
     [java] found type: TV;
     [java] found type: Lorg/jgrapht/graph/AbstractBaseGraph$UndirectedEdgeContainer<TV;TE;>;
     [java] found type: Lorg/jgrapht/graph/AbstractBaseGraph$UndirectedEdgeContainer<TV;TE;>;
     [java] found type: Lorg/jgrapht/graph/AbstractBaseGraph<TV;TE;>.ArrayListFactory<TVV;TEE;>;
     [java] found type: Lorg/jgrapht/Graph<TV;TE;>;
     [java] found type: Lorg/jgrapht/EdgeFactory<TV;TE;>;
     [java] found type: Lorg/jgrapht/EdgeFactory<TV;TE;>;
     [java] found type: TV;
     [java] found type: TV;
     [java] found type: TE;
     [java] found type: Lorg/jgrapht/Graph<TV;TE;>;
     [java] found type: Lorg/jgrapht/Graph<TV;TE;>;
     [java] found type: Lorg/jgrapht/Graph<TV;TE;>;
     [java] found type: TE;
     [java] found type: Lorg/jgrapht/Graph<TV;TE;>;
     [java] found type: TV;
     [java] found type: TV;
     [java] found type: TE;
     [java] found type: TE;
     [java] found type: Lorg/jgrapht/Graph<TV;TE;>;
     [java] found type: TV;
     [java] found type: Lorg/jgrapht/Graph<TV;TE;>;
     [java] found type: TV;
     [java] found type: Lorg/jgrapht/Graph<TV;TE;>;
     [java] found type: TV;
     [java] found type: TV;
     [java] found type: Lorg/jgrapht/Graph<TV;TE;>;
     [java] found type: TE;
     [java] found type: TV;
     [java] found type: Lorg/jgrapht/Graph<TV;TE;>;
     [java] found type: TE;
     [java] found type: TV;
     [java] found type: Lorg/jgrapht/Graph<TV;TE;>;
     [java] found type: TV;
     [java] found type: Lorg/jgrapht/Graph<TV;TE;>;
     [java] found type: TV;
     [java] found type: Lorg/jgrapht/Graph<TV;TE;>;
     [java] found type: TV;
     [java] found type: TV;
     [java] found type: TE;
     [java] found type: Lorg/jgrapht/Graph<TV;TE;>;
     [java] found type: TV;
     [java] found type: Lorg/jgrapht/Graph<TV;TE;>;
     [java] found type: TV;
     [java] found type: Lorg/jgrapht/Graph<TV;TE;>;
     [java] found type: TV;
     [java] found type: TV;
     [java] found type: Lorg/jgrapht/Graph<-TV;-TE;>;
     [java] found type: Lorg/jgrapht/Graph<TV;TE;>;
     [java] found type: Lorg/jgrapht/Graph<-TV;-TE;>;
     [java] found type: Lorg/jgrapht/Graph<TV;TE;>;
     [java] found type: Lorg/jgrapht/Graph<TV;TE;>;
     [java] found type: Lorg/jgrapht/DirectedGraph<-TV;-TE;>;
     [java] found type: Lorg/jgrapht/DirectedGraph<TV;TE;>;
     [java] found type: Lorg/jgrapht/DirectedGraph<TV;TE;>;
     [java] found type: TE;
     [java] found type: Lorg/jgrapht/DirectedGraph<-TV;-TE;>;
     [java] found type: Lorg/jgrapht/DirectedGraph<TV;TE;>;
     [java] found type: TE;
     [java] found type: Lorg/jgrapht/DirectedGraph<TV;TE;>;
     [java] found type: TE;
     [java] found type: Ljava/util/Collection<+TE;>;
     [java] found type: TE;
     [java] found type: Lorg/jgrapht/Graph<TV;TE;>;
     [java] found type: TE;
     [java] found type: TV;
     [java] found type: Lorg/jgrapht/Graph<TV;TE;>;
     [java] found type: TE;
     [java] found type: TV;
     [java] found type: Lorg/jgrapht/Graph<-TV;-TE;>;
     [java] found type: TV;
     [java] found type: Lorg/jgrapht/Graph<-TV;-TE;>;
     [java] found type: TV;
     [java] found type: Lorg/jgrapht/Graph<-TV;-TE;>;
     [java] found type: TV;
     [java] found type: TV;
     [java] found type: TE;
     [java] found type: Ljava/util/Collection<+TV;>;
     [java] found type: TV;
     [java] found type: Lorg/jgrapht/Graph<-TV;-TE;>;
     [java] found type: TV;
     [java] found type: Ljava/util/List<TV;>;
     [java] found type: Lorg/jgrapht/Graph<TV;TE;>;
     [java] found type: TV;
     [java] found type: TE;
     [java] found type: Ljava/util/List<TV;>;
     [java] found type: Lorg/jgrapht/Graph<TV;TE;>;
     [java] found type: TE;
     [java] found type: TV;
     [java] found type: Ljava/util/List<TV;>;
     [java] found type: Ljava/util/List<TV;>;
     [java] found type: Lorg/jgrapht/DirectedGraph<TV;TE;>;
     [java] found type: TV;
     [java] found type: Ljava/util/Set<+TE;>;
     [java] found type: Ljava/util/Set<+TE;>;
     [java] found type: TE;
     [java] found type: Ljava/util/List<TV;>;
     [java] found type: Lorg/jgrapht/DirectedGraph<TV;TE;>;
     [java] found type: TE;
     [java] found type: TV;
     [java] found type: Ljava/util/List<TV;>;
     [java] found type: Ljava/util/List<TV;>;
     [java] found type: Lorg/jgrapht/DirectedGraph<TV;TE;>;
     [java] found type: TV;
     [java] found type: Ljava/util/Set<+TE;>;
     [java] found type: Ljava/util/Set<+TE;>;
     [java] found type: TE;
     [java] found type: Ljava/util/List<TV;>;
     [java] found type: Lorg/jgrapht/DirectedGraph<TV;TE;>;
     [java] found type: TE;
     [java] found type: TV;
     [java] found type: Ljava/util/List<TV;>;
     [java] found type: Lorg/jgrapht/Graph<TV;TE;>;
     [java] found type: Lorg/jgrapht/Graph<TV;TE;>;
     [java] found type: Lorg/jgrapht/Graph<TV;TE;>;
     [java] found type: Lorg/jgrapht/Graph<TV;TE;>;
     [java] found type: Lorg/jgrapht/Graph<TV;TE;>;
     [java] found type: TE;
     [java] found type: TV;
     [java] found type: Lorg/jgrapht/Graph<TV;TE;>;
     [java] found type: TE;
     [java] found type: TV;
     [java] found type: Lorg/jgrapht/Graph<TV;TE;>;
     [java] found type: TE;
     [java] found type: TV;
     [java] found type: Lorg/jgrapht/Graph<TV;TE;>;
     [java] found type: TE;
     [java] found type: TV;
     [java] found type: TV;
     [java] found type: TV;
     [java] found type: TV;
     [java] found type: TV;
     [java] found type: TV;
     [java] found type: TV;
     [java] found type: Lorg/jgrapht/GraphPath<TV;TE;>;
     [java] found type: Lorg/jgrapht/Graph<TV;TE;>;
     [java] found type: Ljava/util/List<TV;>;
     [java] found type: Lorg/jgrapht/GraphPath<TV;TE;>;
     [java] found type: TV;
     [java] found type: Ljava/util/List<TV;>;
     [java] found type: TV;
     [java] found type: Lorg/jgrapht/GraphPath<TV;TE;>;
     [java] found type: TE;
     [java] found type: Lorg/jgrapht/Graph<TV;TE;>;
     [java] found type: TE;
     [java] found type: TV;
     [java] found type: TV;
     [java] found type: Ljava/util/List<TV;>;
     [java] found type: TV;
     [java] found type: Ljava/util/List<TV;>;
     [java] found type: Lorg/jgrapht/util/ArrayUnenforcedSet<TE;>;
     [java] found type: Lorg/jgrapht/util/ArrayUnenforcedSet<TE;>;
     [java] found type: Ljava/util/Collection<+TE;>;
     [java] found type: Lorg/jgrapht/util/ArrayUnenforcedSet<TE;>;
     [java] found type: Lorg/jgrapht/util/ArrayUnenforcedSet<TE;>;
     [java] found type: Lorg/jgrapht/util/ArrayUnenforcedSet<TE;>;
     [java] found type: Lorg/jgrapht/graph/AsUndirectedGraph<TV;TE;>;
     [java] found type: Lorg/jgrapht/DirectedGraph<TV;TE;>;
     [java] found type: Lorg/jgrapht/graph/AsUndirectedGraph<TV;TE;>;
     [java] found type: TV;
     [java] found type: TV;
     [java] found type: Ljava/util/Set<TE;>;
     [java] found type: TV;
     [java] found type: TV;
     [java] found type: Ljava/util/Set<TE;>;
     [java] found type: Lorg/jgrapht/graph/AsUndirectedGraph<TV;TE;>;
     [java] found type: TV;
     [java] found type: TV;
     [java] found type: Ljava/util/Set<TE;>;
     [java] found type: Ljava/util/Set<TE;>;
     [java] found type: Ljava/util/Set<TE;>;
     [java] found type: Ljava/util/Set<TE;>;
     [java] found type: Ljava/util/Set<TE;>;
     [java] found type: Ljava/util/Set<TE;>;
     [java] found type: Ljava/util/Set<TE;>;
     [java] found type: Ljava/util/Set<TE;>;
     [java] found type: Ljava/util/Set<TE;>;
     [java] found type: Lorg/jgrapht/graph/AsUndirectedGraph<TV;TE;>;
     [java] found type: TV;
     [java] found type: TV;
     [java] found type: TE;
     [java] found type: TE;
     [java] found type: TE;
     [java] found type: Lorg/jgrapht/graph/AsUndirectedGraph<TV;TE;>;
     [java] found type: TV;
     [java] found type: TV;
     [java] found type: Lorg/jgrapht/graph/AsUndirectedGraph<TV;TE;>;
     [java] found type: TV;
     [java] found type: Lorg/jgrapht/graph/AsUndirectedGraph<TV;TE;>;
     [java] found type: TV;
     [java] found type: Lorg/jgrapht/graph/AsUndirectedGraph<TV;TE;>;
     [java] found type: Lorg/jgrapht/graph/AsUndirectedGraph<TV;TE;>;
     [java] found type: Lorg/jgrapht/graph/AsUndirectedGraph<TV;TE;>;
     [java] found type: Lorg/jgrapht/graph/GraphDelegator<TV;TE;>;
     [java] found type: Lorg/jgrapht/Graph<TV;TE;>;
     [java] found type: Lorg/jgrapht/graph/GraphDelegator<TV;TE;>;
     [java] found type: Lorg/jgrapht/Graph<TV;TE;>;
     [java] found type: Lorg/jgrapht/graph/GraphDelegator<TV;TE;>;
     [java] found type: TV;
     [java] found type: TV;
     [java] found type: Lorg/jgrapht/graph/GraphDelegator<TV;TE;>;
     [java] found type: TV;
     [java] found type: TV;
     [java] found type: Lorg/jgrapht/graph/GraphDelegator<TV;TE;>;
     [java] found type: Lorg/jgrapht/graph/GraphDelegator<TV;TE;>;
     [java] found type: TV;
     [java] found type: TV;
     [java] found type: Lorg/jgrapht/graph/GraphDelegator<TV;TE;>;
     [java] found type: TV;
     [java] found type: TV;
     [java] found type: TE;
     [java] found type: Lorg/jgrapht/graph/GraphDelegator<TV;TE;>;
     [java] found type: TV;
     [java] found type: Lorg/jgrapht/graph/GraphDelegator<TV;TE;>;
     [java] found type: TE;
     [java] found type: Lorg/jgrapht/graph/GraphDelegator<TV;TE;>;
     [java] found type: TV;
     [java] found type: Lorg/jgrapht/graph/GraphDelegator<TV;TE;>;
     [java] found type: TV;
     [java] found type: Lorg/jgrapht/graph/GraphDelegator<TV;TE;>;
     [java] found type: Lorg/jgrapht/graph/GraphDelegator<TV;TE;>;
     [java] found type: TV;
     [java] found type: Lorg/jgrapht/graph/GraphDelegator<TV;TE;>;
     [java] found type: TV;
     [java] found type: Lorg/jgrapht/graph/GraphDelegator<TV;TE;>;
     [java] found type: TV;
     [java] found type: Lorg/jgrapht/graph/GraphDelegator<TV;TE;>;
     [java] found type: TV;
     [java] found type: Lorg/jgrapht/graph/GraphDelegator<TV;TE;>;
     [java] found type: TV;
     [java] found type: Lorg/jgrapht/graph/GraphDelegator<TV;TE;>;
     [java] found type: TE;
     [java] found type: Lorg/jgrapht/graph/GraphDelegator<TV;TE;>;
     [java] found type: TV;
     [java] found type: TV;
     [java] found type: Lorg/jgrapht/graph/GraphDelegator<TV;TE;>;
     [java] found type: TV;
     [java] found type: Lorg/jgrapht/graph/GraphDelegator<TV;TE;>;
     [java] found type: Lorg/jgrapht/graph/GraphDelegator<TV;TE;>;
     [java] found type: Lorg/jgrapht/graph/GraphDelegator<TV;TE;>;
     [java] found type: TE;
     [java] found type: Lorg/jgrapht/graph/GraphDelegator<TV;TE;>;
     [java] found type: TE;
     [java] found type: Lorg/jgrapht/graph/GraphDelegator<TV;TE;>;
     [java] found type: TE;
     [java] found type: Lorg/jgrapht/graph/GraphDelegator<TV;TE;>;
     [java] found type: TE;
     [java] [Call Graph] For information on where the call graph may be incomplete, use the verbose option to the cg phase.
     [java] [Spark] Pointer Assignment Graph in 1.0 seconds.
     [java] [Spark] Type masks in 1.3 seconds.
     [java] [Spark] Pointer Graph simplified in 0.0 seconds.
     [java] [Spark] Propagation in 22.0 seconds.
     [java] [Spark] Solution found in 22.0 seconds.
     [java] [local-objects] Analyzing local objects for jgrapht.PerformanceDemo
     [java] [local-objects]   preparing class             Sat Nov 01 16:40:30 EDT 2014
     [java] [local-objects]   analyzing class             Sat Nov 01 16:40:30 EDT 2014
     [java] [local-objects]   propagating over call graph Sat Nov 01 16:40:30 EDT 2014
     [java] [local-objects]   finished at                 Sat Nov 01 16:40:30 EDT 2014
     [java] [local-objects]   (#analyzed/#encountered): 126/229
     [java] Transforming jgrapht.PerformanceDemo... 
     [java] Transforming org.jgrapht.graph.DirectedPseudograph... 
     [java] Transforming org.jgrapht.graph.DefaultEdge... 
     [java] Transforming org.jgrapht.graph.IntrusiveEdge... 
     [java] Transforming org.jgrapht.graph.AbstractBaseGraph... 
     [java] Transforming org.jgrapht.DirectedGraph... 
     [java] Transforming org.jgrapht.EdgeFactory... 
     [java] Transforming org.jgrapht.graph.ClassBasedEdgeFactory... 
     [java] Transforming org.jgrapht.graph.AbstractGraph... 
     [java] Transforming org.jgrapht.Graph... 
     [java] Transforming org.jgrapht.graph.EdgeSetFactory... 
     [java] Transforming org.jgrapht.graph.AbstractBaseGraph$Specifics... 
     [java] Transforming org.jgrapht.util.TypeUtil... 
     [java] Transforming org.jgrapht.graph.AbstractBaseGraph$UndirectedEdgeContainer... 
     [java] Transforming org.jgrapht.graph.AbstractBaseGraph$DirectedEdgeContainer... 
     [java] Transforming org.jgrapht.graph.AbstractBaseGraph$DirectedSpecifics... 
     [java] Transforming org.jgrapht.graph.DefaultWeightedEdge... 
     [java] Transforming org.jgrapht.UndirectedGraph... 
     [java] Transforming org.jgrapht.graph.AbstractBaseGraph$UndirectedSpecifics... 
     [java] Transforming org.jgrapht.graph.AbstractBaseGraph$ArrayListFactory... 
     [java] Transforming org.jgrapht.Graphs... 
     [java] Transforming org.jgrapht.util.ArrayUnenforcedSet... 
     [java] Transforming org.jgrapht.GraphPath... 
     [java] Transforming org.jgrapht.WeightedGraph... 
     [java] Transforming org.jgrapht.graph.AsUndirectedGraph... 
     [java] Transforming org.jgrapht.util.ArrayUnenforcedSet$SetForEquality... 
     [java] Transforming org.jgrapht.graph.GraphDelegator... 
     [java] Writing to /home/lpxz/eclipse/workspacePA_icse/leap/transformer/tmp/record/org/jgrapht/graph/AbstractBaseGraph$UndirectedEdgeContainer.class
     [java] Writing to /home/lpxz/eclipse/workspacePA_icse/leap/transformer/tmp/record/org/jgrapht/DirectedGraph.class
     [java] Writing to /home/lpxz/eclipse/workspacePA_icse/leap/transformer/tmp/record/org/jgrapht/graph/AbstractBaseGraph$UndirectedSpecifics.class
     [java] Writing to /home/lpxz/eclipse/workspacePA_icse/leap/transformer/tmp/record/org/jgrapht/graph/AbstractGraph.class
     [java] Writing to /home/lpxz/eclipse/workspacePA_icse/leap/transformer/tmp/record/org/jgrapht/graph/AbstractBaseGraph$ArrayListFactory.class
     [java] Writing to /home/lpxz/eclipse/workspacePA_icse/leap/transformer/tmp/record/org/jgrapht/WeightedGraph.class
     [java] Writing to /home/lpxz/eclipse/workspacePA_icse/leap/transformer/tmp/record/org/jgrapht/Graph.class
     [java] Writing to /home/lpxz/eclipse/workspacePA_icse/leap/transformer/tmp/record/org/jgrapht/Graphs.class
     [java] Writing to /home/lpxz/eclipse/workspacePA_icse/leap/transformer/tmp/record/org/jgrapht/graph/IntrusiveEdge.class
     [java] Writing to /home/lpxz/eclipse/workspacePA_icse/leap/transformer/tmp/record/org/jgrapht/UndirectedGraph.class
     [java] Writing to /home/lpxz/eclipse/workspacePA_icse/leap/transformer/tmp/record/org/jgrapht/graph/DefaultEdge.class
     [java] Writing to /home/lpxz/eclipse/workspacePA_icse/leap/transformer/tmp/record/org/jgrapht/graph/DefaultWeightedEdge.class
     [java] Writing to /home/lpxz/eclipse/workspacePA_icse/leap/transformer/tmp/record/org/jgrapht/graph/AsUndirectedGraph.class
     [java] Writing to /home/lpxz/eclipse/workspacePA_icse/leap/transformer/tmp/record/org/jgrapht/graph/AbstractBaseGraph$Specifics.class
     [java] Writing to /home/lpxz/eclipse/workspacePA_icse/leap/transformer/tmp/record/org/jgrapht/graph/AbstractBaseGraph$DirectedSpecifics.class
     [java] Writing to /home/lpxz/eclipse/workspacePA_icse/leap/transformer/tmp/record/org/jgrapht/util/TypeUtil.class
     [java] Writing to /home/lpxz/eclipse/workspacePA_icse/leap/transformer/tmp/record/org/jgrapht/util/ArrayUnenforcedSet.class
     [java] Writing to /home/lpxz/eclipse/workspacePA_icse/leap/transformer/tmp/record/org/jgrapht/graph/AbstractBaseGraph$DirectedEdgeContainer.class
     [java] Writing to /home/lpxz/eclipse/workspacePA_icse/leap/transformer/tmp/record/jgrapht/PerformanceDemo.class
     [java] Writing to /home/lpxz/eclipse/workspacePA_icse/leap/transformer/tmp/record/org/jgrapht/graph/DirectedPseudograph.class
     [java] Writing to /home/lpxz/eclipse/workspacePA_icse/leap/transformer/tmp/record/org/jgrapht/util/ArrayUnenforcedSet$SetForEquality.class
     [java] Writing to /home/lpxz/eclipse/workspacePA_icse/leap/transformer/tmp/record/org/jgrapht/GraphPath.class
     [java] Writing to /home/lpxz/eclipse/workspacePA_icse/leap/transformer/tmp/record/org/jgrapht/graph/GraphDelegator.class
     [java] Writing to /home/lpxz/eclipse/workspacePA_icse/leap/transformer/tmp/record/org/jgrapht/graph/EdgeSetFactory.class
     [java] Writing to /home/lpxz/eclipse/workspacePA_icse/leap/transformer/tmp/record/org/jgrapht/graph/ClassBasedEdgeFactory.class
     [java] Writing to /home/lpxz/eclipse/workspacePA_icse/leap/transformer/tmp/record/org/jgrapht/graph/AbstractBaseGraph.class
     [java] Writing to /home/lpxz/eclipse/workspacePA_icse/leap/transformer/tmp/record/org/jgrapht/EdgeFactory.class
     [java] *** *** *** *** *** *** *** *** *** *** 
     [java] 
     [java] *** Total access number: 195
     [java] *** SPE access number: 21
     [java] *** Instrumented SPE access number: 21
     [java] *** SPE size: 3
     [java]  
     [java] *** *** *** *** *** *** *** *** *** *** 
     [java] *** SPE name: 
     [java] *** "org.jgrapht.graph.IntrusiveEdge.target" index: 2 does not survive chord
     [java] *** "java.util.Map.DSINDEX" index: 0 does not survive chord
     [java] *** "org.jgrapht.graph.IntrusiveEdge.source" index: 1 does not survive chord***** Runtime version generated *****

BUILD SUCCESSFUL
Total time: 30 seconds
