loading the general arguments from leap.transformer.arg:
loading chord..................

field: org.apache.lucene.search.BooleanClause.occur
org.apache.lucene.search.BooleanClause.hashCode
org.apache.lucene.search.BooleanClause.toString
org.apache.lucene.search.BooleanClause.setOccur
org.apache.lucene.search.BooleanClause.isRequired
org.apache.lucene.search.BooleanClause.isProhibited
org.apache.lucene.search.BooleanClause.equals

field: org.apache.lucene.search.PhrasePositions.doc
org.apache.lucene.search.PhrasePositions.next
org.apache.lucene.search.PhrasePositions.skipTo
org.apache.lucene.search.PhraseScorer.doc

field: org.apache.lucene.search.TermScorer.doc
org.apache.lucene.search.TermScorer.doc
org.apache.lucene.search.TermScorer.score
org.apache.lucene.search.TermScorer.skipTo
org.apache.lucene.search.TermScorer.next

field: org.apache.lucene.search.MultiPhraseQuery.field
org.apache.lucene.search.MultiPhraseQuery.add
org.apache.lucene.search.MultiPhraseQuery.toString

field: org.apache.lucene.search.Query.boost
org.apache.lucene.search.Query.setBoost
org.apache.lucene.search.Query.getBoost

field: org.apache.lucene.analysis.Token.positionIncrement
org.apache.lucene.analysis.Token.setPositionIncrement
org.apache.lucene.analysis.Token.hashCode
org.apache.lucene.analysis.Token.toString
org.apache.lucene.analysis.Token.clear
org.apache.lucene.analysis.Token.equals

field: org.apache.lucene.search.BooleanScorer2.countingSumScorer
org.apache.lucene.search.BooleanScorer2.initCountingSumScorer
org.apache.lucene.search.BooleanScorer2.doc

field: org.apache.lucene.analysis.Token.startOffset
org.apache.lucene.analysis.Token.hashCode
org.apache.lucene.analysis.Token.setStartOffset
org.apache.lucene.analysis.Token.toString
org.apache.lucene.analysis.Token.equals

field: org.apache.lucene.search.MultiPhraseQuery.slop
org.apache.lucene.search.MultiPhraseQuery.equals
org.apache.lucene.search.MultiPhraseQuery.setSlop
org.apache.lucene.search.MultiPhraseQuery.hashCode
org.apache.lucene.search.MultiPhraseQuery.toString

field: org.dacapo.harness.TeeOutputStream.toScreen
org.dacapo.harness.TeeOutputStream.write
org.dacapo.harness.TeeOutputStream.enableOutput

field: [*]
org.dacapo.parser.ParseException.initialise
org.apache.lucene.queryParser.QueryParser.jj_add_error_token
org.apache.lucene.analysis.LowerCaseFilter.next
org.apache.lucene.analysis.CharArraySet.getHashCode
org.apache.lucene.analysis.standard.StandardTokenizerImpl.getNextToken
org.apache.lucene.queryParser.FastCharStream.readChar
org.apache.lucene.util.ArrayUtil.hashCode
org.dacapo.parser.SimpleCharStream.UpdateLineColumn
org.apache.lucene.queryParser.ParseException.getMessage
org.apache.lucene.index.MultipleTermPositions$IntQueue.add
org.apache.lucene.analysis.CharArraySet.add
org.dacapo.parser.SimpleCharStream.readChar
org.apache.lucene.analysis.CharArraySet.equals
org.apache.lucene.analysis.standard.StandardFilter.next
org.apache.lucene.queryParser.QueryParser.generateParseException
org.apache.lucene.analysis.Token.equals
org.dacapo.parser.ConfigFile.generateParseException

field: org.apache.lucene.search.MatchAllDocsQuery$MatchAllScorer.id
org.apache.lucene.search.MatchAllDocsQuery$MatchAllScorer.doc
org.apache.lucene.search.MatchAllDocsQuery$MatchAllScorer.next
org.apache.lucene.search.MatchAllDocsQuery$MatchAllScorer.skipTo

field: org.apache.lucene.analysis.Token.payload
org.apache.lucene.analysis.Token.hashCode
org.apache.lucene.analysis.Token.setPayload
org.apache.lucene.analysis.Token.clear
org.apache.lucene.analysis.Token.equals

field: org.apache.lucene.analysis.Token.type
org.apache.lucene.analysis.Token.hashCode
org.apache.lucene.analysis.Token.toString
org.apache.lucene.analysis.Token.equals
org.apache.lucene.analysis.Token.setType

field: org.apache.lucene.search.PhraseQuery.maxPosition
org.apache.lucene.search.PhraseQuery.add
org.apache.lucene.search.PhraseQuery.toString

field: org.apache.lucene.analysis.Token.endOffset
org.apache.lucene.analysis.Token.hashCode
org.apache.lucene.analysis.Token.setEndOffset
org.apache.lucene.analysis.Token.toString
org.apache.lucene.analysis.Token.equals

field: org.apache.lucene.search.PhraseQuery.field
org.apache.lucene.search.PhraseQuery.add
org.apache.lucene.search.PhraseQuery.toString

field: org.apache.lucene.search.BooleanQuery.clauses
org.apache.lucene.search.BooleanQuery.toString
org.apache.lucene.search.BooleanQuery.equals
org.apache.lucene.search.BooleanQuery.clone
org.apache.lucene.search.BooleanQuery.hashCode

field: org.apache.lucene.search.PhraseQuery.slop
org.apache.lucene.search.PhraseQuery.setSlop
org.apache.lucene.search.PhraseQuery.equals
org.apache.lucene.search.PhraseQuery.hashCode
org.apache.lucene.search.PhraseQuery.toString

field: org.apache.lucene.analysis.Token.termBuffer
org.apache.lucene.analysis.Token.hashCode
org.apache.lucene.analysis.Token.setTermBuffer
org.apache.lucene.analysis.Token.clone
org.apache.lucene.analysis.Token.initTermBuffer
org.apache.lucene.analysis.Token.term
org.apache.lucene.analysis.Token.toString
org.apache.lucene.analysis.Token.termBuffer
org.apache.lucene.analysis.Token.equals
org.apache.lucene.analysis.Token.setTermLength
org.apache.lucene.analysis.Token.growTermBuffer

field: org.apache.lucene.search.ReqExclScorer.reqScorer
org.apache.lucene.search.ReqExclScorer.toNonExcluded
org.apache.lucene.search.ReqExclScorer.next
org.apache.lucene.search.ReqExclScorer.skipTo
org.apache.lucene.search.ReqExclScorer.doc

field: org.dacapo.lusearch.Search.completed
org.dacapo.lusearch.Search.main
org.dacapo.lusearch.Search$QueryProcessor.run

field: org.apache.lucene.search.ConjunctionScorer.lastDoc
org.apache.lucene.search.ConjunctionScorer.doc
org.apache.lucene.search.ConjunctionScorer.doNext

field: org.apache.lucene.analysis.Token.flags
org.apache.lucene.analysis.Token.hashCode
org.apache.lucene.analysis.Token.clear
org.apache.lucene.analysis.Token.equals

field: org.dacapo.harness.TeeOutputStream.log
org.dacapo.harness.TeeOutputStream.newLog
org.dacapo.harness.TeeOutputStream.close
org.dacapo.harness.TeeOutputStream.write
org.dacapo.harness.TeeOutputStream.closeLog
org.dacapo.harness.TeeOutputStream.flush

field: org.apache.lucene.search.PhraseScorer.first
org.apache.lucene.search.PhraseScorer.pqToList
org.apache.lucene.search.PhraseScorer.firstToLast
org.apache.lucene.search.PhraseScorer.doc

field: org.apache.lucene.analysis.Token.termText
org.apache.lucene.analysis.Token.setTermBuffer
org.apache.lucene.analysis.Token.initTermBuffer
org.apache.lucene.analysis.Token.term
org.apache.lucene.analysis.Token.clear
org.apache.lucene.analysis.Token.growTermBuffer

field: org.apache.lucene.search.DisjunctionSumScorer.currentDoc
org.apache.lucene.search.DisjunctionSumScorer.doc
org.apache.lucene.search.DisjunctionSumScorer.advanceAfterCurrent

field: org.apache.lucene.util.OpenBitSetIterator.curDocId
org.apache.lucene.util.OpenBitSetIterator.doc
org.apache.lucene.util.OpenBitSetIterator.next
org.apache.lucene.util.OpenBitSetIterator.skipTo

field: org.apache.lucene.analysis.Token.termLength
org.apache.lucene.analysis.Token.hashCode
org.apache.lucene.analysis.Token.setTermBuffer
org.apache.lucene.analysis.Token.termLength
org.apache.lucene.analysis.Token.initTermBuffer
org.apache.lucene.analysis.Token.term
org.apache.lucene.analysis.Token.toString
org.apache.lucene.analysis.Token.clear
org.apache.lucene.analysis.Token.equals
org.apache.lucene.analysis.Token.setTermLength
/home/lpxz/work/dacapo/out/lusearch-small
-keep-line-number -app -w -p cg.spark enabled -f c -p cg reflection-log:/home/lpxz/work/dacapo/out/lusearch-small/refl.log -cp /home/lpxz/pool/jdk1.6.0_26/jre/lib/resources.jar:/home/lpxz/pool/jdk1.6.0_26/jre/lib/rt.jar:/home/lpxz/pool/jdk1.6.0_26/jre/lib/sunrsasign.jar:/home/lpxz/pool/jdk1.6.0_26/jre/lib/jsse.jar:/home/lpxz/pool/jdk1.6.0_26/jre/lib/jce.jar:/home/lpxz/pool/jdk1.6.0_26/jre/lib/charsets.jar:/home/lpxz/pool/jdk1.6.0_26/jre/lib/modules/jdk.boot.jar:/home/lpxz/pool/jdk1.6.0_26/jre/classes:/home/lpxz/eclipse/workspacePA_icse/leap/transformer/bin:/home/lpxz/eclipse/workspacePA_icse/leap/transformer/lib/xpp3_min-1.1.3.4.O.jar:/home/lpxz/eclipse/workspacePA_icse/leap/transformer/lib/xstream-1.3.1.jar:/home/lpxz/eclipse/workspacePA_icse/leap/transformer/lib/jasmin-2.3.0.jar:/home/lpxz/eclipse/workspacePA_icse/leap/transformer/lib/polyglot.jar:/home/lpxz/eclipse/workspacePA_icse/leap/transformer/lib/java_cup.jar:/home/lpxz/eclipse/workspacePA_icse/leap/transformer/lib/jeff:/home/lpxz/eclipse/workspacePA_icse/soot-One/classes:/home/lpxz/eclipse/workspacePA_icse/soot-One/lib/jasminclasses-2.5.0.jar:/home/lpxz/eclipse/workspacePA_icse/soot-One/lib/polyglotclasses-1.3.5.jar:/home/lpxz/work/dacapo/out/lusearch-small -main-class Harness Harness -i org.apache -i org.w3c -d /home/lpxz/eclipse/workspacePA_icse/leap/transformer/tmp/record/
output record version to: /home/lpxz/eclipse/workspacePA_icse/leap/transformer/tmp/record/
Warning: org.apache.lucene.index.IndexReader$FieldOption is a phantom class!
Warning: org.apache.lucene.index.TermVectorMapper is a phantom class!
Warning: org.apache.lucene.index.TermFreqVector is a phantom class!
Warning: org.apache.lucene.index.SegmentTermPositions is a phantom class!
Warning: org.apache.lucene.util.BitVector is a phantom class!
Warning: org.apache.lucene.index.TermVectorsReader is a phantom class!
Warning: org.apache.lucene.index.IndexFileDeleter is a phantom class!
Warning: org.apache.lucene.index.IndexWriter is a phantom class!
Warning: org.apache.lucene.index.DocumentsWriter is a phantom class!
Warning: org.apache.lucene.index.IndexReader$1 is a phantom class!
Warning: org.apache.lucene.index.IndexReader$2 is a phantom class!
Warning: org.apache.lucene.index.SegmentInfos$1 is a phantom class!
Warning: org.apache.lucene.index.SegmentInfos$2 is a phantom class!
Warning: org.apache.lucene.index.TermInfosReader$1 is a phantom class!
Warning: org.apache.lucene.document.Document$1 is a phantom class!
Warning: org.apache.lucene.index.FieldsReader$FieldForMerge is a phantom class!
Warning: org.apache.lucene.index.FieldsReader$LazyField is a phantom class!
Warning: org.apache.lucene.index.MultiSegmentReader$MultiTermDocs is a phantom class!
Warning: org.apache.lucene.index.MultiSegmentReader$MultiTermPositions is a phantom class!
Warning: org.apache.lucene.index.MultiSegmentReader$MultiTermEnum is a phantom class!
Warning: org.apache.lucene.index.CompoundFileWriter is a phantom class!
Warning: org.apache.lucene.index.MergePolicy$OneMerge is a phantom class!
Warning: org.apache.lucene.index.TermInfosWriter is a phantom class!
Warning: org.apache.lucene.index.SegmentMergeQueue is a phantom class!
Warning: org.apache.lucene.index.TermVectorsWriter is a phantom class!
Warning: org.apache.lucene.index.SegmentMergeInfo is a phantom class!
Warning: org.apache.lucene.index.DefaultSkipListWriter is a phantom class!
Warning: org.apache.lucene.index.SegmentMerger$1 is a phantom class!
Warning: org.apache.lucene.index.MergePolicy is a phantom class!
Warning: org.apache.lucene.index.FieldsWriter is a phantom class!
Warning: org.apache.lucene.index.SegmentMerger$CheckAbort is a phantom class!
Warning: org.apache.lucene.index.CompoundFileReader$1 is a phantom class!
Warning: org.apache.lucene.index.DefaultSkipListReader is a phantom class!
Warning: org.apache.lucene.store.NativeFSLockFactory is a phantom class!
Warning: org.apache.lucene.store.Lock$With is a phantom class!
Warning: org.apache.lucene.store.NoLock is a phantom class!
Warning: org.apache.lucene.search.Hits is a phantom class!
Warning: org.apache.lucene.search.Sort is a phantom class!
Warning: org.apache.lucene.search.TopFieldDocs is a phantom class!
Warning: org.apache.lucene.index.Payload is a phantom class!
Warning: org.apache.lucene.store.LockReleaseFailedException is a phantom class!
Warning: org.apache.lucene.util.DocIdBitSet is a phantom class!
Warning: org.apache.lucene.search.DocIdSet is a phantom class!
Warning: org.apache.lucene.util.ArrayUtil is a phantom class!
Warning: org.apache.lucene.search.BooleanScorer is a phantom class!
Warning: org.apache.lucene.search.ConjunctionScorer$1 is a phantom class!
Warning: org.apache.lucene.util.ScorerDocQueue is a phantom class!
Warning: org.apache.lucene.analysis.WordlistLoader is a phantom class!
Warning: org.apache.lucene.analysis.standard.StandardAnalyzer$1 is a phantom class!
Warning: org.apache.lucene.analysis.standard.StandardAnalyzer$SavedStreams is a phantom class!
Warning: org.apache.lucene.document.DateTools$Resolution is a phantom class!
Warning: org.apache.lucene.queryParser.QueryParser$1 is a phantom class!
Warning: org.apache.lucene.document.DateTools is a phantom class!
Warning: org.apache.lucene.document.DateField is a phantom class!
Warning: org.apache.lucene.index.FilterIndexReader$FilterTermEnum is a phantom class!
Warning: org.apache.lucene.index.FilterIndexReader$FilterTermPositions is a phantom class!
Warning: org.apache.lucene.index.FilterIndexReader$FilterTermDocs is a phantom class!
Warning: org.apache.lucene.analysis.StopAnalyzer$SavedStreams is a phantom class!
Warning: org.apache.lucene.analysis.StopAnalyzer$1 is a phantom class!
Warning: org.apache.lucene.search.FieldDoc is a phantom class!
Warning: org.apache.lucene.search.FieldSortedHitQueue is a phantom class!
Warning: org.apache.lucene.search.SortField is a phantom class!
Warning: org.apache.lucene.search.MultiPhraseQuery$MultiPhraseWeight is a phantom class!
Warning: org.apache.lucene.search.PhraseQuery$PhraseWeight is a phantom class!
Warning: org.apache.lucene.search.RangeFilter is a phantom class!
Warning: org.apache.lucene.search.ConstantScoreQuery is a phantom class!
Warning: org.apache.lucene.search.MatchAllDocsQuery$MatchAllDocsWeight is a phantom class!
Warning: org.apache.lucene.search.MatchAllDocsQuery$MatchAllScorer is a phantom class!
Warning: org.apache.lucene.search.FilteredTermEnum is a phantom class!
Warning: org.apache.lucene.search.FuzzyQuery$ScoreTerm is a phantom class!
Warning: org.apache.lucene.search.FuzzyTermEnum is a phantom class!
Warning: org.apache.lucene.search.FuzzyQuery$ScoreTermQueue is a phantom class!
Warning: org.apache.lucene.search.WildcardTermEnum is a phantom class!
Warning: org.apache.lucene.analysis.CharArraySet$CharArraySetIterator is a phantom class!
Warning: org.dacapo.harness.Benchmark$1 is a phantom class!
[Call Graph] For information on where the call graph may be incomplete, use the verbose option to the cg phase.
found type: Ljava/lang/reflect/Constructor<*>;
found type: Ljava/lang/reflect/Constructor<*>;
[Spark] Pointer Assignment Graph in 0.4 seconds.
[Spark] Type masks in 0.0 seconds.
[Spark] Pointer Graph simplified in 0.0 seconds.
found type: Ljava/util/Vector<Ljava/lang/String;>;
found type: Ljava/util/Vector<Ljava/lang/String;>;
found type: Ljava/util/List<Ljava/lang/String;>;
found type: Ljava/util/List<Ljava/lang/String;>;
found type: Ljava/util/List<Ljava/lang/String;>;
found type: Ljava/util/List<Ljava/lang/String;>;
found type: Ljava/util/Enumeration<*>;
found type: Ljava/util/Enumeration<*>;
found type: Ljava/util/Enumeration<*>;
found type: Ljava/util/List<Ljava/lang/String;>;
found type: Ljava/util/List<Ljava/lang/String;>;
found type: Ljava/util/List<Ljava/lang/String;>;
found type: Ljava/util/Iterator<Ljava/lang/String;>;
found type: Ljava/util/Iterator<Ljava/lang/String;>;
found type: Ljava/util/Iterator<Ljava/lang/String;>;
found type: Ljava/util/Iterator<Ljava/lang/String;>;
found type: Ljava/lang/Class<*>;
found type: Ljava/lang/Class<*>;
found type: Ljava/lang/Class<*>;
found type: Ljava/lang/Class<*>;
found type: Ljava/lang/reflect/Constructor<*>;
found type: Ljava/lang/reflect/Constructor<*>;
found type: Ljava/lang/Class<*>;
found type: Ljava/lang/Class<*>;
found type: Ljava/lang/Class<*>;
found type: Ljava/lang/Class<*>;
found type: Ljava/lang/Class<*>;
found type: Ljava/lang/Class<*>;
[Spark] Propagation in 23.2 seconds.
[Spark] Solution found in 23.2 seconds.
[local-objects] Analyzing local objects for org.dacapo.lusearch.Search$QueryThread
[local-objects]   preparing class             Tue Nov 11 01:00:35 EST 2014
[local-objects]   analyzing class             Tue Nov 11 01:00:35 EST 2014
[local-objects]   propagating over call graph Tue Nov 11 01:00:36 EST 2014
[local-objects]   finished at                 Tue Nov 11 01:00:36 EST 2014
[local-objects]   (#analyzed/#encountered): 1149/1149
[local-objects] Analyzing local objects for org.dacapo.lusearch.Search$QueryProcessor
[local-objects]   preparing class             Tue Nov 11 01:00:36 EST 2014
[local-objects]   analyzing class             Tue Nov 11 01:00:36 EST 2014
[local-objects]   propagating over call graph Tue Nov 11 01:00:36 EST 2014
[local-objects]   finished at                 Tue Nov 11 01:00:38 EST 2014
[local-objects]   (#analyzed/#encountered): 1149/1149
[local-objects] Analyzing local objects for Harness
[local-objects]   preparing class             Tue Nov 11 01:00:38 EST 2014
[local-objects]   analyzing class             Tue Nov 11 01:00:38 EST 2014
[local-objects]   propagating over call graph Tue Nov 11 01:00:38 EST 2014
[local-objects]   finished at                 Tue Nov 11 01:00:38 EST 2014
[local-objects]   (#analyzed/#encountered): 1151/1151
Transforming org.apache.lucene.index.SegmentReader... 
Transforming org.apache.lucene.index.DirectoryIndexReader... 
Transforming org.apache.lucene.index.CorruptIndexException... 
Transforming org.apache.lucene.index.SegmentInfo... 
Transforming org.apache.lucene.index.FieldInfos... 
Transforming org.apache.lucene.index.FieldsReader... 
Transforming org.apache.lucene.index.TermInfosReader... 
Transforming org.apache.lucene.util.CloseableThreadLocal... 
Transforming org.apache.lucene.store.IndexInput... 
Transforming org.apache.lucene.index.CompoundFileReader... 
Transforming org.apache.lucene.index.SegmentInfos... 
Transforming org.apache.lucene.store.Directory... 
Transforming org.apache.lucene.index.TermEnum... 
Transforming org.apache.lucene.index.Term... 
Transforming org.apache.lucene.document.Document... 
Transforming org.apache.lucene.document.FieldSelector... 
Transforming org.apache.lucene.index.TermDocs... 
Transforming org.apache.lucene.index.TermPositions... 
Transforming org.apache.lucene.index.IndexReader... 
Transforming org.apache.lucene.index.ReadOnlyMultiSegmentReader... 
Transforming org.apache.lucene.index.SegmentReader$Norm... 
Transforming org.apache.lucene.index.ReadOnlySegmentReader... 
Transforming org.apache.lucene.index.TermInfo... 
Transforming org.apache.lucene.search.DefaultSimilarity... 
Transforming org.apache.lucene.index.FieldInfo... 
Transforming org.apache.lucene.index.MultiSegmentReader... 
exception in loadstore optimization for:  org.apache.lucene.index.MultiSegmentReader.norms
Transforming org.apache.lucene.index.SegmentMerger... 
Transforming org.apache.lucene.index.SegmentTermEnum... 
Transforming org.apache.lucene.index.SegmentTermDocs... 
Transforming org.apache.lucene.index.StaleReaderException... 
Transforming org.apache.lucene.store.LockObtainFailedException... 
Transforming org.apache.lucene.index.IndexDeletionPolicy... 
Transforming org.apache.lucene.store.Lock... 
Transforming org.apache.lucene.index.IndexCommit... 
Transforming org.apache.lucene.index.SegmentInfos$FindSegmentsFile... 
Transforming org.apache.lucene.index.DirectoryIndexReader$2... 
Transforming org.apache.lucene.store.FSDirectory... 
exception in loadstore optimization for:  org.apache.lucene.store.FSDirectory.getLockID
Transforming org.apache.lucene.index.DirectoryIndexReader$1... 
Transforming org.apache.lucene.index.DirectoryIndexReader$ReaderCommit... 
Transforming org.apache.lucene.index.KeepOnlyLastCommitDeletionPolicy... 
Transforming org.apache.lucene.store.AlreadyClosedException... 
Transforming org.apache.lucene.search.Similarity... 
Transforming org.apache.lucene.document.FieldSelectorResult... 
Transforming org.apache.lucene.store.IndexOutput... 
Transforming org.apache.lucene.store.ChecksumIndexOutput... 
Transforming org.apache.lucene.store.ChecksumIndexInput... 
Transforming org.apache.lucene.index.IndexFileNames... 
Transforming org.apache.lucene.index.TermInfosReader$ThreadResources... 
Transforming org.apache.lucene.util.cache.Cache... 
Transforming org.apache.lucene.util.cache.SimpleLRUCache... 
Transforming org.apache.lucene.document.Fieldable... 
Transforming org.apache.lucene.store.LockFactory... 
Transforming org.apache.lucene.document.Field... 
Transforming org.apache.lucene.document.Field$TermVector... 
Transforming org.apache.lucene.document.Field$Index... 
Transforming org.apache.lucene.document.Field$Store... 
Transforming org.apache.lucene.index.CompoundFileReader$FileEntry... 
Transforming org.apache.lucene.index.CompoundFileReader$CSIndexInput... 
Transforming org.apache.lucene.index.TermBuffer... 
Transforming org.apache.lucene.index.IndexCommitPoint... 
Transforming org.apache.lucene.store.FSDirectory$FSIndexInput... 
Transforming org.apache.lucene.store.NoLockFactory... 
Transforming org.apache.lucene.store.FSDirectory$FSIndexOutput... 
Transforming org.apache.lucene.index.IndexFileNameFilter... 
Transforming org.apache.lucene.store.SimpleFSLockFactory... 
Transforming org.apache.lucene.search.Searcher... 
Transforming org.apache.lucene.util.SmallFloat... 
Transforming org.apache.lucene.util.UnicodeUtil$UTF8Result... 
Transforming org.apache.lucene.util.UnicodeUtil... 
Transforming org.apache.lucene.util.cache.Cache$SynchronizedCache... 
Transforming org.apache.lucene.util.cache.SimpleMapCache... 
Transforming org.apache.lucene.util.cache.SimpleLRUCache$1... 
Transforming org.apache.lucene.analysis.TokenStream... 
Transforming org.apache.lucene.document.AbstractField... 
Transforming org.apache.lucene.util.Parameter... 
Transforming org.apache.lucene.store.BufferedIndexInput... 
Transforming org.apache.lucene.util.UnicodeUtil$UTF16Result... 
Transforming org.apache.lucene.store.FSDirectory$FSIndexInput$Descriptor... 
Transforming org.apache.lucene.store.BufferedIndexOutput... 
exception in loadstore optimization for:  org.apache.lucene.store.BufferedIndexOutput.writeBytes
Transforming org.apache.lucene.store.SimpleFSLock... 
Transforming org.apache.lucene.search.Searchable... 
Transforming org.apache.lucene.search.Query... 
Transforming org.apache.lucene.search.Filter... 
Transforming org.apache.lucene.search.HitCollector... 
Transforming org.apache.lucene.search.TopDocs... 
Transforming org.apache.lucene.search.Explanation... 
Transforming org.apache.lucene.search.Weight... 
Transforming org.apache.lucene.util.cache.SimpleMapCache$SynchronizedSimpleMapCache... 
Transforming org.apache.lucene.analysis.Token... 
Transforming org.apache.lucene.search.BooleanQuery... 
exception in loadstore optimization for:  org.apache.lucene.search.BooleanQuery.rewrite
exception in loadstore optimization for:  org.apache.lucene.search.BooleanQuery.toString
Transforming org.apache.lucene.search.BooleanClause$Occur... 
Transforming org.apache.lucene.search.BooleanClause... 
Transforming org.apache.lucene.search.Scorer... 
Transforming org.apache.lucene.search.ScoreDoc... 
Transforming org.apache.lucene.search.BooleanQuery$1... 
Transforming org.apache.lucene.search.BooleanQuery$TooManyClauses... 
Transforming org.apache.lucene.search.BooleanQuery$BooleanWeight... 
Transforming org.apache.lucene.util.ToStringUtils... 
Transforming org.apache.lucene.search.DocIdSetIterator... 
Transforming org.apache.lucene.search.SimilarityDelegator... 
Transforming org.apache.lucene.search.BooleanScorer2... 
exception in loadstore optimization for:  org.apache.lucene.search.BooleanScorer2.score
Transforming org.apache.lucene.search.ComplexExplanation... 
Transforming org.apache.lucene.search.BooleanScorer2$Coordinator... 
exception in loadstore optimization for:  org.apache.lucene.search.BooleanScorer2$Coordinator.init
Transforming org.apache.lucene.search.BooleanScorer2$SingleMatchScorer... 
Transforming org.apache.lucene.search.ConjunctionScorer... 
exception in loadstore optimization for:  org.apache.lucene.search.ConjunctionScorer.doNext
exception in loadstore optimization for:  org.apache.lucene.search.ConjunctionScorer.score
Transforming org.apache.lucene.search.ReqExclScorer... 
Transforming org.apache.lucene.search.ReqOptSumScorer... 
Transforming org.apache.lucene.search.NonMatchingScorer... 
Transforming org.apache.lucene.search.BooleanScorer2$2... 
Transforming org.apache.lucene.search.BooleanScorer2$1... 
Transforming org.apache.lucene.search.DisjunctionSumScorer... 
exception in loadstore optimization for:  org.apache.lucene.search.DisjunctionSumScorer.initScorerDocQueue
exception in loadstore optimization for:  org.apache.lucene.search.DisjunctionSumScorer.advanceAfterCurrent
Transforming org.apache.lucene.analysis.standard.StandardFilter... 
Transforming org.apache.lucene.analysis.TokenFilter... 
Transforming org.apache.lucene.analysis.standard.StandardTokenizerImpl... 
exception in loadstore optimization for:  org.apache.lucene.analysis.standard.StandardTokenizerImpl.getNextToken
Transforming org.apache.lucene.analysis.standard.StandardTokenizer... 
Transforming org.apache.lucene.analysis.Tokenizer... 
Transforming org.dacapo.lusearch.Search... 
Transforming org.dacapo.lusearch.Search$QueryProcessor... 
exception in loadstore optimization for:  org.dacapo.lusearch.Search$QueryProcessor.doPagingSearch
Transforming org.dacapo.lusearch.Search$QueryThread... 
Transforming org.dacapo.lusearch.Search$OneNormsReader... 
Transforming org.apache.lucene.analysis.Analyzer... 
Transforming org.apache.lucene.analysis.standard.StandardAnalyzer... 
Transforming org.apache.lucene.search.TopDocCollector... 
Transforming org.apache.lucene.search.IndexSearcher... 
Transforming org.apache.lucene.queryParser.QueryParser... 
exception in loadstore optimization for:  org.apache.lucene.queryParser.QueryParser.jj_rescan_token
exception in loadstore optimization for:  org.apache.lucene.queryParser.QueryParser.jj_save
Transforming org.apache.lucene.index.FilterIndexReader... 
Transforming org.apache.lucene.analysis.LowerCaseFilter... 
Transforming org.apache.lucene.analysis.StopAnalyzer... 
Transforming org.apache.lucene.analysis.StopFilter... 
Transforming org.apache.lucene.util.PriorityQueue... 
Transforming org.apache.lucene.search.HitQueue... 
Transforming org.apache.lucene.search.TopFieldDocCollector... 
Transforming org.apache.lucene.queryParser.QueryParserConstants... 
Transforming org.apache.lucene.queryParser.ParseException... 
exception in loadstore optimization for:  org.apache.lucene.queryParser.ParseException.getMessage
Transforming org.apache.lucene.queryParser.QueryParser$Operator... 
Transforming org.apache.lucene.queryParser.QueryParserTokenManager... 
exception in loadstore optimization for:  org.apache.lucene.queryParser.QueryParserTokenManager.jjAddStates
exception in loadstore optimization for:  org.apache.lucene.queryParser.QueryParserTokenManager.jjCheckNAddStates
Transforming org.apache.lucene.queryParser.Token... 
Transforming org.apache.lucene.queryParser.QueryParser$JJCalls... 
Transforming org.apache.lucene.queryParser.QueryParser$LookaheadSuccess... 
Transforming org.apache.lucene.search.PhraseQuery... 
Transforming org.apache.lucene.search.MultiPhraseQuery... 
Transforming org.apache.lucene.queryParser.CharStream... 
Transforming org.apache.lucene.queryParser.TokenMgrError... 
Transforming org.apache.lucene.search.RangeQuery... 
Transforming org.apache.lucene.analysis.SimpleAnalyzer... 
Transforming org.apache.lucene.search.PrefixQuery... 
Transforming org.apache.lucene.search.ConstantScoreRangeQuery... 
Transforming org.apache.lucene.search.MatchAllDocsQuery... 
Transforming org.apache.lucene.search.FuzzyQuery... 
exception in loadstore optimization for:  org.apache.lucene.search.FuzzyQuery.rewrite
Transforming org.apache.lucene.search.WildcardQuery... 
Transforming org.apache.lucene.queryParser.FastCharStream... 
Transforming org.apache.lucene.search.TermQuery... 
Transforming org.apache.lucene.analysis.LowerCaseTokenizer... 
Transforming org.apache.lucene.analysis.CharArraySet... 
Transforming org.apache.lucene.search.MultiTermQuery... 
Transforming org.apache.lucene.search.TermQuery$TermWeight... 
Transforming org.apache.lucene.analysis.LetterTokenizer... 
Transforming org.apache.lucene.search.TermScorer... 
Transforming org.apache.lucene.analysis.CharTokenizer... 
Transforming org.apache.commons.cli.Option... 
Transforming org.apache.commons.cli.CommandLineParser... 
Transforming org.apache.commons.cli.Options... 
Transforming org.apache.commons.cli.CommandLine... 
Transforming org.apache.commons.cli.PosixParser... 
Transforming org.apache.commons.cli.HelpFormatter... 
Transforming org.apache.commons.cli.ParseException... 
Transforming org.apache.commons.cli.OptionGroup... 
Transforming org.apache.commons.cli.Util... 
Transforming org.apache.commons.cli.Parser... 
Transforming org.apache.commons.cli.HelpFormatter$1... 
Transforming org.apache.commons.cli.HelpFormatter$OptionComparator... 
Transforming org.apache.commons.cli.OptionValidator... 
Transforming org.apache.commons.cli.TypeHandler... 
Transforming org.apache.commons.cli.AlreadySelectedException... 
Transforming org.apache.commons.cli.MissingOptionException... 
Transforming org.apache.commons.cli.MissingArgumentException... 
Transforming org.apache.commons.cli.UnrecognizedOptionException... 
Transforming org.apache.commons.cli.PatternOptionBuilder... 
Transforming org.apache.commons.cli.OptionBuilder... 
Transforming Harness... 
Writing to /home/lpxz/eclipse/workspacePA_icse/leap/transformer/tmp/record/org/apache/lucene/index/SegmentReader.class
Writing to /home/lpxz/eclipse/workspacePA_icse/leap/transformer/tmp/record/org/apache/lucene/index/DirectoryIndexReader.class
Writing to /home/lpxz/eclipse/workspacePA_icse/leap/transformer/tmp/record/org/apache/lucene/index/CorruptIndexException.class
Writing to /home/lpxz/eclipse/workspacePA_icse/leap/transformer/tmp/record/org/apache/lucene/index/SegmentInfo.class
Writing to /home/lpxz/eclipse/workspacePA_icse/leap/transformer/tmp/record/org/apache/lucene/index/FieldInfos.class
Writing to /home/lpxz/eclipse/workspacePA_icse/leap/transformer/tmp/record/org/apache/lucene/index/FieldsReader.class
Writing to /home/lpxz/eclipse/workspacePA_icse/leap/transformer/tmp/record/org/apache/lucene/index/TermInfosReader.class
Writing to /home/lpxz/eclipse/workspacePA_icse/leap/transformer/tmp/record/org/apache/lucene/util/CloseableThreadLocal.class
Writing to /home/lpxz/eclipse/workspacePA_icse/leap/transformer/tmp/record/org/apache/lucene/store/IndexInput.class
Writing to /home/lpxz/eclipse/workspacePA_icse/leap/transformer/tmp/record/org/apache/lucene/index/CompoundFileReader.class
Writing to /home/lpxz/eclipse/workspacePA_icse/leap/transformer/tmp/record/org/apache/lucene/index/SegmentInfos.class
Writing to /home/lpxz/eclipse/workspacePA_icse/leap/transformer/tmp/record/org/apache/lucene/store/Directory.class
Writing to /home/lpxz/eclipse/workspacePA_icse/leap/transformer/tmp/record/org/apache/lucene/index/TermEnum.class
Writing to /home/lpxz/eclipse/workspacePA_icse/leap/transformer/tmp/record/org/apache/lucene/index/Term.class
Writing to /home/lpxz/eclipse/workspacePA_icse/leap/transformer/tmp/record/org/apache/lucene/document/Document.class
Writing to /home/lpxz/eclipse/workspacePA_icse/leap/transformer/tmp/record/org/apache/lucene/document/FieldSelector.class
Writing to /home/lpxz/eclipse/workspacePA_icse/leap/transformer/tmp/record/org/apache/lucene/index/TermDocs.class
Writing to /home/lpxz/eclipse/workspacePA_icse/leap/transformer/tmp/record/org/apache/lucene/index/TermPositions.class
Writing to /home/lpxz/eclipse/workspacePA_icse/leap/transformer/tmp/record/org/apache/lucene/index/IndexReader.class
Writing to /home/lpxz/eclipse/workspacePA_icse/leap/transformer/tmp/record/org/apache/lucene/index/ReadOnlyMultiSegmentReader.class
Writing to /home/lpxz/eclipse/workspacePA_icse/leap/transformer/tmp/record/org/apache/lucene/index/SegmentReader$Norm.class
Writing to /home/lpxz/eclipse/workspacePA_icse/leap/transformer/tmp/record/org/apache/lucene/index/ReadOnlySegmentReader.class
Writing to /home/lpxz/eclipse/workspacePA_icse/leap/transformer/tmp/record/org/apache/lucene/index/TermInfo.class
Writing to /home/lpxz/eclipse/workspacePA_icse/leap/transformer/tmp/record/org/apache/lucene/search/DefaultSimilarity.class
Writing to /home/lpxz/eclipse/workspacePA_icse/leap/transformer/tmp/record/org/apache/lucene/index/FieldInfo.class
Writing to /home/lpxz/eclipse/workspacePA_icse/leap/transformer/tmp/record/org/apache/lucene/index/MultiSegmentReader.class
Writing to /home/lpxz/eclipse/workspacePA_icse/leap/transformer/tmp/record/org/apache/lucene/index/SegmentMerger.class
Writing to /home/lpxz/eclipse/workspacePA_icse/leap/transformer/tmp/record/org/apache/lucene/index/SegmentTermEnum.class
Writing to /home/lpxz/eclipse/workspacePA_icse/leap/transformer/tmp/record/org/apache/lucene/index/SegmentTermDocs.class
Writing to /home/lpxz/eclipse/workspacePA_icse/leap/transformer/tmp/record/org/apache/lucene/index/StaleReaderException.class
Writing to /home/lpxz/eclipse/workspacePA_icse/leap/transformer/tmp/record/org/apache/lucene/store/LockObtainFailedException.class
Writing to /home/lpxz/eclipse/workspacePA_icse/leap/transformer/tmp/record/org/apache/lucene/index/IndexDeletionPolicy.class
Writing to /home/lpxz/eclipse/workspacePA_icse/leap/transformer/tmp/record/org/apache/lucene/store/Lock.class
Writing to /home/lpxz/eclipse/workspacePA_icse/leap/transformer/tmp/record/org/apache/lucene/index/IndexCommit.class
Writing to /home/lpxz/eclipse/workspacePA_icse/leap/transformer/tmp/record/org/apache/lucene/index/SegmentInfos$FindSegmentsFile.class
Writing to /home/lpxz/eclipse/workspacePA_icse/leap/transformer/tmp/record/org/apache/lucene/index/DirectoryIndexReader$2.class
Writing to /home/lpxz/eclipse/workspacePA_icse/leap/transformer/tmp/record/org/apache/lucene/store/FSDirectory.class
Writing to /home/lpxz/eclipse/workspacePA_icse/leap/transformer/tmp/record/org/apache/lucene/index/DirectoryIndexReader$1.class
Writing to /home/lpxz/eclipse/workspacePA_icse/leap/transformer/tmp/record/org/apache/lucene/index/DirectoryIndexReader$ReaderCommit.class
Writing to /home/lpxz/eclipse/workspacePA_icse/leap/transformer/tmp/record/org/apache/lucene/index/KeepOnlyLastCommitDeletionPolicy.class
Writing to /home/lpxz/eclipse/workspacePA_icse/leap/transformer/tmp/record/org/apache/lucene/store/AlreadyClosedException.class
Writing to /home/lpxz/eclipse/workspacePA_icse/leap/transformer/tmp/record/org/apache/lucene/search/Similarity.class
Writing to /home/lpxz/eclipse/workspacePA_icse/leap/transformer/tmp/record/org/apache/lucene/document/FieldSelectorResult.class
Writing to /home/lpxz/eclipse/workspacePA_icse/leap/transformer/tmp/record/org/apache/lucene/store/IndexOutput.class
Writing to /home/lpxz/eclipse/workspacePA_icse/leap/transformer/tmp/record/org/apache/lucene/store/ChecksumIndexOutput.class
Writing to /home/lpxz/eclipse/workspacePA_icse/leap/transformer/tmp/record/org/apache/lucene/store/ChecksumIndexInput.class
Writing to /home/lpxz/eclipse/workspacePA_icse/leap/transformer/tmp/record/org/apache/lucene/index/IndexFileNames.class
Writing to /home/lpxz/eclipse/workspacePA_icse/leap/transformer/tmp/record/org/apache/lucene/index/TermInfosReader$ThreadResources.class
Writing to /home/lpxz/eclipse/workspacePA_icse/leap/transformer/tmp/record/org/apache/lucene/util/cache/Cache.class
Writing to /home/lpxz/eclipse/workspacePA_icse/leap/transformer/tmp/record/org/apache/lucene/util/cache/SimpleLRUCache.class
Writing to /home/lpxz/eclipse/workspacePA_icse/leap/transformer/tmp/record/org/apache/lucene/document/Fieldable.class
Writing to /home/lpxz/eclipse/workspacePA_icse/leap/transformer/tmp/record/org/apache/lucene/store/LockFactory.class
Writing to /home/lpxz/eclipse/workspacePA_icse/leap/transformer/tmp/record/org/apache/lucene/document/Field.class
Writing to /home/lpxz/eclipse/workspacePA_icse/leap/transformer/tmp/record/org/apache/lucene/document/Field$TermVector.class
Writing to /home/lpxz/eclipse/workspacePA_icse/leap/transformer/tmp/record/org/apache/lucene/document/Field$Index.class
Writing to /home/lpxz/eclipse/workspacePA_icse/leap/transformer/tmp/record/org/apache/lucene/document/Field$Store.class
Writing to /home/lpxz/eclipse/workspacePA_icse/leap/transformer/tmp/record/org/apache/lucene/index/CompoundFileReader$FileEntry.class
Writing to /home/lpxz/eclipse/workspacePA_icse/leap/transformer/tmp/record/org/apache/lucene/index/CompoundFileReader$CSIndexInput.class
Writing to /home/lpxz/eclipse/workspacePA_icse/leap/transformer/tmp/record/org/apache/lucene/index/TermBuffer.class
Writing to /home/lpxz/eclipse/workspacePA_icse/leap/transformer/tmp/record/org/apache/lucene/index/IndexCommitPoint.class
Writing to /home/lpxz/eclipse/workspacePA_icse/leap/transformer/tmp/record/org/apache/lucene/store/FSDirectory$FSIndexInput.class
Writing to /home/lpxz/eclipse/workspacePA_icse/leap/transformer/tmp/record/org/apache/lucene/store/NoLockFactory.class
Writing to /home/lpxz/eclipse/workspacePA_icse/leap/transformer/tmp/record/org/apache/lucene/store/FSDirectory$FSIndexOutput.class
Writing to /home/lpxz/eclipse/workspacePA_icse/leap/transformer/tmp/record/org/apache/lucene/index/IndexFileNameFilter.class
Writing to /home/lpxz/eclipse/workspacePA_icse/leap/transformer/tmp/record/org/apache/lucene/store/SimpleFSLockFactory.class
Writing to /home/lpxz/eclipse/workspacePA_icse/leap/transformer/tmp/record/org/apache/lucene/search/Searcher.class
Writing to /home/lpxz/eclipse/workspacePA_icse/leap/transformer/tmp/record/org/apache/lucene/util/SmallFloat.class
Writing to /home/lpxz/eclipse/workspacePA_icse/leap/transformer/tmp/record/org/apache/lucene/util/UnicodeUtil$UTF8Result.class
Writing to /home/lpxz/eclipse/workspacePA_icse/leap/transformer/tmp/record/org/apache/lucene/util/UnicodeUtil.class
Writing to /home/lpxz/eclipse/workspacePA_icse/leap/transformer/tmp/record/org/apache/lucene/util/cache/Cache$SynchronizedCache.class
Writing to /home/lpxz/eclipse/workspacePA_icse/leap/transformer/tmp/record/org/apache/lucene/util/cache/SimpleMapCache.class
Writing to /home/lpxz/eclipse/workspacePA_icse/leap/transformer/tmp/record/org/apache/lucene/util/cache/SimpleLRUCache$1.class
Writing to /home/lpxz/eclipse/workspacePA_icse/leap/transformer/tmp/record/org/apache/lucene/analysis/TokenStream.class
Writing to /home/lpxz/eclipse/workspacePA_icse/leap/transformer/tmp/record/org/apache/lucene/document/AbstractField.class
Writing to /home/lpxz/eclipse/workspacePA_icse/leap/transformer/tmp/record/org/apache/lucene/util/Parameter.class
Writing to /home/lpxz/eclipse/workspacePA_icse/leap/transformer/tmp/record/org/apache/lucene/store/BufferedIndexInput.class
Writing to /home/lpxz/eclipse/workspacePA_icse/leap/transformer/tmp/record/org/apache/lucene/util/UnicodeUtil$UTF16Result.class
Writing to /home/lpxz/eclipse/workspacePA_icse/leap/transformer/tmp/record/org/apache/lucene/store/FSDirectory$FSIndexInput$Descriptor.class
Writing to /home/lpxz/eclipse/workspacePA_icse/leap/transformer/tmp/record/org/apache/lucene/store/BufferedIndexOutput.class
Writing to /home/lpxz/eclipse/workspacePA_icse/leap/transformer/tmp/record/org/apache/lucene/store/SimpleFSLock.class
Writing to /home/lpxz/eclipse/workspacePA_icse/leap/transformer/tmp/record/org/apache/lucene/search/Searchable.class
Writing to /home/lpxz/eclipse/workspacePA_icse/leap/transformer/tmp/record/org/apache/lucene/search/Query.class
Writing to /home/lpxz/eclipse/workspacePA_icse/leap/transformer/tmp/record/org/apache/lucene/search/Filter.class
Writing to /home/lpxz/eclipse/workspacePA_icse/leap/transformer/tmp/record/org/apache/lucene/search/HitCollector.class
Writing to /home/lpxz/eclipse/workspacePA_icse/leap/transformer/tmp/record/org/apache/lucene/search/TopDocs.class
Writing to /home/lpxz/eclipse/workspacePA_icse/leap/transformer/tmp/record/org/apache/lucene/search/Explanation.class
Writing to /home/lpxz/eclipse/workspacePA_icse/leap/transformer/tmp/record/org/apache/lucene/search/Weight.class
Writing to /home/lpxz/eclipse/workspacePA_icse/leap/transformer/tmp/record/org/apache/lucene/util/cache/SimpleMapCache$SynchronizedSimpleMapCache.class
Writing to /home/lpxz/eclipse/workspacePA_icse/leap/transformer/tmp/record/org/apache/lucene/analysis/Token.class
Writing to /home/lpxz/eclipse/workspacePA_icse/leap/transformer/tmp/record/org/apache/lucene/search/BooleanQuery.class
Writing to /home/lpxz/eclipse/workspacePA_icse/leap/transformer/tmp/record/org/apache/lucene/search/BooleanClause$Occur.class
Writing to /home/lpxz/eclipse/workspacePA_icse/leap/transformer/tmp/record/org/apache/lucene/search/BooleanClause.class
Writing to /home/lpxz/eclipse/workspacePA_icse/leap/transformer/tmp/record/org/apache/lucene/search/Scorer.class
Writing to /home/lpxz/eclipse/workspacePA_icse/leap/transformer/tmp/record/org/apache/lucene/search/ScoreDoc.class
Writing to /home/lpxz/eclipse/workspacePA_icse/leap/transformer/tmp/record/org/apache/lucene/search/BooleanQuery$1.class
Writing to /home/lpxz/eclipse/workspacePA_icse/leap/transformer/tmp/record/org/apache/lucene/search/BooleanQuery$TooManyClauses.class
Writing to /home/lpxz/eclipse/workspacePA_icse/leap/transformer/tmp/record/org/apache/lucene/search/BooleanQuery$BooleanWeight.class
Writing to /home/lpxz/eclipse/workspacePA_icse/leap/transformer/tmp/record/org/apache/lucene/util/ToStringUtils.class
Writing to /home/lpxz/eclipse/workspacePA_icse/leap/transformer/tmp/record/org/apache/lucene/search/DocIdSetIterator.class
Writing to /home/lpxz/eclipse/workspacePA_icse/leap/transformer/tmp/record/org/apache/lucene/search/SimilarityDelegator.class
Writing to /home/lpxz/eclipse/workspacePA_icse/leap/transformer/tmp/record/org/apache/lucene/search/BooleanScorer2.class
Writing to /home/lpxz/eclipse/workspacePA_icse/leap/transformer/tmp/record/org/apache/lucene/search/ComplexExplanation.class
Writing to /home/lpxz/eclipse/workspacePA_icse/leap/transformer/tmp/record/org/apache/lucene/search/BooleanScorer2$Coordinator.class
Writing to /home/lpxz/eclipse/workspacePA_icse/leap/transformer/tmp/record/org/apache/lucene/search/BooleanScorer2$SingleMatchScorer.class
Writing to /home/lpxz/eclipse/workspacePA_icse/leap/transformer/tmp/record/org/apache/lucene/search/ConjunctionScorer.class
Writing to /home/lpxz/eclipse/workspacePA_icse/leap/transformer/tmp/record/org/apache/lucene/search/ReqExclScorer.class
Writing to /home/lpxz/eclipse/workspacePA_icse/leap/transformer/tmp/record/org/apache/lucene/search/ReqOptSumScorer.class
Writing to /home/lpxz/eclipse/workspacePA_icse/leap/transformer/tmp/record/org/apache/lucene/search/NonMatchingScorer.class
Writing to /home/lpxz/eclipse/workspacePA_icse/leap/transformer/tmp/record/org/apache/lucene/search/BooleanScorer2$2.class
Writing to /home/lpxz/eclipse/workspacePA_icse/leap/transformer/tmp/record/org/apache/lucene/search/BooleanScorer2$1.class
Writing to /home/lpxz/eclipse/workspacePA_icse/leap/transformer/tmp/record/org/apache/lucene/search/DisjunctionSumScorer.class
Writing to /home/lpxz/eclipse/workspacePA_icse/leap/transformer/tmp/record/org/apache/lucene/analysis/standard/StandardFilter.class
Writing to /home/lpxz/eclipse/workspacePA_icse/leap/transformer/tmp/record/org/apache/lucene/analysis/TokenFilter.class
Writing to /home/lpxz/eclipse/workspacePA_icse/leap/transformer/tmp/record/org/apache/lucene/analysis/standard/StandardTokenizerImpl.class
Writing to /home/lpxz/eclipse/workspacePA_icse/leap/transformer/tmp/record/org/apache/lucene/analysis/standard/StandardTokenizer.class
Writing to /home/lpxz/eclipse/workspacePA_icse/leap/transformer/tmp/record/org/apache/lucene/analysis/Tokenizer.class
Writing to /home/lpxz/eclipse/workspacePA_icse/leap/transformer/tmp/record/org/dacapo/lusearch/Search.class
Writing to /home/lpxz/eclipse/workspacePA_icse/leap/transformer/tmp/record/org/dacapo/lusearch/Search$QueryProcessor.class
Writing to /home/lpxz/eclipse/workspacePA_icse/leap/transformer/tmp/record/org/dacapo/lusearch/Search$QueryThread.class
Writing to /home/lpxz/eclipse/workspacePA_icse/leap/transformer/tmp/record/org/dacapo/lusearch/Search$OneNormsReader.class
Writing to /home/lpxz/eclipse/workspacePA_icse/leap/transformer/tmp/record/org/apache/lucene/analysis/Analyzer.class
Writing to /home/lpxz/eclipse/workspacePA_icse/leap/transformer/tmp/record/org/apache/lucene/analysis/standard/StandardAnalyzer.class
Writing to /home/lpxz/eclipse/workspacePA_icse/leap/transformer/tmp/record/org/apache/lucene/search/TopDocCollector.class
Writing to /home/lpxz/eclipse/workspacePA_icse/leap/transformer/tmp/record/org/apache/lucene/search/IndexSearcher.class
Writing to /home/lpxz/eclipse/workspacePA_icse/leap/transformer/tmp/record/org/apache/lucene/queryParser/QueryParser.class
Writing to /home/lpxz/eclipse/workspacePA_icse/leap/transformer/tmp/record/org/apache/lucene/index/FilterIndexReader.class
Writing to /home/lpxz/eclipse/workspacePA_icse/leap/transformer/tmp/record/org/apache/lucene/analysis/LowerCaseFilter.class
Writing to /home/lpxz/eclipse/workspacePA_icse/leap/transformer/tmp/record/org/apache/lucene/analysis/StopAnalyzer.class
Writing to /home/lpxz/eclipse/workspacePA_icse/leap/transformer/tmp/record/org/apache/lucene/analysis/StopFilter.class
Writing to /home/lpxz/eclipse/workspacePA_icse/leap/transformer/tmp/record/org/apache/lucene/util/PriorityQueue.class
Writing to /home/lpxz/eclipse/workspacePA_icse/leap/transformer/tmp/record/org/apache/lucene/search/HitQueue.class
Writing to /home/lpxz/eclipse/workspacePA_icse/leap/transformer/tmp/record/org/apache/lucene/search/TopFieldDocCollector.class
Writing to /home/lpxz/eclipse/workspacePA_icse/leap/transformer/tmp/record/org/apache/lucene/queryParser/QueryParserConstants.class
Writing to /home/lpxz/eclipse/workspacePA_icse/leap/transformer/tmp/record/org/apache/lucene/queryParser/ParseException.class
Writing to /home/lpxz/eclipse/workspacePA_icse/leap/transformer/tmp/record/org/apache/lucene/queryParser/QueryParser$Operator.class
Writing to /home/lpxz/eclipse/workspacePA_icse/leap/transformer/tmp/record/org/apache/lucene/queryParser/QueryParserTokenManager.class
Writing to /home/lpxz/eclipse/workspacePA_icse/leap/transformer/tmp/record/org/apache/lucene/queryParser/Token.class
Writing to /home/lpxz/eclipse/workspacePA_icse/leap/transformer/tmp/record/org/apache/lucene/queryParser/QueryParser$JJCalls.class
Writing to /home/lpxz/eclipse/workspacePA_icse/leap/transformer/tmp/record/org/apache/lucene/queryParser/QueryParser$LookaheadSuccess.class
Writing to /home/lpxz/eclipse/workspacePA_icse/leap/transformer/tmp/record/org/apache/lucene/search/PhraseQuery.class
Writing to /home/lpxz/eclipse/workspacePA_icse/leap/transformer/tmp/record/org/apache/lucene/search/MultiPhraseQuery.class
Writing to /home/lpxz/eclipse/workspacePA_icse/leap/transformer/tmp/record/org/apache/lucene/queryParser/CharStream.class
Writing to /home/lpxz/eclipse/workspacePA_icse/leap/transformer/tmp/record/org/apache/lucene/queryParser/TokenMgrError.class
Writing to /home/lpxz/eclipse/workspacePA_icse/leap/transformer/tmp/record/org/apache/lucene/search/RangeQuery.class
Writing to /home/lpxz/eclipse/workspacePA_icse/leap/transformer/tmp/record/org/apache/lucene/analysis/SimpleAnalyzer.class
Writing to /home/lpxz/eclipse/workspacePA_icse/leap/transformer/tmp/record/org/apache/lucene/search/PrefixQuery.class
Writing to /home/lpxz/eclipse/workspacePA_icse/leap/transformer/tmp/record/org/apache/lucene/search/ConstantScoreRangeQuery.class
Writing to /home/lpxz/eclipse/workspacePA_icse/leap/transformer/tmp/record/org/apache/lucene/search/MatchAllDocsQuery.class
Writing to /home/lpxz/eclipse/workspacePA_icse/leap/transformer/tmp/record/org/apache/lucene/search/FuzzyQuery.class
Writing to /home/lpxz/eclipse/workspacePA_icse/leap/transformer/tmp/record/org/apache/lucene/search/WildcardQuery.class
Writing to /home/lpxz/eclipse/workspacePA_icse/leap/transformer/tmp/record/org/apache/lucene/queryParser/FastCharStream.class
Writing to /home/lpxz/eclipse/workspacePA_icse/leap/transformer/tmp/record/org/apache/lucene/search/TermQuery.class
Writing to /home/lpxz/eclipse/workspacePA_icse/leap/transformer/tmp/record/org/apache/lucene/analysis/LowerCaseTokenizer.class
Writing to /home/lpxz/eclipse/workspacePA_icse/leap/transformer/tmp/record/org/apache/lucene/analysis/CharArraySet.class
Writing to /home/lpxz/eclipse/workspacePA_icse/leap/transformer/tmp/record/org/apache/lucene/search/MultiTermQuery.class
Writing to /home/lpxz/eclipse/workspacePA_icse/leap/transformer/tmp/record/org/apache/lucene/search/TermQuery$TermWeight.class
Writing to /home/lpxz/eclipse/workspacePA_icse/leap/transformer/tmp/record/org/apache/lucene/analysis/LetterTokenizer.class
Writing to /home/lpxz/eclipse/workspacePA_icse/leap/transformer/tmp/record/org/apache/lucene/search/TermScorer.class
Writing to /home/lpxz/eclipse/workspacePA_icse/leap/transformer/tmp/record/org/apache/lucene/analysis/CharTokenizer.class
Writing to /home/lpxz/eclipse/workspacePA_icse/leap/transformer/tmp/record/org/apache/commons/cli/Option.class
Writing to /home/lpxz/eclipse/workspacePA_icse/leap/transformer/tmp/record/org/apache/commons/cli/CommandLineParser.class
Writing to /home/lpxz/eclipse/workspacePA_icse/leap/transformer/tmp/record/org/apache/commons/cli/Options.class
Writing to /home/lpxz/eclipse/workspacePA_icse/leap/transformer/tmp/record/org/apache/commons/cli/CommandLine.class
Writing to /home/lpxz/eclipse/workspacePA_icse/leap/transformer/tmp/record/org/apache/commons/cli/PosixParser.class
Writing to /home/lpxz/eclipse/workspacePA_icse/leap/transformer/tmp/record/org/apache/commons/cli/HelpFormatter.class
Writing to /home/lpxz/eclipse/workspacePA_icse/leap/transformer/tmp/record/org/apache/commons/cli/ParseException.class
Writing to /home/lpxz/eclipse/workspacePA_icse/leap/transformer/tmp/record/org/apache/commons/cli/OptionGroup.class
Writing to /home/lpxz/eclipse/workspacePA_icse/leap/transformer/tmp/record/org/apache/commons/cli/Util.class
Writing to /home/lpxz/eclipse/workspacePA_icse/leap/transformer/tmp/record/org/apache/commons/cli/Parser.class
Writing to /home/lpxz/eclipse/workspacePA_icse/leap/transformer/tmp/record/org/apache/commons/cli/HelpFormatter$1.class
Writing to /home/lpxz/eclipse/workspacePA_icse/leap/transformer/tmp/record/org/apache/commons/cli/HelpFormatter$OptionComparator.class
Writing to /home/lpxz/eclipse/workspacePA_icse/leap/transformer/tmp/record/org/apache/commons/cli/OptionValidator.class
Writing to /home/lpxz/eclipse/workspacePA_icse/leap/transformer/tmp/record/org/apache/commons/cli/TypeHandler.class
Writing to /home/lpxz/eclipse/workspacePA_icse/leap/transformer/tmp/record/org/apache/commons/cli/AlreadySelectedException.class
Writing to /home/lpxz/eclipse/workspacePA_icse/leap/transformer/tmp/record/org/apache/commons/cli/MissingOptionException.class
Writing to /home/lpxz/eclipse/workspacePA_icse/leap/transformer/tmp/record/org/apache/commons/cli/MissingArgumentException.class
Writing to /home/lpxz/eclipse/workspacePA_icse/leap/transformer/tmp/record/org/apache/commons/cli/UnrecognizedOptionException.class
Writing to /home/lpxz/eclipse/workspacePA_icse/leap/transformer/tmp/record/org/apache/commons/cli/PatternOptionBuilder.class
Writing to /home/lpxz/eclipse/workspacePA_icse/leap/transformer/tmp/record/org/apache/commons/cli/OptionBuilder.class
Writing to /home/lpxz/eclipse/workspacePA_icse/leap/transformer/tmp/record/Harness.class
*** *** *** *** *** *** *** *** *** *** 
***** Runtime version generated *****

*** Total access number: 4948
*** SPE access number: 819
*** Instrumented SPE access number: 819
*** SPE size: 104
 
*** *** *** *** *** *** *** *** *** *** 
*** SPE name: 
*** "org.apache.lucene.analysis.standard.StandardTokenizerImpl.zzStartRead" index: 69 does not survive chord
*** "org.apache.lucene.analysis.standard.StandardTokenizerImpl.zzPushbackPos" index: 73 does not survive chord
*** "org.apache.lucene.analysis.standard.StandardTokenizerImpl.zzCurrentPos" index: 72 does not survive chord
*** "org.apache.lucene.search.Query.boost" index: 40
*** "org.apache.lucene.analysis.standard.StandardTokenizerImpl.zzEndRead" index: 71 does not survive chord
*** "org.apache.lucene.queryParser.QueryParser$JJCalls.gen" index: 84 does not survive chord
*** "java.util.Map.DSINDEX" index: 20 does not survive chord
*** "org.apache.lucene.analysis.StopFilter.ENABLE_POSITION_INCREMENTS_DEFAULT" index: 88 does not survive chord
*** "org.apache.lucene.store.BufferedIndexInput.bufferLength" index: 33 does not survive chord
*** "java.util.HashMap.DSINDEX" index: 5 does not survive chord
*** "org.apache.lucene.search.ReqOptSumScorer.firstTimeOptScorer" index: 58 does not survive chord
*** "org.apache.lucene.queryParser.Token.beginColumn" index: 89 does not survive chord
*** "org.apache.lucene.search.DisjunctionSumScorer.scorerDocQueue" index: 63 does not survive chord
*** "org.apache.lucene.analysis.standard.StandardTokenizerImpl.zzState" index: 74 does not survive chord
*** "org.apache.commons.cli.OptionBuilder.longopt" index: 98 does not survive chord
*** "org.apache.lucene.store.BufferedIndexInput.bufferStart" index: 35 does not survive chord
*** "org.apache.lucene.store.FSDirectory.refCount" index: 22 does not survive chord
*** "org.apache.lucene.search.Similarity.defaultImpl" index: 23 does not survive chord
*** "org.apache.lucene.store.SimpleFSLockFactory.lockDir" index: 28 does not survive chord
*** "org.dacapo.lusearch.Search.completed" index: 76
*** "org.apache.lucene.analysis.standard.StandardTokenizerImpl.zzBuffer" index: 68 does not survive chord
*** "org.apache.lucene.search.Scorer[].ARRAYINDEX" index: 54 does not survive chord
*** "org.apache.commons.cli.OptionBuilder.type" index: 99 does not survive chord
*** "org.apache.lucene.queryParser.QueryParser.jj_la1_0" index: 81 does not survive chord
*** "org.apache.lucene.search.ReqExclScorer.firstTime" index: 55 does not survive chord
*** "org.apache.lucene.queryParser.QueryParser.jj_la1_1" index: 82 does not survive chord
*** "org.apache.lucene.index.SegmentInfos.defaultGenFileRetryPauseMsec" index: 12 does not survive chord
*** "org.apache.lucene.search.TermScorer.doc" index: 93
*** "org.apache.lucene.search.BooleanScorer2.countingSumScorer" index: 47
*** "byte[].ARRAYINDEX" index: 30 does not survive chord
*** "org.apache.lucene.util.UnicodeUtil$UTF16Result.result" index: 36 does not survive chord
*** "org.apache.lucene.store.FSDirectory$FSIndexOutput.isOpen" index: 27 does not survive chord
*** "org.apache.lucene.util.UnicodeUtil$UTF8Result.result" index: 29 does not survive chord
*** "org.apache.lucene.analysis.standard.StandardAnalyzer.defaultReplaceInvalidAcronym" index: 79 does not survive chord
*** "org.apache.lucene.search.BooleanScorer2$Coordinator.nrMatchers" index: 49 does not survive chord
*** "org.apache.lucene.index.SegmentInfos.infoStream" index: 10 does not survive chord
*** "org.apache.lucene.search.BooleanQuery.maxClauseCount" index: 43 does not survive chord
*** "org.apache.lucene.search.FuzzyQuery$ScoreTerm.score" index: 91 does not survive chord
*** "org.apache.lucene.search.BooleanScorer2$SingleMatchScorer.lastScoredDoc" index: 50 does not survive chord
*** "org.apache.lucene.queryParser.QueryParser$JJCalls.next" index: 86 does not survive chord
*** "org.apache.commons.cli.OptionBuilder.optionalArg" index: 102 does not survive chord
*** "org.apache.lucene.index.SegmentInfos.defaultGenFileRetryCount" index: 11 does not survive chord
*** "org.apache.lucene.search.TermScorer.pointerMax" index: 95 does not survive chord
*** "org.apache.lucene.search.BooleanQuery.clauses" index: 45
*** "char[].ARRAYINDEX" index: 21
*** "java.lang.String[].ARRAYINDEX" index: 4 does not survive chord
*** "org.apache.lucene.queryParser.Token.endColumn" index: 90 does not survive chord
*** "org.apache.commons.cli.OptionBuilder.description" index: 96 does not survive chord
*** "org.apache.commons.cli.OptionBuilder.required" index: 100 does not survive chord
*** "org.apache.lucene.store.FSDirectory.disableLocks" index: 19 does not survive chord
*** "org.apache.lucene.analysis.Token.termLength" index: 42
*** "org.apache.lucene.store.FSDirectory$FSIndexInput$Descriptor.position" index: 26 does not survive chord
*** "org.apache.lucene.index.DirectoryIndexReader.writeLock" index: 1 does not survive chord
*** "float[].ARRAYINDEX" index: 24 does not survive chord
*** "org.apache.lucene.index.DirectoryIndexReader.rollbackHasChanges" index: 3 does not survive chord
*** "org.apache.lucene.index.SegmentInfos.defaultGenLookaheadCount" index: 13 does not survive chord
*** "org.apache.lucene.queryParser.QueryParser$JJCalls.first" index: 85 does not survive chord
*** "org.apache.lucene.search.TermScorer.pointer" index: 94 does not survive chord
*** "org.apache.lucene.store.BufferedIndexOutput.bufferStart" index: 39 does not survive chord
*** "org.apache.lucene.store.LockFactory.lockPrefix" index: 25 does not survive chord
*** "org.apache.commons.cli.OptionBuilder.numberOfArgs" index: 101 does not survive chord
*** "org.apache.lucene.analysis.Token.positionIncrement" index: 41
*** "org.apache.lucene.search.ReqOptSumScorer.optScorer" index: 59 does not survive chord
*** "int[].ARRAYINDEX" index: 18
*** "org.apache.lucene.index.IndexReader.closed" index: 17 does not survive chord
*** "org.apache.lucene.analysis.standard.StandardTokenizerImpl.zzAtEOF" index: 75 does not survive chord
*** "org.apache.lucene.search.BooleanScorer2$Coordinator.coordFactors" index: 48 does not survive chord
*** "org.apache.lucene.store.BufferedIndexOutput.bufferPosition" index: 38 does not survive chord
*** "org.apache.lucene.index.SegmentInfos.version" index: 8 does not survive chord
*** "org.apache.lucene.analysis.standard.StandardTokenizerImpl.yychar" index: 67 does not survive chord
*** "org.apache.commons.cli.OptionBuilder.argName" index: 97 does not survive chord
*** "org.apache.lucene.search.ConjunctionScorer.firstTime" index: 52 does not survive chord
*** "org.apache.lucene.search.ScoreDoc.score" index: 78 does not survive chord
*** "org.apache.lucene.search.DisjunctionSumScorer.currentScore" index: 66 does not survive chord
*** "org.apache.lucene.search.ReqExclScorer.reqScorer" index: 57
*** "org.apache.lucene.index.CompoundFileReader.stream" index: 6 does not survive chord
*** "org.apache.lucene.queryParser.Token.next" index: 83 does not survive chord
*** "org.apache.lucene.search.ConjunctionScorer.lastDoc" index: 51
*** "org.apache.lucene.search.ReqExclScorer.exclScorer" index: 56 does not survive chord
*** "org.apache.lucene.search.DisjunctionSumScorer.nrMatchers" index: 62 does not survive chord
*** "org.apache.lucene.util.UnicodeUtil$UTF8Result.length" index: 31 does not survive chord
*** "org.apache.lucene.index.DirectoryIndexReader.rollbackSegmentInfos" index: 2 does not survive chord
*** "org.apache.lucene.util.UnicodeUtil$UTF16Result.length" index: 37 does not survive chord
*** "org.apache.lucene.search.ConjunctionScorer.more" index: 53 does not survive chord
*** "org.apache.lucene.search.BooleanScorer2$1.lastScoredDoc" index: 61 does not survive chord
*** "org.apache.lucene.index.SegmentInfos.lastGeneration" index: 14 does not survive chord
*** "org.apache.lucene.search.BooleanQuery.allowDocsOutOfOrder" index: 44 does not survive chord
*** "org.apache.lucene.search.BooleanScorer2$Coordinator.maxCoord" index: 46 does not survive chord
*** "org.apache.lucene.index.IndexReader.hasChanges" index: 0 does not survive chord
*** "org.apache.lucene.store.BufferedIndexInput.buffer" index: 34 does not survive chord
*** "org.apache.lucene.store.BufferedIndexInput.bufferPosition" index: 32 does not survive chord
*** "org.apache.lucene.search.DisjunctionSumScorer.queueSize" index: 64 does not survive chord
*** "org.apache.commons.cli.OptionBuilder.valuesep" index: 103 does not survive chord
*** "org.apache.lucene.store.Directory.isOpen" index: 15 does not survive chord
*** "org.apache.lucene.index.SegmentInfos.generation" index: 7 does not survive chord
*** "org.apache.lucene.index.SegmentInfos.pendingOutput" index: 9 does not survive chord
*** "org.apache.lucene.search.ScoreDoc.doc" index: 77 does not survive chord
*** "org.apache.lucene.index.IndexReader.refCount" index: 16 does not survive chord
*** "org.apache.lucene.queryParser.QueryParser$JJCalls.arg" index: 87 does not survive chord
*** "org.apache.lucene.queryParser.Token.image" index: 80 does not survive chord
*** "org.apache.lucene.search.DisjunctionSumScorer.currentDoc" index: 65
*** "org.apache.lucene.analysis.standard.StandardTokenizerImpl.zzMarkedPos" index: 70 does not survive chord
*** "org.apache.lucene.search.BooleanScorer2$2.lastScoredDoc" index: 60 does not survive chord
*** "org.apache.lucene.search.FuzzyQuery$ScoreTerm.term" index: 92 does not survive chord
