Buildfile: /home/lpxz/eclipse/workspacePA_icse/leap/transformer/build.xml

TransformMain:
     [java] loading the general arguments from leap.transformer.arg:
     [java] /home/lpxz/eclipse/workspacePA_icse/jstamp-AJ/bin
     [java] -f c -cp /home/lpxz/pool/jdk1.6.0_26/jre/lib/resources.jar:/home/lpxz/pool/jdk1.6.0_26/jre/lib/rt.jar:/home/lpxz/pool/jdk1.6.0_26/jre/lib/sunrsasign.jar:/home/lpxz/pool/jdk1.6.0_26/jre/lib/jsse.jar:/home/lpxz/pool/jdk1.6.0_26/jre/lib/jce.jar:/home/lpxz/pool/jdk1.6.0_26/jre/lib/charsets.jar:/home/lpxz/pool/jdk1.6.0_26/jre/lib/modules/jdk.boot.jar:/home/lpxz/pool/jdk1.6.0_26/jre/classes:/home/lpxz/eclipse/workspacePA_icse/leap/transformer/bin:/home/lpxz/eclipse/workspacePA_icse/leap/transformer/lib/xpp3_min-1.1.3.4.O.jar:/home/lpxz/eclipse/workspacePA_icse/leap/transformer/lib/xstream-1.3.1.jar:/home/lpxz/eclipse/workspacePA_icse/leap/transformer/lib/jasmin-2.3.0.jar:/home/lpxz/eclipse/workspacePA_icse/leap/transformer/lib/polyglot.jar:/home/lpxz/eclipse/workspacePA_icse/leap/transformer/lib/java_cup.jar:/home/lpxz/eclipse/workspacePA_icse/soot-One/classes:/home/lpxz/eclipse/workspacePA_icse/soot-One/lib/jasminclasses-2.5.0.jar:/home/lpxz/eclipse/workspacePA_icse/soot-One/lib/polyglotclasses-1.3.5.jar:/home/lpxz/eclipse/workspacePA_icse/jstamp-AJ/bin -main-class MatrixMultiply.MatrixMultiply MatrixMultiply.MatrixMultiply -d /home/lpxz/eclipse/workspacePA_icse/leap/transformer/tmp/record/
     [java] output record version to: /home/lpxz/eclipse/workspacePA_icse/leap/transformer/tmp/record/
     [java] [Call Graph] For information on where the call graph may be incomplete, use the verbose option to the cg phase.
     [java] [Spark] Pointer Assignment Graph in 1.3 seconds.
     [java] [Spark] Type masks in 1.4 seconds.
     [java] [Spark] Pointer Graph simplified in 0.0 seconds.
     [java] [Spark] Propagation in 22.2 seconds.
     [java] [Spark] Solution found in 22.2 seconds.
     [java] [local-objects] Analyzing local objects for MatrixMultiply.MatrixMultiply
     [java] [local-objects]   preparing class             Sat Nov 01 16:35:39 EDT 2014
     [java] [local-objects]   analyzing class             Sat Nov 01 16:35:39 EDT 2014
     [java] [local-objects]   propagating over call graph Sat Nov 01 16:35:39 EDT 2014
     [java] [local-objects]   finished at                 Sat Nov 01 16:35:40 EDT 2014
     [java] [local-objects]   (#analyzed/#encountered): 58/138
     [java] Transforming MatrixMultiply.MatrixMultiply... 
     [java] exception in loadstore optimization for:  MatrixMultiply.MatrixMultiply.run
     [java] [local-objects] Analyzing local objects for MatrixMultiply.MMul
     [java] [local-objects]   preparing class             Sat Nov 01 16:35:40 EDT 2014
     [java] [local-objects]   analyzing class             Sat Nov 01 16:35:40 EDT 2014
     [java] [local-objects]   propagating over call graph Sat Nov 01 16:35:40 EDT 2014
     [java] [local-objects]   finished at                 Sat Nov 01 16:35:40 EDT 2014
     [java] [local-objects]   (#analyzed/#encountered): 58/138
     [java] Transforming MatrixMultiply.MMul... 
     [java] Transforming common.G... 
     [java] Writing to /home/lpxz/eclipse/workspacePA_icse/leap/transformer/tmp/record/common/G.class
     [java] Writing to /home/lpxz/eclipse/workspacePA_icse/leap/transformer/tmp/record/MatrixMultiply/MMul.class
     [java] Writing to /home/lpxz/eclipse/workspacePA_icse/leap/transformer/tmp/record/MatrixMultiply/MatrixMultiply.class
     [java] ***** Runtime version generated *****
     [java] *** *** *** *** *** *** *** *** *** *** 
     [java] 
     [java] *** Total access number: 71
     [java] *** SPE access number: 6
     [java] *** Instrumented SPE access number: 6
     [java] *** SPE size: 1
     [java]  
     [java] *** *** *** *** *** *** *** *** *** *** 
     [java] *** SPE name: 
     [java] *** "double[].ARRAYINDEX" index: 0 does not survive chord

BUILD SUCCESSFUL
Total time: 29 seconds
